[{"page":1,"pages":2,"per_page":50,"total":64,"sourceid":"2","lastupdated":"2024-05-30"},[{"indicator":{"id":"IS.AIR.PSGR","value":"Air transport, passengers carried"},"country":{"id":"KR","value":"Korea, Rep."},"countryiso3code":"KOR","date":"2023","value":null,"unit":"","obs_status":"","decimal":0},{"indicator":{"id":"IS.AIR.PSGR","value":"Air transport, passengers carried"},"country":{"id":"KR","value":"Korea, Rep."},"countryiso3code":"KOR","date":"2022","value":null,"unit":"","obs_status":"","decimal":0},{"indicator":{"id":"IS.AIR.PSGR","value":"Air transport, passengers carried"},"country":{"id":"KR","value":"Korea, Rep."},"countryiso3code":"KOR","date":"2021","value":34020088,"unit":"","obs_status":"","decimal":0},{"indicator":{"id":"IS.AIR.PSGR","value":"Air transport, passengers carried"},"country":{"id":"KR","value":"Korea, Rep."},"countryiso3code":"KOR","date":"2020","value":30033310,"unit":"","obs_status":"","decimal":0},{"indicator":{"id":"IS.AIR.PSGR","value":"Air transport, passengers carried"},"country":{"id":"KR","value":"Korea, Rep."},"countryiso3code":"KOR","date":"2019","value":92434079,"unit":"","obs_status":"","decimal":0},{"indicator":{"id":"IS.AIR.PSGR","value":"Air transport, passengers carried"},"country":{"id":"KR","value":"Korea, Rep."},"countryiso3code":"KOR","date":"2018","value":88157579,"unit":"","obs_status":"","decimal":0},{"indicator":{"id":"IS.AIR.PSGR","value":"Air transport, passengers carried"},"country":{"id":"KR","value":"Korea, Rep."},"countryiso3code":"KOR","date":"2017","value":82818983,"unit":"","obs_status":"","decimal":0},{"indicator":{"id":"IS.AIR.PSGR","value":"Air transport, passengers carried"},"country":{"id":"KR","value":"Korea, Rep."},"countryiso3code":"KOR","date":"2016","value":76859538,"unit":"","obs_status":"","decimal":0},{"indicator":{"id":"IS.AIR.PSGR","value":"Air transport, passengers carried"},"country":{"id":"KR","value":"Korea, Rep."},"countryiso3code":"KOR","date":"2015","value":66093149,"unit":"","obs_status":"","decimal":0},{"indicator":{"id":"IS.AIR.PSGR","value":"Air transport, passengers carried"},"country":{"id":"KR","value":"Korea, Rep."},"countryiso3code":"KOR","date":"2014","value":58289180,"unit":"","obs_status":"","decimal":0},{"indicator":{"id":"IS.AIR.PSGR","value":"Air transport, passengers carried"},"country":{"id":"KR","value":"Korea, Rep."},"countryiso3code":"KOR","date":"2013","value":54530105,"unit":"","obs_status":"","decimal":0},{"indicator":{"id":"IS.AIR.PSGR","value":"Air transport, passengers carried"},"country":{"id":"KR","value":"Korea, Rep."},"countryiso3code":"KOR","date":"2012","value":39969577.0157166,"unit":"","obs_status":"","decimal":0},{"indicator":{"id":"IS.AIR.PSGR","value":"Air transport, passengers carried"},"country":{"id":"KR","value":"Korea, Rep."},"countryiso3code":"KOR","date":"2011","value":39911749.5898122,"unit":"","obs_status":"","decimal":0},{"indicator":{"id":"IS.AIR.PSGR","value":"Air transport, passengers carried"},"country":{"id":"KR","value":"Korea, Rep."},"countryiso3code":"KOR","date":"2010","value":36987982,"unit":"","obs_status":"","decimal":0},{"indicator":{"id":"IS.AIR.PSGR","value":"Air transport, passengers carried"},"country":{"id":"KR","value":"Korea, Rep."},"countryiso3code":"KOR","date":"2009","value":34168590,"unit":"","obs_status":"","decimal":0},{"indicator":{"id":"IS.AIR.PSGR","value":"Air transport, passengers carried"},"country":{"id":"KR","value":"Korea, Rep."},"countryiso3code":"KOR","date":"2008","value":36077655,"unit":"","obs_status":"","decimal":0},{"indicator":{"id":"IS.AIR.PSGR","value":"Air transport, passengers carried"},"country":{"id":"KR","value":"Korea, Rep."},"countryiso3code":"KOR","date":"2007","value":36655313,"unit":"","obs_status":"","decimal":0},{"indicator":{"id":"IS.AIR.PSGR","value":"Air transport, passengers carried"},"country":{"id":"KR","value":"Korea, Rep."},"countryiso3code":"KOR","date":"2006","value":34842655,"unit":"","obs_status":"","decimal":0},{"indicator":{"id":"IS.AIR.PSGR","value":"Air transport, passengers carried"},"country":{"id":"KR","value":"Korea, Rep."},"countryiso3code":"KOR","date":"2005","value":33888328,"unit":"","obs_status":"","decimal":0},{"indicator":{"id":"IS.AIR.PSGR","value":"Air transport, passengers carried"},"country":{"id":"KR","value":"Korea, Rep."},"countryiso3code":"KOR","date":"2004","value":34511494,"unit":"","obs_status":"","decimal":0},{"indicator":{"id":"IS.AIR.PSGR","value":"Air transport, passengers carried"},"country":{"id":"KR","value":"Korea, Rep."},"countryiso3code":"KOR","date":"2003","value":33372577,"unit":"","obs_status":"","decimal":0},{"indicator":{"id":"IS.AIR.PSGR","value":"Air transport, passengers carried"},"country":{"id":"KR","value":"Korea, Rep."},"countryiso3code":"KOR","date":"2002","value":34831814,"unit":"","obs_status":"","decimal":0},{"indicator":{"id":"IS.AIR.PSGR","value":"Air transport, passengers carried"},"country":{"id":"KR","value":"Korea, Rep."},"countryiso3code":"KOR","date":"2001","value":33710340,"unit":"","obs_status":"","decimal":0},{"indicator":{"id":"IS.AIR.PSGR","value":"Air transport, passengers carried"},"country":{"id":"KR","value":"Korea, Rep."},"countryiso3code":"KOR","date":"2000","value":34331368,"unit":"","obs_status":"","decimal":0},{"indicator":{"id":"IS.AIR.PSGR","value":"Air transport, passengers carried"},"country":{"id":"KR","value":"Korea, Rep."},"countryiso3code":"KOR","date":"1999","value":30870200,"unit":"","obs_status":"","decimal":0},{"indicator":{"id":"IS.AIR.PSGR","value":"Air transport, passengers carried"},"country":{"id":"KR","value":"Korea, Rep."},"countryiso3code":"KOR","date":"1998","value":27109000,"unit":"","obs_status":"","decimal":0},{"indicator":{"id":"IS.AIR.PSGR","value":"Air transport, passengers carried"},"country":{"id":"KR","value":"Korea, Rep."},"countryiso3code":"KOR","date":"1997","value":35505800,"unit":"","obs_status":"","decimal":0},{"indicator":{"id":"IS.AIR.PSGR","value":"Air transport, passengers carried"},"country":{"id":"KR","value":"Korea, Rep."},"countryiso3code":"KOR","date":"1996","value":33002700,"unit":"","obs_status":"","decimal":0},{"indicator":{"id":"IS.AIR.PSGR","value":"Air transport, passengers carried"},"country":{"id":"KR","value":"Korea, Rep."},"countryiso3code":"KOR","date":"1995","value":29345200,"unit":"","obs_status":"","decimal":0},{"indicator":{"id":"IS.AIR.PSGR","value":"Air transport, passengers carried"},"country":{"id":"KR","value":"Korea, Rep."},"countryiso3code":"KOR","date":"1994","value":24932300,"unit":"","obs_status":"","decimal":0},{"indicator":{"id":"IS.AIR.PSGR","value":"Air transport, passengers carried"},"country":{"id":"KR","value":"Korea, Rep."},"countryiso3code":"KOR","date":"1993","value":21425900,"unit":"","obs_status":"","decimal":0},{"indicator":{"id":"IS.AIR.PSGR","value":"Air transport, passengers carried"},"country":{"id":"KR","value":"Korea, Rep."},"countryiso3code":"KOR","date":"1992","value":19766900,"unit":"","obs_status":"","decimal":0},{"indicator":{"id":"IS.AIR.PSGR","value":"Air transport, passengers carried"},"country":{"id":"KR","value":"Korea, Rep."},"countryiso3code":"KOR","date":"1991","value":16908000,"unit":"","obs_status":"","decimal":0},{"indicator":{"id":"IS.AIR.PSGR","value":"Air transport, passengers carried"},"country":{"id":"KR","value":"Korea, Rep."},"countryiso3code":"KOR","date":"1990","value":15684500,"unit":"","obs_status":"","decimal":0},{"indicator":{"id":"IS.AIR.PSGR","value":"Air transport, passengers carried"},"country":{"id":"KR","value":"Korea, Rep."},"countryiso3code":"KOR","date":"1989","value":13160800,"unit":"","obs_status":"","decimal":0},{"indicator":{"id":"IS.AIR.PSGR","value":"Air transport, passengers carried"},"country":{"id":"KR","value":"Korea, Rep."},"countryiso3code":"KOR","date":"1988","value":9826000,"unit":"","obs_status":"","decimal":0},{"indicator":{"id":"IS.AIR.PSGR","value":"Air transport, passengers carried"},"country":{"id":"KR","value":"Korea, Rep."},"countryiso3code":"KOR","date":"1987","value":8330900,"unit":"","obs_status":"","decimal":0},{"indicator":{"id":"IS.AIR.PSGR","value":"Air transport, passengers carried"},"country":{"id":"KR","value":"Korea, Rep."},"countryiso3code":"KOR","date":"1986","value":7211400,"unit":"","obs_status":"","decimal":0},{"indicator":{"id":"IS.AIR.PSGR","value":"Air transport, passengers carried"},"country":{"id":"KR","value":"Korea, Rep."},"countryiso3code":"KOR","date":"1985","value":6202500,"unit":"","obs_status":"","decimal":0},{"indicator":{"id":"IS.AIR.PSGR","value":"Air transport, passengers carried"},"country":{"id":"KR","value":"Korea, Rep."},"countryiso3code":"KOR","date":"1984","value":5353300,"unit":"","obs_status":"","decimal":0},{"indicator":{"id":"IS.AIR.PSGR","value":"Air transport, passengers carried"},"country":{"id":"KR","value":"Korea, Rep."},"countryiso3code":"KOR","date":"1983","value":4861500,"unit":"","obs_status":"","decimal":0},{"indicator":{"id":"IS.AIR.PSGR","value":"Air transport, passengers carried"},"country":{"id":"KR","value":"Korea, Rep."},"countryiso3code":"KOR","date":"1982","value":4201500,"unit":"","obs_status":"","decimal":0},{"indicator":{"id":"IS.AIR.PSGR","value":"Air transport, passengers carried"},"country":{"id":"KR","value":"Korea, Rep."},"countryiso3code":"KOR","date":"1981","value":4186700,"unit":"","obs_status":"","decimal":0},{"indicator":{"id":"IS.AIR.PSGR","value":"Air transport, passengers carried"},"country":{"id":"KR","value":"Korea, Rep."},"countryiso3code":"KOR","date":"1980","value":3566600,"unit":"","obs_status":"","decimal":0},{"indicator":{"id":"IS.AIR.PSGR","value":"Air transport, passengers carried"},"country":{"id":"KR","value":"Korea, Rep."},"countryiso3code":"KOR","date":"1979","value":3725900,"unit":"","obs_status":"","decimal":0},{"indicator":{"id":"IS.AIR.PSGR","value":"Air transport, passengers carried"},"country":{"id":"KR","value":"Korea, Rep."},"countryiso3code":"KOR","date":"1978","value":3099800,"unit":"","obs_status":"","decimal":0},{"indicator":{"id":"IS.AIR.PSGR","value":"Air transport, passengers carried"},"country":{"id":"KR","value":"Korea, Rep."},"countryiso3code":"KOR","date":"1977","value":2466500,"unit":"","obs_status":"","decimal":0},{"indicator":{"id":"IS.AIR.PSGR","value":"Air transport, passengers carried"},"country":{"id":"KR","value":"Korea, Rep."},"countryiso3code":"KOR","date":"1976","value":2075200,"unit":"","obs_status":"","decimal":0},{"indicator":{"id":"IS.AIR.PSGR","value":"Air transport, passengers carried"},"country":{"id":"KR","value":"Korea, Rep."},"countryiso3code":"KOR","date":"1975","value":2046700,"unit":"","obs_status":"","decimal":0},{"indicator":{"id":"IS.AIR.PSGR","value":"Air transport, passengers carried"},"country":{"id":"KR","value":"Korea, Rep."},"countryiso3code":"KOR","date":"1974","value":1923800,"unit":"","obs_status":"","decimal":0}]]