[{"page":1,"pages":2,"per_page":50,"total":64,"sourceid":"2","lastupdated":"2024-05-30"},[{"indicator":{"id":"EG.ELC.ACCS.ZS","value":"Access to electricity (% of population)"},"country":{"id":"KR","value":"Korea, Rep."},"countryiso3code":"KOR","date":"2023","value":null,"unit":"","obs_status":"","decimal":1},{"indicator":{"id":"EG.ELC.ACCS.ZS","value":"Access to electricity (% of population)"},"country":{"id":"KR","value":"Korea, Rep."},"countryiso3code":"KOR","date":"2022","value":null,"unit":"","obs_status":"","decimal":1},{"indicator":{"id":"EG.ELC.ACCS.ZS","value":"Access to electricity (% of population)"},"country":{"id":"KR","value":"Korea, Rep."},"countryiso3code":"KOR","date":"2021","value":100,"unit":"","obs_status":"","decimal":1},{"indicator":{"id":"EG.ELC.ACCS.ZS","value":"Access to electricity (% of population)"},"country":{"id":"KR","value":"Korea, Rep."},"countryiso3code":"KOR","date":"2020","value":100,"unit":"","obs_status":"","decimal":1},{"indicator":{"id":"EG.ELC.ACCS.ZS","value":"Access to electricity (% of population)"},"country":{"id":"KR","value":"Korea, Rep."},"countryiso3code":"KOR","date":"2019","value":100,"unit":"","obs_status":"","decimal":1},{"indicator":{"id":"EG.ELC.ACCS.ZS","value":"Access to electricity (% of population)"},"country":{"id":"KR","value":"Korea, Rep."},"countryiso3code":"KOR","date":"2018","value":100,"unit":"","obs_status":"","decimal":1},{"indicator":{"id":"EG.ELC.ACCS.ZS","value":"Access to electricity (% of population)"},"country":{"id":"KR","value":"Korea, Rep."},"countryiso3code":"KOR","date":"2017","value":100,"unit":"","obs_status":"","decimal":1},{"indicator":{"id":"EG.ELC.ACCS.ZS","value":"Access to electricity (% of population)"},"country":{"id":"KR","value":"Korea, Rep."},"countryiso3code":"KOR","date":"2016","value":100,"unit":"","obs_status":"","decimal":1},{"indicator":{"id":"EG.ELC.ACCS.ZS","value":"Access to electricity (% of population)"},"country":{"id":"KR","value":"Korea, Rep."},"countryiso3code":"KOR","date":"2015","value":100,"unit":"","obs_status":"","decimal":1},{"indicator":{"id":"EG.ELC.ACCS.ZS","value":"Access to electricity (% of population)"},"country":{"id":"KR","value":"Korea, Rep."},"countryiso3code":"KOR","date":"2014","value":100,"unit":"","obs_status":"","decimal":1},{"indicator":{"id":"EG.ELC.ACCS.ZS","value":"Access to electricity (% of population)"},"country":{"id":"KR","value":"Korea, Rep."},"countryiso3code":"KOR","date":"2013","value":100,"unit":"","obs_status":"","decimal":1},{"indicator":{"id":"EG.ELC.ACCS.ZS","value":"Access to electricity (% of population)"},"country":{"id":"KR","value":"Korea, Rep."},"countryiso3code":"KOR","date":"2012","value":100,"unit":"","obs_status":"","decimal":1},{"indicator":{"id":"EG.ELC.ACCS.ZS","value":"Access to electricity (% of population)"},"country":{"id":"KR","value":"Korea, Rep."},"countryiso3code":"KOR","date":"2011","value":100,"unit":"","obs_status":"","decimal":1},{"indicator":{"id":"EG.ELC.ACCS.ZS","value":"Access to electricity (% of population)"},"country":{"id":"KR","value":"Korea, Rep."},"countryiso3code":"KOR","date":"2010","value":100,"unit":"","obs_status":"","decimal":1},{"indicator":{"id":"EG.ELC.ACCS.ZS","value":"Access to electricity (% of population)"},"country":{"id":"KR","value":"Korea, Rep."},"countryiso3code":"KOR","date":"2009","value":100,"unit":"","obs_status":"","decimal":1},{"indicator":{"id":"EG.ELC.ACCS.ZS","value":"Access to electricity (% of population)"},"country":{"id":"KR","value":"Korea, Rep."},"countryiso3code":"KOR","date":"2008","value":100,"unit":"","obs_status":"","decimal":1},{"indicator":{"id":"EG.ELC.ACCS.ZS","value":"Access to electricity (% of population)"},"country":{"id":"KR","value":"Korea, Rep."},"countryiso3code":"KOR","date":"2007","value":100,"unit":"","obs_status":"","decimal":1},{"indicator":{"id":"EG.ELC.ACCS.ZS","value":"Access to electricity (% of population)"},"country":{"id":"KR","value":"Korea, Rep."},"countryiso3code":"KOR","date":"2006","value":100,"unit":"","obs_status":"","decimal":1},{"indicator":{"id":"EG.ELC.ACCS.ZS","value":"Access to electricity (% of population)"},"country":{"id":"KR","value":"Korea, Rep."},"countryiso3code":"KOR","date":"2005","value":100,"unit":"","obs_status":"","decimal":1},{"indicator":{"id":"EG.ELC.ACCS.ZS","value":"Access to electricity (% of population)"},"country":{"id":"KR","value":"Korea, Rep."},"countryiso3code":"KOR","date":"2004","value":100,"unit":"","obs_status":"","decimal":1},{"indicator":{"id":"EG.ELC.ACCS.ZS","value":"Access to electricity (% of population)"},"country":{"id":"KR","value":"Korea, Rep."},"countryiso3code":"KOR","date":"2003","value":100,"unit":"","obs_status":"","decimal":1},{"indicator":{"id":"EG.ELC.ACCS.ZS","value":"Access to electricity (% of population)"},"country":{"id":"KR","value":"Korea, Rep."},"countryiso3code":"KOR","date":"2002","value":100,"unit":"","obs_status":"","decimal":1},{"indicator":{"id":"EG.ELC.ACCS.ZS","value":"Access to electricity (% of population)"},"country":{"id":"KR","value":"Korea, Rep."},"countryiso3code":"KOR","date":"2001","value":100,"unit":"","obs_status":"","decimal":1},{"indicator":{"id":"EG.ELC.ACCS.ZS","value":"Access to electricity (% of population)"},"country":{"id":"KR","value":"Korea, Rep."},"countryiso3code":"KOR","date":"2000","value":100,"unit":"","obs_status":"","decimal":1},{"indicator":{"id":"EG.ELC.ACCS.ZS","value":"Access to electricity (% of population)"},"country":{"id":"KR","value":"Korea, Rep."},"countryiso3code":"KOR","date":"1999","value":100,"unit":"","obs_status":"","decimal":1},{"indicator":{"id":"EG.ELC.ACCS.ZS","value":"Access to electricity (% of population)"},"country":{"id":"KR","value":"Korea, Rep."},"countryiso3code":"KOR","date":"1998","value":100,"unit":"","obs_status":"","decimal":1},{"indicator":{"id":"EG.ELC.ACCS.ZS","value":"Access to electricity (% of population)"},"country":{"id":"KR","value":"Korea, Rep."},"countryiso3code":"KOR","date":"1997","value":100,"unit":"","obs_status":"","decimal":1},{"indicator":{"id":"EG.ELC.ACCS.ZS","value":"Access to electricity (% of population)"},"country":{"id":"KR","value":"Korea, Rep."},"countryiso3code":"KOR","date":"1996","value":100,"unit":"","obs_status":"","decimal":1},{"indicator":{"id":"EG.ELC.ACCS.ZS","value":"Access to electricity (% of population)"},"country":{"id":"KR","value":"Korea, Rep."},"countryiso3code":"KOR","date":"1995","value":100,"unit":"","obs_status":"","decimal":1},{"indicator":{"id":"EG.ELC.ACCS.ZS","value":"Access to electricity (% of population)"},"country":{"id":"KR","value":"Korea, Rep."},"countryiso3code":"KOR","date":"1994","value":99.9891204833984,"unit":"","obs_status":"","decimal":1},{"indicator":{"id":"EG.ELC.ACCS.ZS","value":"Access to electricity (% of population)"},"country":{"id":"KR","value":"Korea, Rep."},"countryiso3code":"KOR","date":"1993","value":99.9694366455078,"unit":"","obs_status":"","decimal":1},{"indicator":{"id":"EG.ELC.ACCS.ZS","value":"Access to electricity (% of population)"},"country":{"id":"KR","value":"Korea, Rep."},"countryiso3code":"KOR","date":"1992","value":99.9422149658203,"unit":"","obs_status":"","decimal":1},{"indicator":{"id":"EG.ELC.ACCS.ZS","value":"Access to electricity (% of population)"},"country":{"id":"KR","value":"Korea, Rep."},"countryiso3code":"KOR","date":"1991","value":99.9126739501953,"unit":"","obs_status":"","decimal":1},{"indicator":{"id":"EG.ELC.ACCS.ZS","value":"Access to electricity (% of population)"},"country":{"id":"KR","value":"Korea, Rep."},"countryiso3code":"KOR","date":"1990","value":99.8828430175781,"unit":"","obs_status":"","decimal":1},{"indicator":{"id":"EG.ELC.ACCS.ZS","value":"Access to electricity (% of population)"},"country":{"id":"KR","value":"Korea, Rep."},"countryiso3code":"KOR","date":"1989","value":null,"unit":"","obs_status":"","decimal":1},{"indicator":{"id":"EG.ELC.ACCS.ZS","value":"Access to electricity (% of population)"},"country":{"id":"KR","value":"Korea, Rep."},"countryiso3code":"KOR","date":"1988","value":null,"unit":"","obs_status":"","decimal":1},{"indicator":{"id":"EG.ELC.ACCS.ZS","value":"Access to electricity (% of population)"},"country":{"id":"KR","value":"Korea, Rep."},"countryiso3code":"KOR","date":"1987","value":null,"unit":"","obs_status":"","decimal":1},{"indicator":{"id":"EG.ELC.ACCS.ZS","value":"Access to electricity (% of population)"},"country":{"id":"KR","value":"Korea, Rep."},"countryiso3code":"KOR","date":"1986","value":null,"unit":"","obs_status":"","decimal":1},{"indicator":{"id":"EG.ELC.ACCS.ZS","value":"Access to electricity (% of population)"},"country":{"id":"KR","value":"Korea, Rep."},"countryiso3code":"KOR","date":"1985","value":null,"unit":"","obs_status":"","decimal":1},{"indicator":{"id":"EG.ELC.ACCS.ZS","value":"Access to electricity (% of population)"},"country":{"id":"KR","value":"Korea, Rep."},"countryiso3code":"KOR","date":"1984","value":null,"unit":"","obs_status":"","decimal":1},{"indicator":{"id":"EG.ELC.ACCS.ZS","value":"Access to electricity (% of population)"},"country":{"id":"KR","value":"Korea, Rep."},"countryiso3code":"KOR","date":"1983","value":null,"unit":"","obs_status":"","decimal":1},{"indicator":{"id":"EG.ELC.ACCS.ZS","value":"Access to electricity (% of population)"},"country":{"id":"KR","value":"Korea, Rep."},"countryiso3code":"KOR","date":"1982","value":null,"unit":"","obs_status":"","decimal":1},{"indicator":{"id":"EG.ELC.ACCS.ZS","value":"Access to electricity (% of population)"},"country":{"id":"KR","value":"Korea, Rep."},"countryiso3code":"KOR","date":"1981","value":null,"unit":"","obs_status":"","decimal":1},{"indicator":{"id":"EG.ELC.ACCS.ZS","value":"Access to electricity (% of population)"},"country":{"id":"KR","value":"Korea, Rep."},"countryiso3code":"KOR","date":"1980","value":null,"unit":"","obs_status":"","decimal":1},{"indicator":{"id":"EG.ELC.ACCS.ZS","value":"Access to electricity (% of population)"},"country":{"id":"KR","value":"Korea, Rep."},"countryiso3code":"KOR","date":"1979","value":null,"unit":"","obs_status":"","decimal":1},{"indicator":{"id":"EG.ELC.ACCS.ZS","value":"Access to electricity (% of population)"},"country":{"id":"KR","value":"Korea, Rep."},"countryiso3code":"KOR","date":"1978","value":null,"unit":"","obs_status":"","decimal":1},{"indicator":{"id":"EG.ELC.ACCS.ZS","value":"Access to electricity (% of population)"},"country":{"id":"KR","value":"Korea, Rep."},"countryiso3code":"KOR","date":"1977","value":null,"unit":"","obs_status":"","decimal":1},{"indicator":{"id":"EG.ELC.ACCS.ZS","value":"Access to electricity (% of population)"},"country":{"id":"KR","value":"Korea, Rep."},"countryiso3code":"KOR","date":"1976","value":null,"unit":"","obs_status":"","decimal":1},{"indicator":{"id":"EG.ELC.ACCS.ZS","value":"Access to electricity (% of population)"},"country":{"id":"KR","value":"Korea, Rep."},"countryiso3code":"KOR","date":"1975","value":null,"unit":"","obs_status":"","decimal":1},{"indicator":{"id":"EG.ELC.ACCS.ZS","value":"Access to electricity (% of population)"},"country":{"id":"KR","value":"Korea, Rep."},"countryiso3code":"KOR","date":"1974","value":null,"unit":"","obs_status":"","decimal":1}]]