[{"page":1,"pages":2,"per_page":50,"total":64,"sourceid":"2","lastupdated":"2024-05-30"},[{"indicator":{"id":"SI.POV.GINI","value":"Gini index"},"country":{"id":"KR","value":"Korea, Rep."},"countryiso3code":"KOR","date":"2023","value":null,"unit":"","obs_status":"","decimal":1},{"indicator":{"id":"SI.POV.GINI","value":"Gini index"},"country":{"id":"KR","value":"Korea, Rep."},"countryiso3code":"KOR","date":"2022","value":null,"unit":"","obs_status":"","decimal":1},{"indicator":{"id":"SI.POV.GINI","value":"Gini index"},"country":{"id":"KR","value":"Korea, Rep."},"countryiso3code":"KOR","date":"2021","value":null,"unit":"","obs_status":"","decimal":1},{"indicator":{"id":"SI.POV.GINI","value":"Gini index"},"country":{"id":"KR","value":"Korea, Rep."},"countryiso3code":"KOR","date":"2020","value":null,"unit":"","obs_status":"","decimal":1},{"indicator":{"id":"SI.POV.GINI","value":"Gini index"},"country":{"id":"KR","value":"Korea, Rep."},"countryiso3code":"KOR","date":"2019","value":null,"unit":"","obs_status":"","decimal":1},{"indicator":{"id":"SI.POV.GINI","value":"Gini index"},"country":{"id":"KR","value":"Korea, Rep."},"countryiso3code":"KOR","date":"2018","value":null,"unit":"","obs_status":"","decimal":1},{"indicator":{"id":"SI.POV.GINI","value":"Gini index"},"country":{"id":"KR","value":"Korea, Rep."},"countryiso3code":"KOR","date":"2017","value":null,"unit":"","obs_status":"","decimal":1},{"indicator":{"id":"SI.POV.GINI","value":"Gini index"},"country":{"id":"KR","value":"Korea, Rep."},"countryiso3code":"KOR","date":"2016","value":31.4,"unit":"","obs_status":"","decimal":1},{"indicator":{"id":"SI.POV.GINI","value":"Gini index"},"country":{"id":"KR","value":"Korea, Rep."},"countryiso3code":"KOR","date":"2015","value":null,"unit":"","obs_status":"","decimal":1},{"indicator":{"id":"SI.POV.GINI","value":"Gini index"},"country":{"id":"KR","value":"Korea, Rep."},"countryiso3code":"KOR","date":"2014","value":31.2,"unit":"","obs_status":"","decimal":1},{"indicator":{"id":"SI.POV.GINI","value":"Gini index"},"country":{"id":"KR","value":"Korea, Rep."},"countryiso3code":"KOR","date":"2013","value":null,"unit":"","obs_status":"","decimal":1},{"indicator":{"id":"SI.POV.GINI","value":"Gini index"},"country":{"id":"KR","value":"Korea, Rep."},"countryiso3code":"KOR","date":"2012","value":31.6,"unit":"","obs_status":"","decimal":1},{"indicator":{"id":"SI.POV.GINI","value":"Gini index"},"country":{"id":"KR","value":"Korea, Rep."},"countryiso3code":"KOR","date":"2011","value":null,"unit":"","obs_status":"","decimal":1},{"indicator":{"id":"SI.POV.GINI","value":"Gini index"},"country":{"id":"KR","value":"Korea, Rep."},"countryiso3code":"KOR","date":"2010","value":32,"unit":"","obs_status":"","decimal":1},{"indicator":{"id":"SI.POV.GINI","value":"Gini index"},"country":{"id":"KR","value":"Korea, Rep."},"countryiso3code":"KOR","date":"2009","value":null,"unit":"","obs_status":"","decimal":1},{"indicator":{"id":"SI.POV.GINI","value":"Gini index"},"country":{"id":"KR","value":"Korea, Rep."},"countryiso3code":"KOR","date":"2008","value":32.3,"unit":"","obs_status":"","decimal":1},{"indicator":{"id":"SI.POV.GINI","value":"Gini index"},"country":{"id":"KR","value":"Korea, Rep."},"countryiso3code":"KOR","date":"2007","value":null,"unit":"","obs_status":"","decimal":1},{"indicator":{"id":"SI.POV.GINI","value":"Gini index"},"country":{"id":"KR","value":"Korea, Rep."},"countryiso3code":"KOR","date":"2006","value":31.7,"unit":"","obs_status":"","decimal":1},{"indicator":{"id":"SI.POV.GINI","value":"Gini index"},"country":{"id":"KR","value":"Korea, Rep."},"countryiso3code":"KOR","date":"2005","value":null,"unit":"","obs_status":"","decimal":1},{"indicator":{"id":"SI.POV.GINI","value":"Gini index"},"country":{"id":"KR","value":"Korea, Rep."},"countryiso3code":"KOR","date":"2004","value":null,"unit":"","obs_status":"","decimal":1},{"indicator":{"id":"SI.POV.GINI","value":"Gini index"},"country":{"id":"KR","value":"Korea, Rep."},"countryiso3code":"KOR","date":"2003","value":null,"unit":"","obs_status":"","decimal":1},{"indicator":{"id":"SI.POV.GINI","value":"Gini index"},"country":{"id":"KR","value":"Korea, Rep."},"countryiso3code":"KOR","date":"2002","value":null,"unit":"","obs_status":"","decimal":1},{"indicator":{"id":"SI.POV.GINI","value":"Gini index"},"country":{"id":"KR","value":"Korea, Rep."},"countryiso3code":"KOR","date":"2001","value":null,"unit":"","obs_status":"","decimal":1},{"indicator":{"id":"SI.POV.GINI","value":"Gini index"},"country":{"id":"KR","value":"Korea, Rep."},"countryiso3code":"KOR","date":"2000","value":null,"unit":"","obs_status":"","decimal":1},{"indicator":{"id":"SI.POV.GINI","value":"Gini index"},"country":{"id":"KR","value":"Korea, Rep."},"countryiso3code":"KOR","date":"1999","value":null,"unit":"","obs_status":"","decimal":1},{"indicator":{"id":"SI.POV.GINI","value":"Gini index"},"country":{"id":"KR","value":"Korea, Rep."},"countryiso3code":"KOR","date":"1998","value":null,"unit":"","obs_status":"","decimal":1},{"indicator":{"id":"SI.POV.GINI","value":"Gini index"},"country":{"id":"KR","value":"Korea, Rep."},"countryiso3code":"KOR","date":"1997","value":null,"unit":"","obs_status":"","decimal":1},{"indicator":{"id":"SI.POV.GINI","value":"Gini index"},"country":{"id":"KR","value":"Korea, Rep."},"countryiso3code":"KOR","date":"1996","value":null,"unit":"","obs_status":"","decimal":1},{"indicator":{"id":"SI.POV.GINI","value":"Gini index"},"country":{"id":"KR","value":"Korea, Rep."},"countryiso3code":"KOR","date":"1995","value":null,"unit":"","obs_status":"","decimal":1},{"indicator":{"id":"SI.POV.GINI","value":"Gini index"},"country":{"id":"KR","value":"Korea, Rep."},"countryiso3code":"KOR","date":"1994","value":null,"unit":"","obs_status":"","decimal":1},{"indicator":{"id":"SI.POV.GINI","value":"Gini index"},"country":{"id":"KR","value":"Korea, Rep."},"countryiso3code":"KOR","date":"1993","value":null,"unit":"","obs_status":"","decimal":1},{"indicator":{"id":"SI.POV.GINI","value":"Gini index"},"country":{"id":"KR","value":"Korea, Rep."},"countryiso3code":"KOR","date":"1992","value":null,"unit":"","obs_status":"","decimal":1},{"indicator":{"id":"SI.POV.GINI","value":"Gini index"},"country":{"id":"KR","value":"Korea, Rep."},"countryiso3code":"KOR","date":"1991","value":null,"unit":"","obs_status":"","decimal":1},{"indicator":{"id":"SI.POV.GINI","value":"Gini index"},"country":{"id":"KR","value":"Korea, Rep."},"countryiso3code":"KOR","date":"1990","value":null,"unit":"","obs_status":"","decimal":1},{"indicator":{"id":"SI.POV.GINI","value":"Gini index"},"country":{"id":"KR","value":"Korea, Rep."},"countryiso3code":"KOR","date":"1989","value":null,"unit":"","obs_status":"","decimal":1},{"indicator":{"id":"SI.POV.GINI","value":"Gini index"},"country":{"id":"KR","value":"Korea, Rep."},"countryiso3code":"KOR","date":"1988","value":null,"unit":"","obs_status":"","decimal":1},{"indicator":{"id":"SI.POV.GINI","value":"Gini index"},"country":{"id":"KR","value":"Korea, Rep."},"countryiso3code":"KOR","date":"1987","value":null,"unit":"","obs_status":"","decimal":1},{"indicator":{"id":"SI.POV.GINI","value":"Gini index"},"country":{"id":"KR","value":"Korea, Rep."},"countryiso3code":"KOR","date":"1986","value":null,"unit":"","obs_status":"","decimal":1},{"indicator":{"id":"SI.POV.GINI","value":"Gini index"},"country":{"id":"KR","value":"Korea, Rep."},"countryiso3code":"KOR","date":"1985","value":null,"unit":"","obs_status":"","decimal":1},{"indicator":{"id":"SI.POV.GINI","value":"Gini index"},"country":{"id":"KR","value":"Korea, Rep."},"countryiso3code":"KOR","date":"1984","value":null,"unit":"","obs_status":"","decimal":1},{"indicator":{"id":"SI.POV.GINI","value":"Gini index"},"country":{"id":"KR","value":"Korea, Rep."},"countryiso3code":"KOR","date":"1983","value":null,"unit":"","obs_status":"","decimal":1},{"indicator":{"id":"SI.POV.GINI","value":"Gini index"},"country":{"id":"KR","value":"Korea, Rep."},"countryiso3code":"KOR","date":"1982","value":null,"unit":"","obs_status":"","decimal":1},{"indicator":{"id":"SI.POV.GINI","value":"Gini index"},"country":{"id":"KR","value":"Korea, Rep."},"countryiso3code":"KOR","date":"1981","value":null,"unit":"","obs_status":"","decimal":1},{"indicator":{"id":"SI.POV.GINI","value":"Gini index"},"country":{"id":"KR","value":"Korea, Rep."},"countryiso3code":"KOR","date":"1980","value":null,"unit":"","obs_status":"","decimal":1},{"indicator":{"id":"SI.POV.GINI","value":"Gini index"},"country":{"id":"KR","value":"Korea, Rep."},"countryiso3code":"KOR","date":"1979","value":null,"unit":"","obs_status":"","decimal":1},{"indicator":{"id":"SI.POV.GINI","value":"Gini index"},"country":{"id":"KR","value":"Korea, Rep."},"countryiso3code":"KOR","date":"1978","value":null,"unit":"","obs_status":"","decimal":1},{"indicator":{"id":"SI.POV.GINI","value":"Gini index"},"country":{"id":"KR","value":"Korea, Rep."},"countryiso3code":"KOR","date":"1977","value":null,"unit":"","obs_status":"","decimal":1},{"indicator":{"id":"SI.POV.GINI","value":"Gini index"},"country":{"id":"KR","value":"Korea, Rep."},"countryiso3code":"KOR","date":"1976","value":null,"unit":"","obs_status":"","decimal":1},{"indicator":{"id":"SI.POV.GINI","value":"Gini index"},"country":{"id":"KR","value":"Korea, Rep."},"countryiso3code":"KOR","date":"1975","value":null,"unit":"","obs_status":"","decimal":1},{"indicator":{"id":"SI.POV.GINI","value":"Gini index"},"country":{"id":"KR","value":"Korea, Rep."},"countryiso3code":"KOR","date":"1974","value":null,"unit":"","obs_status":"","decimal":1}]]