[{"page":1,"pages":2,"per_page":50,"total":64,"sourceid":"2","lastupdated":"2024-05-30"},[{"indicator":{"id":"SH.XPD.CHEX.GD.ZS","value":"Current health expenditure (% of GDP)"},"country":{"id":"KR","value":"Korea, Rep."},"countryiso3code":"KOR","date":"2023","value":null,"unit":"","obs_status":"","decimal":2},{"indicator":{"id":"SH.XPD.CHEX.GD.ZS","value":"Current health expenditure (% of GDP)"},"country":{"id":"KR","value":"Korea, Rep."},"countryiso3code":"KOR","date":"2022","value":9.72047997,"unit":"","obs_status":"","decimal":2},{"indicator":{"id":"SH.XPD.CHEX.GD.ZS","value":"Current health expenditure (% of GDP)"},"country":{"id":"KR","value":"Korea, Rep."},"countryiso3code":"KOR","date":"2021","value":9.33145523,"unit":"","obs_status":"","decimal":2},{"indicator":{"id":"SH.XPD.CHEX.GD.ZS","value":"Current health expenditure (% of GDP)"},"country":{"id":"KR","value":"Korea, Rep."},"countryiso3code":"KOR","date":"2020","value":8.3497715,"unit":"","obs_status":"","decimal":2},{"indicator":{"id":"SH.XPD.CHEX.GD.ZS","value":"Current health expenditure (% of GDP)"},"country":{"id":"KR","value":"Korea, Rep."},"countryiso3code":"KOR","date":"2019","value":8.17479515,"unit":"","obs_status":"","decimal":2},{"indicator":{"id":"SH.XPD.CHEX.GD.ZS","value":"Current health expenditure (% of GDP)"},"country":{"id":"KR","value":"Korea, Rep."},"countryiso3code":"KOR","date":"2018","value":7.49119806,"unit":"","obs_status":"","decimal":2},{"indicator":{"id":"SH.XPD.CHEX.GD.ZS","value":"Current health expenditure (% of GDP)"},"country":{"id":"KR","value":"Korea, Rep."},"countryiso3code":"KOR","date":"2017","value":7.04742336,"unit":"","obs_status":"","decimal":2},{"indicator":{"id":"SH.XPD.CHEX.GD.ZS","value":"Current health expenditure (% of GDP)"},"country":{"id":"KR","value":"Korea, Rep."},"countryiso3code":"KOR","date":"2016","value":6.87049913,"unit":"","obs_status":"","decimal":2},{"indicator":{"id":"SH.XPD.CHEX.GD.ZS","value":"Current health expenditure (% of GDP)"},"country":{"id":"KR","value":"Korea, Rep."},"countryiso3code":"KOR","date":"2015","value":6.58926058,"unit":"","obs_status":"","decimal":2},{"indicator":{"id":"SH.XPD.CHEX.GD.ZS","value":"Current health expenditure (% of GDP)"},"country":{"id":"KR","value":"Korea, Rep."},"countryiso3code":"KOR","date":"2014","value":6.40432453,"unit":"","obs_status":"","decimal":2},{"indicator":{"id":"SH.XPD.CHEX.GD.ZS","value":"Current health expenditure (% of GDP)"},"country":{"id":"KR","value":"Korea, Rep."},"countryiso3code":"KOR","date":"2013","value":6.15069818,"unit":"","obs_status":"","decimal":2},{"indicator":{"id":"SH.XPD.CHEX.GD.ZS","value":"Current health expenditure (% of GDP)"},"country":{"id":"KR","value":"Korea, Rep."},"countryiso3code":"KOR","date":"2012","value":6.0325017,"unit":"","obs_status":"","decimal":2},{"indicator":{"id":"SH.XPD.CHEX.GD.ZS","value":"Current health expenditure (% of GDP)"},"country":{"id":"KR","value":"Korea, Rep."},"countryiso3code":"KOR","date":"2011","value":5.91454506,"unit":"","obs_status":"","decimal":2},{"indicator":{"id":"SH.XPD.CHEX.GD.ZS","value":"Current health expenditure (% of GDP)"},"country":{"id":"KR","value":"Korea, Rep."},"countryiso3code":"KOR","date":"2010","value":5.81980991,"unit":"","obs_status":"","decimal":2},{"indicator":{"id":"SH.XPD.CHEX.GD.ZS","value":"Current health expenditure (% of GDP)"},"country":{"id":"KR","value":"Korea, Rep."},"countryiso3code":"KOR","date":"2009","value":5.65905666,"unit":"","obs_status":"","decimal":2},{"indicator":{"id":"SH.XPD.CHEX.GD.ZS","value":"Current health expenditure (% of GDP)"},"country":{"id":"KR","value":"Korea, Rep."},"countryiso3code":"KOR","date":"2008","value":5.24600267,"unit":"","obs_status":"","decimal":2},{"indicator":{"id":"SH.XPD.CHEX.GD.ZS","value":"Current health expenditure (% of GDP)"},"country":{"id":"KR","value":"Korea, Rep."},"countryiso3code":"KOR","date":"2007","value":4.95489931,"unit":"","obs_status":"","decimal":2},{"indicator":{"id":"SH.XPD.CHEX.GD.ZS","value":"Current health expenditure (% of GDP)"},"country":{"id":"KR","value":"Korea, Rep."},"countryiso3code":"KOR","date":"2006","value":4.84870243,"unit":"","obs_status":"","decimal":2},{"indicator":{"id":"SH.XPD.CHEX.GD.ZS","value":"Current health expenditure (% of GDP)"},"country":{"id":"KR","value":"Korea, Rep."},"countryiso3code":"KOR","date":"2005","value":4.54809093,"unit":"","obs_status":"","decimal":2},{"indicator":{"id":"SH.XPD.CHEX.GD.ZS","value":"Current health expenditure (% of GDP)"},"country":{"id":"KR","value":"Korea, Rep."},"countryiso3code":"KOR","date":"2004","value":4.26715517,"unit":"","obs_status":"","decimal":2},{"indicator":{"id":"SH.XPD.CHEX.GD.ZS","value":"Current health expenditure (% of GDP)"},"country":{"id":"KR","value":"Korea, Rep."},"countryiso3code":"KOR","date":"2003","value":4.28309107,"unit":"","obs_status":"","decimal":2},{"indicator":{"id":"SH.XPD.CHEX.GD.ZS","value":"Current health expenditure (% of GDP)"},"country":{"id":"KR","value":"Korea, Rep."},"countryiso3code":"KOR","date":"2002","value":4.0143261,"unit":"","obs_status":"","decimal":2},{"indicator":{"id":"SH.XPD.CHEX.GD.ZS","value":"Current health expenditure (% of GDP)"},"country":{"id":"KR","value":"Korea, Rep."},"countryiso3code":"KOR","date":"2001","value":4.29693604,"unit":"","obs_status":"","decimal":2},{"indicator":{"id":"SH.XPD.CHEX.GD.ZS","value":"Current health expenditure (% of GDP)"},"country":{"id":"KR","value":"Korea, Rep."},"countryiso3code":"KOR","date":"2000","value":3.85544181,"unit":"","obs_status":"","decimal":2},{"indicator":{"id":"SH.XPD.CHEX.GD.ZS","value":"Current health expenditure (% of GDP)"},"country":{"id":"KR","value":"Korea, Rep."},"countryiso3code":"KOR","date":"1999","value":null,"unit":"","obs_status":"","decimal":2},{"indicator":{"id":"SH.XPD.CHEX.GD.ZS","value":"Current health expenditure (% of GDP)"},"country":{"id":"KR","value":"Korea, Rep."},"countryiso3code":"KOR","date":"1998","value":null,"unit":"","obs_status":"","decimal":2},{"indicator":{"id":"SH.XPD.CHEX.GD.ZS","value":"Current health expenditure (% of GDP)"},"country":{"id":"KR","value":"Korea, Rep."},"countryiso3code":"KOR","date":"1997","value":null,"unit":"","obs_status":"","decimal":2},{"indicator":{"id":"SH.XPD.CHEX.GD.ZS","value":"Current health expenditure (% of GDP)"},"country":{"id":"KR","value":"Korea, Rep."},"countryiso3code":"KOR","date":"1996","value":null,"unit":"","obs_status":"","decimal":2},{"indicator":{"id":"SH.XPD.CHEX.GD.ZS","value":"Current health expenditure (% of GDP)"},"country":{"id":"KR","value":"Korea, Rep."},"countryiso3code":"KOR","date":"1995","value":null,"unit":"","obs_status":"","decimal":2},{"indicator":{"id":"SH.XPD.CHEX.GD.ZS","value":"Current health expenditure (% of GDP)"},"country":{"id":"KR","value":"Korea, Rep."},"countryiso3code":"KOR","date":"1994","value":null,"unit":"","obs_status":"","decimal":2},{"indicator":{"id":"SH.XPD.CHEX.GD.ZS","value":"Current health expenditure (% of GDP)"},"country":{"id":"KR","value":"Korea, Rep."},"countryiso3code":"KOR","date":"1993","value":null,"unit":"","obs_status":"","decimal":2},{"indicator":{"id":"SH.XPD.CHEX.GD.ZS","value":"Current health expenditure (% of GDP)"},"country":{"id":"KR","value":"Korea, Rep."},"countryiso3code":"KOR","date":"1992","value":null,"unit":"","obs_status":"","decimal":2},{"indicator":{"id":"SH.XPD.CHEX.GD.ZS","value":"Current health expenditure (% of GDP)"},"country":{"id":"KR","value":"Korea, Rep."},"countryiso3code":"KOR","date":"1991","value":null,"unit":"","obs_status":"","decimal":2},{"indicator":{"id":"SH.XPD.CHEX.GD.ZS","value":"Current health expenditure (% of GDP)"},"country":{"id":"KR","value":"Korea, Rep."},"countryiso3code":"KOR","date":"1990","value":null,"unit":"","obs_status":"","decimal":2},{"indicator":{"id":"SH.XPD.CHEX.GD.ZS","value":"Current health expenditure (% of GDP)"},"country":{"id":"KR","value":"Korea, Rep."},"countryiso3code":"KOR","date":"1989","value":null,"unit":"","obs_status":"","decimal":2},{"indicator":{"id":"SH.XPD.CHEX.GD.ZS","value":"Current health expenditure (% of GDP)"},"country":{"id":"KR","value":"Korea, Rep."},"countryiso3code":"KOR","date":"1988","value":null,"unit":"","obs_status":"","decimal":2},{"indicator":{"id":"SH.XPD.CHEX.GD.ZS","value":"Current health expenditure (% of GDP)"},"country":{"id":"KR","value":"Korea, Rep."},"countryiso3code":"KOR","date":"1987","value":null,"unit":"","obs_status":"","decimal":2},{"indicator":{"id":"SH.XPD.CHEX.GD.ZS","value":"Current health expenditure (% of GDP)"},"country":{"id":"KR","value":"Korea, Rep."},"countryiso3code":"KOR","date":"1986","value":null,"unit":"","obs_status":"","decimal":2},{"indicator":{"id":"SH.XPD.CHEX.GD.ZS","value":"Current health expenditure (% of GDP)"},"country":{"id":"KR","value":"Korea, Rep."},"countryiso3code":"KOR","date":"1985","value":null,"unit":"","obs_status":"","decimal":2},{"indicator":{"id":"SH.XPD.CHEX.GD.ZS","value":"Current health expenditure (% of GDP)"},"country":{"id":"KR","value":"Korea, Rep."},"countryiso3code":"KOR","date":"1984","value":null,"unit":"","obs_status":"","decimal":2},{"indicator":{"id":"SH.XPD.CHEX.GD.ZS","value":"Current health expenditure (% of GDP)"},"country":{"id":"KR","value":"Korea, Rep."},"countryiso3code":"KOR","date":"1983","value":null,"unit":"","obs_status":"","decimal":2},{"indicator":{"id":"SH.XPD.CHEX.GD.ZS","value":"Current health expenditure (% of GDP)"},"country":{"id":"KR","value":"Korea, Rep."},"countryiso3code":"KOR","date":"1982","value":null,"unit":"","obs_status":"","decimal":2},{"indicator":{"id":"SH.XPD.CHEX.GD.ZS","value":"Current health expenditure (% of GDP)"},"country":{"id":"KR","value":"Korea, Rep."},"countryiso3code":"KOR","date":"1981","value":null,"unit":"","obs_status":"","decimal":2},{"indicator":{"id":"SH.XPD.CHEX.GD.ZS","value":"Current health expenditure (% of GDP)"},"country":{"id":"KR","value":"Korea, Rep."},"countryiso3code":"KOR","date":"1980","value":null,"unit":"","obs_status":"","decimal":2},{"indicator":{"id":"SH.XPD.CHEX.GD.ZS","value":"Current health expenditure (% of GDP)"},"country":{"id":"KR","value":"Korea, Rep."},"countryiso3code":"KOR","date":"1979","value":null,"unit":"","obs_status":"","decimal":2},{"indicator":{"id":"SH.XPD.CHEX.GD.ZS","value":"Current health expenditure (% of GDP)"},"country":{"id":"KR","value":"Korea, Rep."},"countryiso3code":"KOR","date":"1978","value":null,"unit":"","obs_status":"","decimal":2},{"indicator":{"id":"SH.XPD.CHEX.GD.ZS","value":"Current health expenditure (% of GDP)"},"country":{"id":"KR","value":"Korea, Rep."},"countryiso3code":"KOR","date":"1977","value":null,"unit":"","obs_status":"","decimal":2},{"indicator":{"id":"SH.XPD.CHEX.GD.ZS","value":"Current health expenditure (% of GDP)"},"country":{"id":"KR","value":"Korea, Rep."},"countryiso3code":"KOR","date":"1976","value":null,"unit":"","obs_status":"","decimal":2},{"indicator":{"id":"SH.XPD.CHEX.GD.ZS","value":"Current health expenditure (% of GDP)"},"country":{"id":"KR","value":"Korea, Rep."},"countryiso3code":"KOR","date":"1975","value":null,"unit":"","obs_status":"","decimal":2},{"indicator":{"id":"SH.XPD.CHEX.GD.ZS","value":"Current health expenditure (% of GDP)"},"country":{"id":"KR","value":"Korea, Rep."},"countryiso3code":"KOR","date":"1974","value":null,"unit":"","obs_status":"","decimal":2}]]