[{"page":1,"pages":2,"per_page":50,"total":64,"sourceid":"2","lastupdated":"2024-05-30"},[{"indicator":{"id":"IT.NET.USER.ZS","value":"Individuals using the Internet (% of population)"},"country":{"id":"KR","value":"Korea, Rep."},"countryiso3code":"KOR","date":"2023","value":null,"unit":"","obs_status":"","decimal":0},{"indicator":{"id":"IT.NET.USER.ZS","value":"Individuals using the Internet (% of population)"},"country":{"id":"KR","value":"Korea, Rep."},"countryiso3code":"KOR","date":"2022","value":97.16855413,"unit":"","obs_status":"","decimal":0},{"indicator":{"id":"IT.NET.USER.ZS","value":"Individuals using the Internet (% of population)"},"country":{"id":"KR","value":"Korea, Rep."},"countryiso3code":"KOR","date":"2021","value":97.57132662,"unit":"","obs_status":"","decimal":0},{"indicator":{"id":"IT.NET.USER.ZS","value":"Individuals using the Internet (% of population)"},"country":{"id":"KR","value":"Korea, Rep."},"countryiso3code":"KOR","date":"2020","value":96.50506052,"unit":"","obs_status":"","decimal":0},{"indicator":{"id":"IT.NET.USER.ZS","value":"Individuals using the Internet (% of population)"},"country":{"id":"KR","value":"Korea, Rep."},"countryiso3code":"KOR","date":"2019","value":96.15757918,"unit":"","obs_status":"","decimal":0},{"indicator":{"id":"IT.NET.USER.ZS","value":"Individuals using the Internet (% of population)"},"country":{"id":"KR","value":"Korea, Rep."},"countryiso3code":"KOR","date":"2018","value":96.02285958,"unit":"","obs_status":"","decimal":0},{"indicator":{"id":"IT.NET.USER.ZS","value":"Individuals using the Internet (% of population)"},"country":{"id":"KR","value":"Korea, Rep."},"countryiso3code":"KOR","date":"2017","value":95.06942188,"unit":"","obs_status":"","decimal":0},{"indicator":{"id":"IT.NET.USER.ZS","value":"Individuals using the Internet (% of population)"},"country":{"id":"KR","value":"Korea, Rep."},"countryiso3code":"KOR","date":"2016","value":92.84302568,"unit":"","obs_status":"","decimal":0},{"indicator":{"id":"IT.NET.USER.ZS","value":"Individuals using the Internet (% of population)"},"country":{"id":"KR","value":"Korea, Rep."},"countryiso3code":"KOR","date":"2015","value":89.8962558,"unit":"","obs_status":"","decimal":0},{"indicator":{"id":"IT.NET.USER.ZS","value":"Individuals using the Internet (% of population)"},"country":{"id":"KR","value":"Korea, Rep."},"countryiso3code":"KOR","date":"2014","value":87.55682649,"unit":"","obs_status":"","decimal":0},{"indicator":{"id":"IT.NET.USER.ZS","value":"Individuals using the Internet (% of population)"},"country":{"id":"KR","value":"Korea, Rep."},"countryiso3code":"KOR","date":"2013","value":84.77,"unit":"","obs_status":"","decimal":0},{"indicator":{"id":"IT.NET.USER.ZS","value":"Individuals using the Internet (% of population)"},"country":{"id":"KR","value":"Korea, Rep."},"countryiso3code":"KOR","date":"2012","value":84.07,"unit":"","obs_status":"","decimal":0},{"indicator":{"id":"IT.NET.USER.ZS","value":"Individuals using the Internet (% of population)"},"country":{"id":"KR","value":"Korea, Rep."},"countryiso3code":"KOR","date":"2011","value":83.75912015,"unit":"","obs_status":"","decimal":0},{"indicator":{"id":"IT.NET.USER.ZS","value":"Individuals using the Internet (% of population)"},"country":{"id":"KR","value":"Korea, Rep."},"countryiso3code":"KOR","date":"2010","value":83.7,"unit":"","obs_status":"","decimal":0},{"indicator":{"id":"IT.NET.USER.ZS","value":"Individuals using the Internet (% of population)"},"country":{"id":"KR","value":"Korea, Rep."},"countryiso3code":"KOR","date":"2009","value":81.6,"unit":"","obs_status":"","decimal":0},{"indicator":{"id":"IT.NET.USER.ZS","value":"Individuals using the Internet (% of population)"},"country":{"id":"KR","value":"Korea, Rep."},"countryiso3code":"KOR","date":"2008","value":81,"unit":"","obs_status":"","decimal":0},{"indicator":{"id":"IT.NET.USER.ZS","value":"Individuals using the Internet (% of population)"},"country":{"id":"KR","value":"Korea, Rep."},"countryiso3code":"KOR","date":"2007","value":78.8,"unit":"","obs_status":"","decimal":0},{"indicator":{"id":"IT.NET.USER.ZS","value":"Individuals using the Internet (% of population)"},"country":{"id":"KR","value":"Korea, Rep."},"countryiso3code":"KOR","date":"2006","value":78.1,"unit":"","obs_status":"","decimal":0},{"indicator":{"id":"IT.NET.USER.ZS","value":"Individuals using the Internet (% of population)"},"country":{"id":"KR","value":"Korea, Rep."},"countryiso3code":"KOR","date":"2005","value":73.5,"unit":"","obs_status":"","decimal":0},{"indicator":{"id":"IT.NET.USER.ZS","value":"Individuals using the Internet (% of population)"},"country":{"id":"KR","value":"Korea, Rep."},"countryiso3code":"KOR","date":"2004","value":72.7,"unit":"","obs_status":"","decimal":0},{"indicator":{"id":"IT.NET.USER.ZS","value":"Individuals using the Internet (% of population)"},"country":{"id":"KR","value":"Korea, Rep."},"countryiso3code":"KOR","date":"2003","value":65.5,"unit":"","obs_status":"","decimal":0},{"indicator":{"id":"IT.NET.USER.ZS","value":"Individuals using the Internet (% of population)"},"country":{"id":"KR","value":"Korea, Rep."},"countryiso3code":"KOR","date":"2002","value":59.4,"unit":"","obs_status":"","decimal":0},{"indicator":{"id":"IT.NET.USER.ZS","value":"Individuals using the Internet (% of population)"},"country":{"id":"KR","value":"Korea, Rep."},"countryiso3code":"KOR","date":"2001","value":56.6,"unit":"","obs_status":"","decimal":0},{"indicator":{"id":"IT.NET.USER.ZS","value":"Individuals using the Internet (% of population)"},"country":{"id":"KR","value":"Korea, Rep."},"countryiso3code":"KOR","date":"2000","value":44.7,"unit":"","obs_status":"","decimal":0},{"indicator":{"id":"IT.NET.USER.ZS","value":"Individuals using the Internet (% of population)"},"country":{"id":"KR","value":"Korea, Rep."},"countryiso3code":"KOR","date":"1999","value":23.55219445,"unit":"","obs_status":"","decimal":0},{"indicator":{"id":"IT.NET.USER.ZS","value":"Individuals using the Internet (% of population)"},"country":{"id":"KR","value":"Korea, Rep."},"countryiso3code":"KOR","date":"1998","value":6.781815468,"unit":"","obs_status":"","decimal":0},{"indicator":{"id":"IT.NET.USER.ZS","value":"Individuals using the Internet (% of population)"},"country":{"id":"KR","value":"Korea, Rep."},"countryiso3code":"KOR","date":"1997","value":3.600801564,"unit":"","obs_status":"","decimal":0},{"indicator":{"id":"IT.NET.USER.ZS","value":"Individuals using the Internet (% of population)"},"country":{"id":"KR","value":"Korea, Rep."},"countryiso3code":"KOR","date":"1996","value":1.624237192,"unit":"","obs_status":"","decimal":0},{"indicator":{"id":"IT.NET.USER.ZS","value":"Individuals using the Internet (% of population)"},"country":{"id":"KR","value":"Korea, Rep."},"countryiso3code":"KOR","date":"1995","value":0.81968667,"unit":"","obs_status":"","decimal":0},{"indicator":{"id":"IT.NET.USER.ZS","value":"Individuals using the Internet (% of population)"},"country":{"id":"KR","value":"Korea, Rep."},"countryiso3code":"KOR","date":"1994","value":0.311359364,"unit":"","obs_status":"","decimal":0},{"indicator":{"id":"IT.NET.USER.ZS","value":"Individuals using the Internet (% of population)"},"country":{"id":"KR","value":"Korea, Rep."},"countryiso3code":"KOR","date":"1993","value":0.249946523,"unit":"","obs_status":"","decimal":0},{"indicator":{"id":"IT.NET.USER.ZS","value":"Individuals using the Internet (% of population)"},"country":{"id":"KR","value":"Korea, Rep."},"countryiso3code":"KOR","date":"1992","value":0.098404337,"unit":"","obs_status":"","decimal":0},{"indicator":{"id":"IT.NET.USER.ZS","value":"Individuals using the Internet (% of population)"},"country":{"id":"KR","value":"Korea, Rep."},"countryiso3code":"KOR","date":"1991","value":0.046124435,"unit":"","obs_status":"","decimal":0},{"indicator":{"id":"IT.NET.USER.ZS","value":"Individuals using the Internet (% of population)"},"country":{"id":"KR","value":"Korea, Rep."},"countryiso3code":"KOR","date":"1990","value":0.023265092,"unit":"","obs_status":"","decimal":0},{"indicator":{"id":"IT.NET.USER.ZS","value":"Individuals using the Internet (% of population)"},"country":{"id":"KR","value":"Korea, Rep."},"countryiso3code":"KOR","date":"1989","value":null,"unit":"","obs_status":"","decimal":0},{"indicator":{"id":"IT.NET.USER.ZS","value":"Individuals using the Internet (% of population)"},"country":{"id":"KR","value":"Korea, Rep."},"countryiso3code":"KOR","date":"1988","value":null,"unit":"","obs_status":"","decimal":0},{"indicator":{"id":"IT.NET.USER.ZS","value":"Individuals using the Internet (% of population)"},"country":{"id":"KR","value":"Korea, Rep."},"countryiso3code":"KOR","date":"1987","value":null,"unit":"","obs_status":"","decimal":0},{"indicator":{"id":"IT.NET.USER.ZS","value":"Individuals using the Internet (% of population)"},"country":{"id":"KR","value":"Korea, Rep."},"countryiso3code":"KOR","date":"1986","value":null,"unit":"","obs_status":"","decimal":0},{"indicator":{"id":"IT.NET.USER.ZS","value":"Individuals using the Internet (% of population)"},"country":{"id":"KR","value":"Korea, Rep."},"countryiso3code":"KOR","date":"1985","value":null,"unit":"","obs_status":"","decimal":0},{"indicator":{"id":"IT.NET.USER.ZS","value":"Individuals using the Internet (% of population)"},"country":{"id":"KR","value":"Korea, Rep."},"countryiso3code":"KOR","date":"1984","value":null,"unit":"","obs_status":"","decimal":0},{"indicator":{"id":"IT.NET.USER.ZS","value":"Individuals using the Internet (% of population)"},"country":{"id":"KR","value":"Korea, Rep."},"countryiso3code":"KOR","date":"1983","value":null,"unit":"","obs_status":"","decimal":0},{"indicator":{"id":"IT.NET.USER.ZS","value":"Individuals using the Internet (% of population)"},"country":{"id":"KR","value":"Korea, Rep."},"countryiso3code":"KOR","date":"1982","value":null,"unit":"","obs_status":"","decimal":0},{"indicator":{"id":"IT.NET.USER.ZS","value":"Individuals using the Internet (% of population)"},"country":{"id":"KR","value":"Korea, Rep."},"countryiso3code":"KOR","date":"1981","value":null,"unit":"","obs_status":"","decimal":0},{"indicator":{"id":"IT.NET.USER.ZS","value":"Individuals using the Internet (% of population)"},"country":{"id":"KR","value":"Korea, Rep."},"countryiso3code":"KOR","date":"1980","value":null,"unit":"","obs_status":"","decimal":0},{"indicator":{"id":"IT.NET.USER.ZS","value":"Individuals using the Internet (% of population)"},"country":{"id":"KR","value":"Korea, Rep."},"countryiso3code":"KOR","date":"1979","value":null,"unit":"","obs_status":"","decimal":0},{"indicator":{"id":"IT.NET.USER.ZS","value":"Individuals using the Internet (% of population)"},"country":{"id":"KR","value":"Korea, Rep."},"countryiso3code":"KOR","date":"1978","value":null,"unit":"","obs_status":"","decimal":0},{"indicator":{"id":"IT.NET.USER.ZS","value":"Individuals using the Internet (% of population)"},"country":{"id":"KR","value":"Korea, Rep."},"countryiso3code":"KOR","date":"1977","value":null,"unit":"","obs_status":"","decimal":0},{"indicator":{"id":"IT.NET.USER.ZS","value":"Individuals using the Internet (% of population)"},"country":{"id":"KR","value":"Korea, Rep."},"countryiso3code":"KOR","date":"1976","value":null,"unit":"","obs_status":"","decimal":0},{"indicator":{"id":"IT.NET.USER.ZS","value":"Individuals using the Internet (% of population)"},"country":{"id":"KR","value":"Korea, Rep."},"countryiso3code":"KOR","date":"1975","value":null,"unit":"","obs_status":"","decimal":0},{"indicator":{"id":"IT.NET.USER.ZS","value":"Individuals using the Internet (% of population)"},"country":{"id":"KR","value":"Korea, Rep."},"countryiso3code":"KOR","date":"1974","value":null,"unit":"","obs_status":"","decimal":0}]]