[{"page":1,"pages":2,"per_page":50,"total":64,"sourceid":"2","lastupdated":"2024-05-30"},[{"indicator":{"id":"SL.TLF.CACT.ZS","value":"Labor force participation rate, total (% of total population ages 15+) (modeled ILO estimate)"},"country":{"id":"KR","value":"Korea, Rep."},"countryiso3code":"KOR","date":"2023","value":64.508,"unit":"","obs_status":"","decimal":0},{"indicator":{"id":"SL.TLF.CACT.ZS","value":"Labor force participation rate, total (% of total population ages 15+) (modeled ILO estimate)"},"country":{"id":"KR","value":"Korea, Rep."},"countryiso3code":"KOR","date":"2022","value":64.21,"unit":"","obs_status":"","decimal":0},{"indicator":{"id":"SL.TLF.CACT.ZS","value":"Labor force participation rate, total (% of total population ages 15+) (modeled ILO estimate)"},"country":{"id":"KR","value":"Korea, Rep."},"countryiso3code":"KOR","date":"2021","value":63.08,"unit":"","obs_status":"","decimal":0},{"indicator":{"id":"SL.TLF.CACT.ZS","value":"Labor force participation rate, total (% of total population ages 15+) (modeled ILO estimate)"},"country":{"id":"KR","value":"Korea, Rep."},"countryiso3code":"KOR","date":"2020","value":62.81,"unit":"","obs_status":"","decimal":0},{"indicator":{"id":"SL.TLF.CACT.ZS","value":"Labor force participation rate, total (% of total population ages 15+) (modeled ILO estimate)"},"country":{"id":"KR","value":"Korea, Rep."},"countryiso3code":"KOR","date":"2019","value":63.57,"unit":"","obs_status":"","decimal":0},{"indicator":{"id":"SL.TLF.CACT.ZS","value":"Labor force participation rate, total (% of total population ages 15+) (modeled ILO estimate)"},"country":{"id":"KR","value":"Korea, Rep."},"countryiso3code":"KOR","date":"2018","value":63.36,"unit":"","obs_status":"","decimal":0},{"indicator":{"id":"SL.TLF.CACT.ZS","value":"Labor force participation rate, total (% of total population ages 15+) (modeled ILO estimate)"},"country":{"id":"KR","value":"Korea, Rep."},"countryiso3code":"KOR","date":"2017","value":63.48,"unit":"","obs_status":"","decimal":0},{"indicator":{"id":"SL.TLF.CACT.ZS","value":"Labor force participation rate, total (% of total population ages 15+) (modeled ILO estimate)"},"country":{"id":"KR","value":"Korea, Rep."},"countryiso3code":"KOR","date":"2016","value":63.2,"unit":"","obs_status":"","decimal":0},{"indicator":{"id":"SL.TLF.CACT.ZS","value":"Labor force participation rate, total (% of total population ages 15+) (modeled ILO estimate)"},"country":{"id":"KR","value":"Korea, Rep."},"countryiso3code":"KOR","date":"2015","value":63.17,"unit":"","obs_status":"","decimal":0},{"indicator":{"id":"SL.TLF.CACT.ZS","value":"Labor force participation rate, total (% of total population ages 15+) (modeled ILO estimate)"},"country":{"id":"KR","value":"Korea, Rep."},"countryiso3code":"KOR","date":"2014","value":62.91,"unit":"","obs_status":"","decimal":0},{"indicator":{"id":"SL.TLF.CACT.ZS","value":"Labor force participation rate, total (% of total population ages 15+) (modeled ILO estimate)"},"country":{"id":"KR","value":"Korea, Rep."},"countryiso3code":"KOR","date":"2013","value":61.9,"unit":"","obs_status":"","decimal":0},{"indicator":{"id":"SL.TLF.CACT.ZS","value":"Labor force participation rate, total (% of total population ages 15+) (modeled ILO estimate)"},"country":{"id":"KR","value":"Korea, Rep."},"countryiso3code":"KOR","date":"2012","value":61.71,"unit":"","obs_status":"","decimal":0},{"indicator":{"id":"SL.TLF.CACT.ZS","value":"Labor force participation rate, total (% of total population ages 15+) (modeled ILO estimate)"},"country":{"id":"KR","value":"Korea, Rep."},"countryiso3code":"KOR","date":"2011","value":61.53,"unit":"","obs_status":"","decimal":0},{"indicator":{"id":"SL.TLF.CACT.ZS","value":"Labor force participation rate, total (% of total population ages 15+) (modeled ILO estimate)"},"country":{"id":"KR","value":"Korea, Rep."},"countryiso3code":"KOR","date":"2010","value":61.36,"unit":"","obs_status":"","decimal":0},{"indicator":{"id":"SL.TLF.CACT.ZS","value":"Labor force participation rate, total (% of total population ages 15+) (modeled ILO estimate)"},"country":{"id":"KR","value":"Korea, Rep."},"countryiso3code":"KOR","date":"2009","value":61.28,"unit":"","obs_status":"","decimal":0},{"indicator":{"id":"SL.TLF.CACT.ZS","value":"Labor force participation rate, total (% of total population ages 15+) (modeled ILO estimate)"},"country":{"id":"KR","value":"Korea, Rep."},"countryiso3code":"KOR","date":"2008","value":61.97,"unit":"","obs_status":"","decimal":0},{"indicator":{"id":"SL.TLF.CACT.ZS","value":"Labor force participation rate, total (% of total population ages 15+) (modeled ILO estimate)"},"country":{"id":"KR","value":"Korea, Rep."},"countryiso3code":"KOR","date":"2007","value":62.44,"unit":"","obs_status":"","decimal":0},{"indicator":{"id":"SL.TLF.CACT.ZS","value":"Labor force participation rate, total (% of total population ages 15+) (modeled ILO estimate)"},"country":{"id":"KR","value":"Korea, Rep."},"countryiso3code":"KOR","date":"2006","value":62.52,"unit":"","obs_status":"","decimal":0},{"indicator":{"id":"SL.TLF.CACT.ZS","value":"Labor force participation rate, total (% of total population ages 15+) (modeled ILO estimate)"},"country":{"id":"KR","value":"Korea, Rep."},"countryiso3code":"KOR","date":"2005","value":62.55,"unit":"","obs_status":"","decimal":0},{"indicator":{"id":"SL.TLF.CACT.ZS","value":"Labor force participation rate, total (% of total population ages 15+) (modeled ILO estimate)"},"country":{"id":"KR","value":"Korea, Rep."},"countryiso3code":"KOR","date":"2004","value":62.69,"unit":"","obs_status":"","decimal":0},{"indicator":{"id":"SL.TLF.CACT.ZS","value":"Labor force participation rate, total (% of total population ages 15+) (modeled ILO estimate)"},"country":{"id":"KR","value":"Korea, Rep."},"countryiso3code":"KOR","date":"2003","value":61.89,"unit":"","obs_status":"","decimal":0},{"indicator":{"id":"SL.TLF.CACT.ZS","value":"Labor force participation rate, total (% of total population ages 15+) (modeled ILO estimate)"},"country":{"id":"KR","value":"Korea, Rep."},"countryiso3code":"KOR","date":"2002","value":62.45,"unit":"","obs_status":"","decimal":0},{"indicator":{"id":"SL.TLF.CACT.ZS","value":"Labor force participation rate, total (% of total population ages 15+) (modeled ILO estimate)"},"country":{"id":"KR","value":"Korea, Rep."},"countryiso3code":"KOR","date":"2001","value":61.88,"unit":"","obs_status":"","decimal":0},{"indicator":{"id":"SL.TLF.CACT.ZS","value":"Labor force participation rate, total (% of total population ages 15+) (modeled ILO estimate)"},"country":{"id":"KR","value":"Korea, Rep."},"countryiso3code":"KOR","date":"2000","value":61.57,"unit":"","obs_status":"","decimal":0},{"indicator":{"id":"SL.TLF.CACT.ZS","value":"Labor force participation rate, total (% of total population ages 15+) (modeled ILO estimate)"},"country":{"id":"KR","value":"Korea, Rep."},"countryiso3code":"KOR","date":"1999","value":60.6,"unit":"","obs_status":"","decimal":0},{"indicator":{"id":"SL.TLF.CACT.ZS","value":"Labor force participation rate, total (% of total population ages 15+) (modeled ILO estimate)"},"country":{"id":"KR","value":"Korea, Rep."},"countryiso3code":"KOR","date":"1998","value":60.62,"unit":"","obs_status":"","decimal":0},{"indicator":{"id":"SL.TLF.CACT.ZS","value":"Labor force participation rate, total (% of total population ages 15+) (modeled ILO estimate)"},"country":{"id":"KR","value":"Korea, Rep."},"countryiso3code":"KOR","date":"1997","value":62.5,"unit":"","obs_status":"","decimal":0},{"indicator":{"id":"SL.TLF.CACT.ZS","value":"Labor force participation rate, total (% of total population ages 15+) (modeled ILO estimate)"},"country":{"id":"KR","value":"Korea, Rep."},"countryiso3code":"KOR","date":"1996","value":62.11,"unit":"","obs_status":"","decimal":0},{"indicator":{"id":"SL.TLF.CACT.ZS","value":"Labor force participation rate, total (% of total population ages 15+) (modeled ILO estimate)"},"country":{"id":"KR","value":"Korea, Rep."},"countryiso3code":"KOR","date":"1995","value":61.94,"unit":"","obs_status":"","decimal":0},{"indicator":{"id":"SL.TLF.CACT.ZS","value":"Labor force participation rate, total (% of total population ages 15+) (modeled ILO estimate)"},"country":{"id":"KR","value":"Korea, Rep."},"countryiso3code":"KOR","date":"1994","value":61.6,"unit":"","obs_status":"","decimal":0},{"indicator":{"id":"SL.TLF.CACT.ZS","value":"Labor force participation rate, total (% of total population ages 15+) (modeled ILO estimate)"},"country":{"id":"KR","value":"Korea, Rep."},"countryiso3code":"KOR","date":"1993","value":60.89,"unit":"","obs_status":"","decimal":0},{"indicator":{"id":"SL.TLF.CACT.ZS","value":"Labor force participation rate, total (% of total population ages 15+) (modeled ILO estimate)"},"country":{"id":"KR","value":"Korea, Rep."},"countryiso3code":"KOR","date":"1992","value":60.89,"unit":"","obs_status":"","decimal":0},{"indicator":{"id":"SL.TLF.CACT.ZS","value":"Labor force participation rate, total (% of total population ages 15+) (modeled ILO estimate)"},"country":{"id":"KR","value":"Korea, Rep."},"countryiso3code":"KOR","date":"1991","value":60.6,"unit":"","obs_status":"","decimal":0},{"indicator":{"id":"SL.TLF.CACT.ZS","value":"Labor force participation rate, total (% of total population ages 15+) (modeled ILO estimate)"},"country":{"id":"KR","value":"Korea, Rep."},"countryiso3code":"KOR","date":"1990","value":null,"unit":"","obs_status":"","decimal":0},{"indicator":{"id":"SL.TLF.CACT.ZS","value":"Labor force participation rate, total (% of total population ages 15+) (modeled ILO estimate)"},"country":{"id":"KR","value":"Korea, Rep."},"countryiso3code":"KOR","date":"1989","value":null,"unit":"","obs_status":"","decimal":0},{"indicator":{"id":"SL.TLF.CACT.ZS","value":"Labor force participation rate, total (% of total population ages 15+) (modeled ILO estimate)"},"country":{"id":"KR","value":"Korea, Rep."},"countryiso3code":"KOR","date":"1988","value":null,"unit":"","obs_status":"","decimal":0},{"indicator":{"id":"SL.TLF.CACT.ZS","value":"Labor force participation rate, total (% of total population ages 15+) (modeled ILO estimate)"},"country":{"id":"KR","value":"Korea, Rep."},"countryiso3code":"KOR","date":"1987","value":null,"unit":"","obs_status":"","decimal":0},{"indicator":{"id":"SL.TLF.CACT.ZS","value":"Labor force participation rate, total (% of total population ages 15+) (modeled ILO estimate)"},"country":{"id":"KR","value":"Korea, Rep."},"countryiso3code":"KOR","date":"1986","value":null,"unit":"","obs_status":"","decimal":0},{"indicator":{"id":"SL.TLF.CACT.ZS","value":"Labor force participation rate, total (% of total population ages 15+) (modeled ILO estimate)"},"country":{"id":"KR","value":"Korea, Rep."},"countryiso3code":"KOR","date":"1985","value":null,"unit":"","obs_status":"","decimal":0},{"indicator":{"id":"SL.TLF.CACT.ZS","value":"Labor force participation rate, total (% of total population ages 15+) (modeled ILO estimate)"},"country":{"id":"KR","value":"Korea, Rep."},"countryiso3code":"KOR","date":"1984","value":null,"unit":"","obs_status":"","decimal":0},{"indicator":{"id":"SL.TLF.CACT.ZS","value":"Labor force participation rate, total (% of total population ages 15+) (modeled ILO estimate)"},"country":{"id":"KR","value":"Korea, Rep."},"countryiso3code":"KOR","date":"1983","value":null,"unit":"","obs_status":"","decimal":0},{"indicator":{"id":"SL.TLF.CACT.ZS","value":"Labor force participation rate, total (% of total population ages 15+) (modeled ILO estimate)"},"country":{"id":"KR","value":"Korea, Rep."},"countryiso3code":"KOR","date":"1982","value":null,"unit":"","obs_status":"","decimal":0},{"indicator":{"id":"SL.TLF.CACT.ZS","value":"Labor force participation rate, total (% of total population ages 15+) (modeled ILO estimate)"},"country":{"id":"KR","value":"Korea, Rep."},"countryiso3code":"KOR","date":"1981","value":null,"unit":"","obs_status":"","decimal":0},{"indicator":{"id":"SL.TLF.CACT.ZS","value":"Labor force participation rate, total (% of total population ages 15+) (modeled ILO estimate)"},"country":{"id":"KR","value":"Korea, Rep."},"countryiso3code":"KOR","date":"1980","value":null,"unit":"","obs_status":"","decimal":0},{"indicator":{"id":"SL.TLF.CACT.ZS","value":"Labor force participation rate, total (% of total population ages 15+) (modeled ILO estimate)"},"country":{"id":"KR","value":"Korea, Rep."},"countryiso3code":"KOR","date":"1979","value":null,"unit":"","obs_status":"","decimal":0},{"indicator":{"id":"SL.TLF.CACT.ZS","value":"Labor force participation rate, total (% of total population ages 15+) (modeled ILO estimate)"},"country":{"id":"KR","value":"Korea, Rep."},"countryiso3code":"KOR","date":"1978","value":null,"unit":"","obs_status":"","decimal":0},{"indicator":{"id":"SL.TLF.CACT.ZS","value":"Labor force participation rate, total (% of total population ages 15+) (modeled ILO estimate)"},"country":{"id":"KR","value":"Korea, Rep."},"countryiso3code":"KOR","date":"1977","value":null,"unit":"","obs_status":"","decimal":0},{"indicator":{"id":"SL.TLF.CACT.ZS","value":"Labor force participation rate, total (% of total population ages 15+) (modeled ILO estimate)"},"country":{"id":"KR","value":"Korea, Rep."},"countryiso3code":"KOR","date":"1976","value":null,"unit":"","obs_status":"","decimal":0},{"indicator":{"id":"SL.TLF.CACT.ZS","value":"Labor force participation rate, total (% of total population ages 15+) (modeled ILO estimate)"},"country":{"id":"KR","value":"Korea, Rep."},"countryiso3code":"KOR","date":"1975","value":null,"unit":"","obs_status":"","decimal":0},{"indicator":{"id":"SL.TLF.CACT.ZS","value":"Labor force participation rate, total (% of total population ages 15+) (modeled ILO estimate)"},"country":{"id":"KR","value":"Korea, Rep."},"countryiso3code":"KOR","date":"1974","value":null,"unit":"","obs_status":"","decimal":0}]]