[{"page":1,"pages":2,"per_page":50,"total":64,"sourceid":"2","lastupdated":"2024-05-30"},[{"indicator":{"id":"SP.POP.TOTL","value":"Population, total"},"country":{"id":"KR","value":"Korea, Rep."},"countryiso3code":"KOR","date":"2023","value":null,"unit":"","obs_status":"","decimal":0},{"indicator":{"id":"SP.POP.TOTL","value":"Population, total"},"country":{"id":"KR","value":"Korea, Rep."},"countryiso3code":"KOR","date":"2022","value":51628117,"unit":"","obs_status":"","decimal":0},{"indicator":{"id":"SP.POP.TOTL","value":"Population, total"},"country":{"id":"KR","value":"Korea, Rep."},"countryiso3code":"KOR","date":"2021","value":51744876,"unit":"","obs_status":"","decimal":0},{"indicator":{"id":"SP.POP.TOTL","value":"Population, total"},"country":{"id":"KR","value":"Korea, Rep."},"countryiso3code":"KOR","date":"2020","value":51836239,"unit":"","obs_status":"","decimal":0},{"indicator":{"id":"SP.POP.TOTL","value":"Population, total"},"country":{"id":"KR","value":"Korea, Rep."},"countryiso3code":"KOR","date":"2019","value":51764822,"unit":"","obs_status":"","decimal":0},{"indicator":{"id":"SP.POP.TOTL","value":"Population, total"},"country":{"id":"KR","value":"Korea, Rep."},"countryiso3code":"KOR","date":"2018","value":51585058,"unit":"","obs_status":"","decimal":0},{"indicator":{"id":"SP.POP.TOTL","value":"Population, total"},"country":{"id":"KR","value":"Korea, Rep."},"countryiso3code":"KOR","date":"2017","value":51361911,"unit":"","obs_status":"","decimal":0},{"indicator":{"id":"SP.POP.TOTL","value":"Population, total"},"country":{"id":"KR","value":"Korea, Rep."},"countryiso3code":"KOR","date":"2016","value":51217803,"unit":"","obs_status":"","decimal":0},{"indicator":{"id":"SP.POP.TOTL","value":"Population, total"},"country":{"id":"KR","value":"Korea, Rep."},"countryiso3code":"KOR","date":"2015","value":51014947,"unit":"","obs_status":"","decimal":0},{"indicator":{"id":"SP.POP.TOTL","value":"Population, total"},"country":{"id":"KR","value":"Korea, Rep."},"countryiso3code":"KOR","date":"2014","value":50746659,"unit":"","obs_status":"","decimal":0},{"indicator":{"id":"SP.POP.TOTL","value":"Population, total"},"country":{"id":"KR","value":"Korea, Rep."},"countryiso3code":"KOR","date":"2013","value":50428893,"unit":"","obs_status":"","decimal":0},{"indicator":{"id":"SP.POP.TOTL","value":"Population, total"},"country":{"id":"KR","value":"Korea, Rep."},"countryiso3code":"KOR","date":"2012","value":50199853,"unit":"","obs_status":"","decimal":0},{"indicator":{"id":"SP.POP.TOTL","value":"Population, total"},"country":{"id":"KR","value":"Korea, Rep."},"countryiso3code":"KOR","date":"2011","value":49936638,"unit":"","obs_status":"","decimal":0},{"indicator":{"id":"SP.POP.TOTL","value":"Population, total"},"country":{"id":"KR","value":"Korea, Rep."},"countryiso3code":"KOR","date":"2010","value":49554112,"unit":"","obs_status":"","decimal":0},{"indicator":{"id":"SP.POP.TOTL","value":"Population, total"},"country":{"id":"KR","value":"Korea, Rep."},"countryiso3code":"KOR","date":"2009","value":49307835,"unit":"","obs_status":"","decimal":0},{"indicator":{"id":"SP.POP.TOTL","value":"Population, total"},"country":{"id":"KR","value":"Korea, Rep."},"countryiso3code":"KOR","date":"2008","value":49054708,"unit":"","obs_status":"","decimal":0},{"indicator":{"id":"SP.POP.TOTL","value":"Population, total"},"country":{"id":"KR","value":"Korea, Rep."},"countryiso3code":"KOR","date":"2007","value":48683638,"unit":"","obs_status":"","decimal":0},{"indicator":{"id":"SP.POP.TOTL","value":"Population, total"},"country":{"id":"KR","value":"Korea, Rep."},"countryiso3code":"KOR","date":"2006","value":48438292,"unit":"","obs_status":"","decimal":0},{"indicator":{"id":"SP.POP.TOTL","value":"Population, total"},"country":{"id":"KR","value":"Korea, Rep."},"countryiso3code":"KOR","date":"2005","value":48184561,"unit":"","obs_status":"","decimal":0},{"indicator":{"id":"SP.POP.TOTL","value":"Population, total"},"country":{"id":"KR","value":"Korea, Rep."},"countryiso3code":"KOR","date":"2004","value":48082519,"unit":"","obs_status":"","decimal":0},{"indicator":{"id":"SP.POP.TOTL","value":"Population, total"},"country":{"id":"KR","value":"Korea, Rep."},"countryiso3code":"KOR","date":"2003","value":47892330,"unit":"","obs_status":"","decimal":0},{"indicator":{"id":"SP.POP.TOTL","value":"Population, total"},"country":{"id":"KR","value":"Korea, Rep."},"countryiso3code":"KOR","date":"2002","value":47644736,"unit":"","obs_status":"","decimal":0},{"indicator":{"id":"SP.POP.TOTL","value":"Population, total"},"country":{"id":"KR","value":"Korea, Rep."},"countryiso3code":"KOR","date":"2001","value":47370164,"unit":"","obs_status":"","decimal":0},{"indicator":{"id":"SP.POP.TOTL","value":"Population, total"},"country":{"id":"KR","value":"Korea, Rep."},"countryiso3code":"KOR","date":"2000","value":47008111,"unit":"","obs_status":"","decimal":0},{"indicator":{"id":"SP.POP.TOTL","value":"Population, total"},"country":{"id":"KR","value":"Korea, Rep."},"countryiso3code":"KOR","date":"1999","value":46616677,"unit":"","obs_status":"","decimal":0},{"indicator":{"id":"SP.POP.TOTL","value":"Population, total"},"country":{"id":"KR","value":"Korea, Rep."},"countryiso3code":"KOR","date":"1998","value":46286503,"unit":"","obs_status":"","decimal":0},{"indicator":{"id":"SP.POP.TOTL","value":"Population, total"},"country":{"id":"KR","value":"Korea, Rep."},"countryiso3code":"KOR","date":"1997","value":45953580,"unit":"","obs_status":"","decimal":0},{"indicator":{"id":"SP.POP.TOTL","value":"Population, total"},"country":{"id":"KR","value":"Korea, Rep."},"countryiso3code":"KOR","date":"1996","value":45524681,"unit":"","obs_status":"","decimal":0},{"indicator":{"id":"SP.POP.TOTL","value":"Population, total"},"country":{"id":"KR","value":"Korea, Rep."},"countryiso3code":"KOR","date":"1995","value":45092991,"unit":"","obs_status":"","decimal":0},{"indicator":{"id":"SP.POP.TOTL","value":"Population, total"},"country":{"id":"KR","value":"Korea, Rep."},"countryiso3code":"KOR","date":"1994","value":44641540,"unit":"","obs_status":"","decimal":0},{"indicator":{"id":"SP.POP.TOTL","value":"Population, total"},"country":{"id":"KR","value":"Korea, Rep."},"countryiso3code":"KOR","date":"1993","value":44194628,"unit":"","obs_status":"","decimal":0},{"indicator":{"id":"SP.POP.TOTL","value":"Population, total"},"country":{"id":"KR","value":"Korea, Rep."},"countryiso3code":"KOR","date":"1992","value":43747962,"unit":"","obs_status":"","decimal":0},{"indicator":{"id":"SP.POP.TOTL","value":"Population, total"},"country":{"id":"KR","value":"Korea, Rep."},"countryiso3code":"KOR","date":"1991","value":43295704,"unit":"","obs_status":"","decimal":0},{"indicator":{"id":"SP.POP.TOTL","value":"Population, total"},"country":{"id":"KR","value":"Korea, Rep."},"countryiso3code":"KOR","date":"1990","value":42869283,"unit":"","obs_status":"","decimal":0},{"indicator":{"id":"SP.POP.TOTL","value":"Population, total"},"country":{"id":"KR","value":"Korea, Rep."},"countryiso3code":"KOR","date":"1989","value":42449038,"unit":"","obs_status":"","decimal":0},{"indicator":{"id":"SP.POP.TOTL","value":"Population, total"},"country":{"id":"KR","value":"Korea, Rep."},"countryiso3code":"KOR","date":"1988","value":42031247,"unit":"","obs_status":"","decimal":0},{"indicator":{"id":"SP.POP.TOTL","value":"Population, total"},"country":{"id":"KR","value":"Korea, Rep."},"countryiso3code":"KOR","date":"1987","value":41621690,"unit":"","obs_status":"","decimal":0},{"indicator":{"id":"SP.POP.TOTL","value":"Population, total"},"country":{"id":"KR","value":"Korea, Rep."},"countryiso3code":"KOR","date":"1986","value":41213674,"unit":"","obs_status":"","decimal":0},{"indicator":{"id":"SP.POP.TOTL","value":"Population, total"},"country":{"id":"KR","value":"Korea, Rep."},"countryiso3code":"KOR","date":"1985","value":40805744,"unit":"","obs_status":"","decimal":0},{"indicator":{"id":"SP.POP.TOTL","value":"Population, total"},"country":{"id":"KR","value":"Korea, Rep."},"countryiso3code":"KOR","date":"1984","value":40405956,"unit":"","obs_status":"","decimal":0},{"indicator":{"id":"SP.POP.TOTL","value":"Population, total"},"country":{"id":"KR","value":"Korea, Rep."},"countryiso3code":"KOR","date":"1983","value":39910403,"unit":"","obs_status":"","decimal":0},{"indicator":{"id":"SP.POP.TOTL","value":"Population, total"},"country":{"id":"KR","value":"Korea, Rep."},"countryiso3code":"KOR","date":"1982","value":39326352,"unit":"","obs_status":"","decimal":0},{"indicator":{"id":"SP.POP.TOTL","value":"Population, total"},"country":{"id":"KR","value":"Korea, Rep."},"countryiso3code":"KOR","date":"1981","value":38723248,"unit":"","obs_status":"","decimal":0},{"indicator":{"id":"SP.POP.TOTL","value":"Population, total"},"country":{"id":"KR","value":"Korea, Rep."},"countryiso3code":"KOR","date":"1980","value":38123775,"unit":"","obs_status":"","decimal":0},{"indicator":{"id":"SP.POP.TOTL","value":"Population, total"},"country":{"id":"KR","value":"Korea, Rep."},"countryiso3code":"KOR","date":"1979","value":37534236,"unit":"","obs_status":"","decimal":0},{"indicator":{"id":"SP.POP.TOTL","value":"Population, total"},"country":{"id":"KR","value":"Korea, Rep."},"countryiso3code":"KOR","date":"1978","value":36969185,"unit":"","obs_status":"","decimal":0},{"indicator":{"id":"SP.POP.TOTL","value":"Population, total"},"country":{"id":"KR","value":"Korea, Rep."},"countryiso3code":"KOR","date":"1977","value":36411795,"unit":"","obs_status":"","decimal":0},{"indicator":{"id":"SP.POP.TOTL","value":"Population, total"},"country":{"id":"KR","value":"Korea, Rep."},"countryiso3code":"KOR","date":"1976","value":35848523,"unit":"","obs_status":"","decimal":0},{"indicator":{"id":"SP.POP.TOTL","value":"Population, total"},"country":{"id":"KR","value":"Korea, Rep."},"countryiso3code":"KOR","date":"1975","value":35280725,"unit":"","obs_status":"","decimal":0},{"indicator":{"id":"SP.POP.TOTL","value":"Population, total"},"country":{"id":"KR","value":"Korea, Rep."},"countryiso3code":"KOR","date":"1974","value":34692266,"unit":"","obs_status":"","decimal":0}]]