[{"page":1,"pages":2,"per_page":50,"total":64,"sourceid":"2","lastupdated":"2024-05-30"},[{"indicator":{"id":"NY.GDP.PCAP.CD","value":"GDP per capita (current US$)"},"country":{"id":"KR","value":"Korea, Rep."},"countryiso3code":"KOR","date":"2023","value":null,"unit":"","obs_status":"","decimal":1},{"indicator":{"id":"NY.GDP.PCAP.CD","value":"GDP per capita (current US$)"},"country":{"id":"KR","value":"Korea, Rep."},"countryiso3code":"KOR","date":"2022","value":32422.5744864287,"unit":"","obs_status":"","decimal":1},{"indicator":{"id":"NY.GDP.PCAP.CD","value":"GDP per capita (current US$)"},"country":{"id":"KR","value":"Korea, Rep."},"countryiso3code":"KOR","date":"2021","value":35142.264267481,"unit":"","obs_status":"","decimal":1},{"indicator":{"id":"NY.GDP.PCAP.CD","value":"GDP per capita (current US$)"},"country":{"id":"KR","value":"Korea, Rep."},"countryiso3code":"KOR","date":"2020","value":31721.2989141857,"unit":"","obs_status":"","decimal":1},{"indicator":{"id":"NY.GDP.PCAP.CD","value":"GDP per capita (current US$)"},"country":{"id":"KR","value":"Korea, Rep."},"countryiso3code":"KOR","date":"2019","value":31902.4169048194,"unit":"","obs_status":"","decimal":1},{"indicator":{"id":"NY.GDP.PCAP.CD","value":"GDP per capita (current US$)"},"country":{"id":"KR","value":"Korea, Rep."},"countryiso3code":"KOR","date":"2018","value":33447.1562836166,"unit":"","obs_status":"","decimal":1},{"indicator":{"id":"NY.GDP.PCAP.CD","value":"GDP per capita (current US$)"},"country":{"id":"KR","value":"Korea, Rep."},"countryiso3code":"KOR","date":"2017","value":31600.7358741365,"unit":"","obs_status":"","decimal":1},{"indicator":{"id":"NY.GDP.PCAP.CD","value":"GDP per capita (current US$)"},"country":{"id":"KR","value":"Korea, Rep."},"countryiso3code":"KOR","date":"2016","value":29280.4403170048,"unit":"","obs_status":"","decimal":1},{"indicator":{"id":"NY.GDP.PCAP.CD","value":"GDP per capita (current US$)"},"country":{"id":"KR","value":"Korea, Rep."},"countryiso3code":"KOR","date":"2015","value":28737.4391706499,"unit":"","obs_status":"","decimal":1},{"indicator":{"id":"NY.GDP.PCAP.CD","value":"GDP per capita (current US$)"},"country":{"id":"KR","value":"Korea, Rep."},"countryiso3code":"KOR","date":"2014","value":29252.9312377352,"unit":"","obs_status":"","decimal":1},{"indicator":{"id":"NY.GDP.PCAP.CD","value":"GDP per capita (current US$)"},"country":{"id":"KR","value":"Korea, Rep."},"countryiso3code":"KOR","date":"2013","value":27179.5170146052,"unit":"","obs_status":"","decimal":1},{"indicator":{"id":"NY.GDP.PCAP.CD","value":"GDP per capita (current US$)"},"country":{"id":"KR","value":"Korea, Rep."},"countryiso3code":"KOR","date":"2012","value":25459.1689000965,"unit":"","obs_status":"","decimal":1},{"indicator":{"id":"NY.GDP.PCAP.CD","value":"GDP per capita (current US$)"},"country":{"id":"KR","value":"Korea, Rep."},"countryiso3code":"KOR","date":"2011","value":25097.595426845,"unit":"","obs_status":"","decimal":1},{"indicator":{"id":"NY.GDP.PCAP.CD","value":"GDP per capita (current US$)"},"country":{"id":"KR","value":"Korea, Rep."},"countryiso3code":"KOR","date":"2010","value":23079.2601257735,"unit":"","obs_status":"","decimal":1},{"indicator":{"id":"NY.GDP.PCAP.CD","value":"GDP per capita (current US$)"},"country":{"id":"KR","value":"Korea, Rep."},"countryiso3code":"KOR","date":"2009","value":19143.8516053025,"unit":"","obs_status":"","decimal":1},{"indicator":{"id":"NY.GDP.PCAP.CD","value":"GDP per capita (current US$)"},"country":{"id":"KR","value":"Korea, Rep."},"countryiso3code":"KOR","date":"2008","value":21350.427979823,"unit":"","obs_status":"","decimal":1},{"indicator":{"id":"NY.GDP.PCAP.CD","value":"GDP per capita (current US$)"},"country":{"id":"KR","value":"Korea, Rep."},"countryiso3code":"KOR","date":"2007","value":24086.4104391677,"unit":"","obs_status":"","decimal":1},{"indicator":{"id":"NY.GDP.PCAP.CD","value":"GDP per capita (current US$)"},"country":{"id":"KR","value":"Korea, Rep."},"countryiso3code":"KOR","date":"2006","value":21743.4774514254,"unit":"","obs_status":"","decimal":1},{"indicator":{"id":"NY.GDP.PCAP.CD","value":"GDP per capita (current US$)"},"country":{"id":"KR","value":"Korea, Rep."},"countryiso3code":"KOR","date":"2005","value":19402.5026259549,"unit":"","obs_status":"","decimal":1},{"indicator":{"id":"NY.GDP.PCAP.CD","value":"GDP per capita (current US$)"},"country":{"id":"KR","value":"Korea, Rep."},"countryiso3code":"KOR","date":"2004","value":16496.1316167114,"unit":"","obs_status":"","decimal":1},{"indicator":{"id":"NY.GDP.PCAP.CD","value":"GDP per capita (current US$)"},"country":{"id":"KR","value":"Korea, Rep."},"countryiso3code":"KOR","date":"2003","value":14672.8057539465,"unit":"","obs_status":"","decimal":1},{"indicator":{"id":"NY.GDP.PCAP.CD","value":"GDP per capita (current US$)"},"country":{"id":"KR","value":"Korea, Rep."},"countryiso3code":"KOR","date":"2002","value":13165.08362497,"unit":"","obs_status":"","decimal":1},{"indicator":{"id":"NY.GDP.PCAP.CD","value":"GDP per capita (current US$)"},"country":{"id":"KR","value":"Korea, Rep."},"countryiso3code":"KOR","date":"2001","value":11561.2071745115,"unit":"","obs_status":"","decimal":1},{"indicator":{"id":"NY.GDP.PCAP.CD","value":"GDP per capita (current US$)"},"country":{"id":"KR","value":"Korea, Rep."},"countryiso3code":"KOR","date":"2000","value":12257.0206622345,"unit":"","obs_status":"","decimal":1},{"indicator":{"id":"NY.GDP.PCAP.CD","value":"GDP per capita (current US$)"},"country":{"id":"KR","value":"Korea, Rep."},"countryiso3code":"KOR","date":"1999","value":10672.4475586765,"unit":"","obs_status":"","decimal":1},{"indicator":{"id":"NY.GDP.PCAP.CD","value":"GDP per capita (current US$)"},"country":{"id":"KR","value":"Korea, Rep."},"countryiso3code":"KOR","date":"1998","value":8281.71948271445,"unit":"","obs_status":"","decimal":1},{"indicator":{"id":"NY.GDP.PCAP.CD","value":"GDP per capita (current US$)"},"country":{"id":"KR","value":"Korea, Rep."},"countryiso3code":"KOR","date":"1997","value":12398.4904543462,"unit":"","obs_status":"","decimal":1},{"indicator":{"id":"NY.GDP.PCAP.CD","value":"GDP per capita (current US$)"},"country":{"id":"KR","value":"Korea, Rep."},"countryiso3code":"KOR","date":"1996","value":13402.994604707,"unit":"","obs_status":"","decimal":1},{"indicator":{"id":"NY.GDP.PCAP.CD","value":"GDP per capita (current US$)"},"country":{"id":"KR","value":"Korea, Rep."},"countryiso3code":"KOR","date":"1995","value":12564.7243743092,"unit":"","obs_status":"","decimal":1},{"indicator":{"id":"NY.GDP.PCAP.CD","value":"GDP per capita (current US$)"},"country":{"id":"KR","value":"Korea, Rep."},"countryiso3code":"KOR","date":"1994","value":10385.3904572997,"unit":"","obs_status":"","decimal":1},{"indicator":{"id":"NY.GDP.PCAP.CD","value":"GDP per capita (current US$)"},"country":{"id":"KR","value":"Korea, Rep."},"countryiso3code":"KOR","date":"1993","value":8884.91946408987,"unit":"","obs_status":"","decimal":1},{"indicator":{"id":"NY.GDP.PCAP.CD","value":"GDP per capita (current US$)"},"country":{"id":"KR","value":"Korea, Rep."},"countryiso3code":"KOR","date":"1992","value":8126.66206183629,"unit":"","obs_status":"","decimal":1},{"indicator":{"id":"NY.GDP.PCAP.CD","value":"GDP per capita (current US$)"},"country":{"id":"KR","value":"Korea, Rep."},"countryiso3code":"KOR","date":"1991","value":7636.9480638849,"unit":"","obs_status":"","decimal":1},{"indicator":{"id":"NY.GDP.PCAP.CD","value":"GDP per capita (current US$)"},"country":{"id":"KR","value":"Korea, Rep."},"countryiso3code":"KOR","date":"1990","value":6609.99728316175,"unit":"","obs_status":"","decimal":1},{"indicator":{"id":"NY.GDP.PCAP.CD","value":"GDP per capita (current US$)"},"country":{"id":"KR","value":"Korea, Rep."},"countryiso3code":"KOR","date":"1989","value":5817.06556721983,"unit":"","obs_status":"","decimal":1},{"indicator":{"id":"NY.GDP.PCAP.CD","value":"GDP per capita (current US$)"},"country":{"id":"KR","value":"Korea, Rep."},"countryiso3code":"KOR","date":"1988","value":4748.64064406123,"unit":"","obs_status":"","decimal":1},{"indicator":{"id":"NY.GDP.PCAP.CD","value":"GDP per capita (current US$)"},"country":{"id":"KR","value":"Korea, Rep."},"countryiso3code":"KOR","date":"1987","value":3554.60600894471,"unit":"","obs_status":"","decimal":1},{"indicator":{"id":"NY.GDP.PCAP.CD","value":"GDP per capita (current US$)"},"country":{"id":"KR","value":"Korea, Rep."},"countryiso3code":"KOR","date":"1986","value":2834.89033966815,"unit":"","obs_status":"","decimal":1},{"indicator":{"id":"NY.GDP.PCAP.CD","value":"GDP per capita (current US$)"},"country":{"id":"KR","value":"Korea, Rep."},"countryiso3code":"KOR","date":"1985","value":2482.39995573606,"unit":"","obs_status":"","decimal":1},{"indicator":{"id":"NY.GDP.PCAP.CD","value":"GDP per capita (current US$)"},"country":{"id":"KR","value":"Korea, Rep."},"countryiso3code":"KOR","date":"1984","value":2413.27650109593,"unit":"","obs_status":"","decimal":1},{"indicator":{"id":"NY.GDP.PCAP.CD","value":"GDP per capita (current US$)"},"country":{"id":"KR","value":"Korea, Rep."},"countryiso3code":"KOR","date":"1983","value":2198.93929063878,"unit":"","obs_status":"","decimal":1},{"indicator":{"id":"NY.GDP.PCAP.CD","value":"GDP per capita (current US$)"},"country":{"id":"KR","value":"Korea, Rep."},"countryiso3code":"KOR","date":"1982","value":1992.51677784629,"unit":"","obs_status":"","decimal":1},{"indicator":{"id":"NY.GDP.PCAP.CD","value":"GDP per capita (current US$)"},"country":{"id":"KR","value":"Korea, Rep."},"countryiso3code":"KOR","date":"1981","value":1883.45598002963,"unit":"","obs_status":"","decimal":1},{"indicator":{"id":"NY.GDP.PCAP.CD","value":"GDP per capita (current US$)"},"country":{"id":"KR","value":"Korea, Rep."},"countryiso3code":"KOR","date":"1980","value":1715.42239973641,"unit":"","obs_status":"","decimal":1},{"indicator":{"id":"NY.GDP.PCAP.CD","value":"GDP per capita (current US$)"},"country":{"id":"KR","value":"Korea, Rep."},"countryiso3code":"KOR","date":"1979","value":1783.62231287847,"unit":"","obs_status":"","decimal":1},{"indicator":{"id":"NY.GDP.PCAP.CD","value":"GDP per capita (current US$)"},"country":{"id":"KR","value":"Korea, Rep."},"countryiso3code":"KOR","date":"1978","value":1405.82237444554,"unit":"","obs_status":"","decimal":1},{"indicator":{"id":"NY.GDP.PCAP.CD","value":"GDP per capita (current US$)"},"country":{"id":"KR","value":"Korea, Rep."},"countryiso3code":"KOR","date":"1977","value":1055.8800411599,"unit":"","obs_status":"","decimal":1},{"indicator":{"id":"NY.GDP.PCAP.CD","value":"GDP per capita (current US$)"},"country":{"id":"KR","value":"Korea, Rep."},"countryiso3code":"KOR","date":"1976","value":834.134207951691,"unit":"","obs_status":"","decimal":1},{"indicator":{"id":"NY.GDP.PCAP.CD","value":"GDP per capita (current US$)"},"country":{"id":"KR","value":"Korea, Rep."},"countryiso3code":"KOR","date":"1975","value":617.456061933567,"unit":"","obs_status":"","decimal":1},{"indicator":{"id":"NY.GDP.PCAP.CD","value":"GDP per capita (current US$)"},"country":{"id":"KR","value":"Korea, Rep."},"countryiso3code":"KOR","date":"1974","value":563.352475775669,"unit":"","obs_status":"","decimal":1}]]