[{"page":1,"pages":2,"per_page":50,"total":64,"sourceid":"2","lastupdated":"2024-05-30"},[{"indicator":{"id":"IS.RRS.TOTL.KM","value":"Rail lines (total route-km)"},"country":{"id":"KR","value":"Korea, Rep."},"countryiso3code":"KOR","date":"2023","value":null,"unit":"","obs_status":"","decimal":0},{"indicator":{"id":"IS.RRS.TOTL.KM","value":"Rail lines (total route-km)"},"country":{"id":"KR","value":"Korea, Rep."},"countryiso3code":"KOR","date":"2022","value":null,"unit":"","obs_status":"","decimal":0},{"indicator":{"id":"IS.RRS.TOTL.KM","value":"Rail lines (total route-km)"},"country":{"id":"KR","value":"Korea, Rep."},"countryiso3code":"KOR","date":"2021","value":4308.5,"unit":"","obs_status":"","decimal":0},{"indicator":{"id":"IS.RRS.TOTL.KM","value":"Rail lines (total route-km)"},"country":{"id":"KR","value":"Korea, Rep."},"countryiso3code":"KOR","date":"2020","value":4284.7,"unit":"","obs_status":"","decimal":0},{"indicator":{"id":"IS.RRS.TOTL.KM","value":"Rail lines (total route-km)"},"country":{"id":"KR","value":"Korea, Rep."},"countryiso3code":"KOR","date":"2019","value":4109.15,"unit":"","obs_status":"","decimal":0},{"indicator":{"id":"IS.RRS.TOTL.KM","value":"Rail lines (total route-km)"},"country":{"id":"KR","value":"Korea, Rep."},"countryiso3code":"KOR","date":"2018","value":4200,"unit":"","obs_status":"","decimal":0},{"indicator":{"id":"IS.RRS.TOTL.KM","value":"Rail lines (total route-km)"},"country":{"id":"KR","value":"Korea, Rep."},"countryiso3code":"KOR","date":"2017","value":4071,"unit":"","obs_status":"","decimal":0},{"indicator":{"id":"IS.RRS.TOTL.KM","value":"Rail lines (total route-km)"},"country":{"id":"KR","value":"Korea, Rep."},"countryiso3code":"KOR","date":"2016","value":4071,"unit":"","obs_status":"","decimal":0},{"indicator":{"id":"IS.RRS.TOTL.KM","value":"Rail lines (total route-km)"},"country":{"id":"KR","value":"Korea, Rep."},"countryiso3code":"KOR","date":"2015","value":3944,"unit":"","obs_status":"","decimal":0},{"indicator":{"id":"IS.RRS.TOTL.KM","value":"Rail lines (total route-km)"},"country":{"id":"KR","value":"Korea, Rep."},"countryiso3code":"KOR","date":"2014","value":3668.3,"unit":"","obs_status":"","decimal":0},{"indicator":{"id":"IS.RRS.TOTL.KM","value":"Rail lines (total route-km)"},"country":{"id":"KR","value":"Korea, Rep."},"countryiso3code":"KOR","date":"2013","value":3666.1,"unit":"","obs_status":"","decimal":0},{"indicator":{"id":"IS.RRS.TOTL.KM","value":"Rail lines (total route-km)"},"country":{"id":"KR","value":"Korea, Rep."},"countryiso3code":"KOR","date":"2012","value":3650.1,"unit":"","obs_status":"","decimal":0},{"indicator":{"id":"IS.RRS.TOTL.KM","value":"Rail lines (total route-km)"},"country":{"id":"KR","value":"Korea, Rep."},"countryiso3code":"KOR","date":"2011","value":3637.2,"unit":"","obs_status":"","decimal":0},{"indicator":{"id":"IS.RRS.TOTL.KM","value":"Rail lines (total route-km)"},"country":{"id":"KR","value":"Korea, Rep."},"countryiso3code":"KOR","date":"2010","value":3618.3,"unit":"","obs_status":"","decimal":0},{"indicator":{"id":"IS.RRS.TOTL.KM","value":"Rail lines (total route-km)"},"country":{"id":"KR","value":"Korea, Rep."},"countryiso3code":"KOR","date":"2009","value":3378,"unit":"","obs_status":"","decimal":0},{"indicator":{"id":"IS.RRS.TOTL.KM","value":"Rail lines (total route-km)"},"country":{"id":"KR","value":"Korea, Rep."},"countryiso3code":"KOR","date":"2008","value":3381,"unit":"","obs_status":"","decimal":0},{"indicator":{"id":"IS.RRS.TOTL.KM","value":"Rail lines (total route-km)"},"country":{"id":"KR","value":"Korea, Rep."},"countryiso3code":"KOR","date":"2007","value":3399,"unit":"","obs_status":"","decimal":0},{"indicator":{"id":"IS.RRS.TOTL.KM","value":"Rail lines (total route-km)"},"country":{"id":"KR","value":"Korea, Rep."},"countryiso3code":"KOR","date":"2006","value":3392,"unit":"","obs_status":"","decimal":0},{"indicator":{"id":"IS.RRS.TOTL.KM","value":"Rail lines (total route-km)"},"country":{"id":"KR","value":"Korea, Rep."},"countryiso3code":"KOR","date":"2005","value":3392,"unit":"","obs_status":"","decimal":0},{"indicator":{"id":"IS.RRS.TOTL.KM","value":"Rail lines (total route-km)"},"country":{"id":"KR","value":"Korea, Rep."},"countryiso3code":"KOR","date":"2004","value":3374,"unit":"","obs_status":"","decimal":0},{"indicator":{"id":"IS.RRS.TOTL.KM","value":"Rail lines (total route-km)"},"country":{"id":"KR","value":"Korea, Rep."},"countryiso3code":"KOR","date":"2003","value":3140,"unit":"","obs_status":"","decimal":0},{"indicator":{"id":"IS.RRS.TOTL.KM","value":"Rail lines (total route-km)"},"country":{"id":"KR","value":"Korea, Rep."},"countryiso3code":"KOR","date":"2002","value":3129,"unit":"","obs_status":"","decimal":0},{"indicator":{"id":"IS.RRS.TOTL.KM","value":"Rail lines (total route-km)"},"country":{"id":"KR","value":"Korea, Rep."},"countryiso3code":"KOR","date":"2001","value":3125,"unit":"","obs_status":"","decimal":0},{"indicator":{"id":"IS.RRS.TOTL.KM","value":"Rail lines (total route-km)"},"country":{"id":"KR","value":"Korea, Rep."},"countryiso3code":"KOR","date":"2000","value":3123,"unit":"","obs_status":"","decimal":0},{"indicator":{"id":"IS.RRS.TOTL.KM","value":"Rail lines (total route-km)"},"country":{"id":"KR","value":"Korea, Rep."},"countryiso3code":"KOR","date":"1999","value":3118,"unit":"","obs_status":"","decimal":0},{"indicator":{"id":"IS.RRS.TOTL.KM","value":"Rail lines (total route-km)"},"country":{"id":"KR","value":"Korea, Rep."},"countryiso3code":"KOR","date":"1998","value":3125,"unit":"","obs_status":"","decimal":0},{"indicator":{"id":"IS.RRS.TOTL.KM","value":"Rail lines (total route-km)"},"country":{"id":"KR","value":"Korea, Rep."},"countryiso3code":"KOR","date":"1997","value":3118,"unit":"","obs_status":"","decimal":0},{"indicator":{"id":"IS.RRS.TOTL.KM","value":"Rail lines (total route-km)"},"country":{"id":"KR","value":"Korea, Rep."},"countryiso3code":"KOR","date":"1996","value":3120,"unit":"","obs_status":"","decimal":0},{"indicator":{"id":"IS.RRS.TOTL.KM","value":"Rail lines (total route-km)"},"country":{"id":"KR","value":"Korea, Rep."},"countryiso3code":"KOR","date":"1995","value":3101,"unit":"","obs_status":"","decimal":0},{"indicator":{"id":"IS.RRS.TOTL.KM","value":"Rail lines (total route-km)"},"country":{"id":"KR","value":"Korea, Rep."},"countryiso3code":"KOR","date":"1994","value":null,"unit":"","obs_status":"","decimal":0},{"indicator":{"id":"IS.RRS.TOTL.KM","value":"Rail lines (total route-km)"},"country":{"id":"KR","value":"Korea, Rep."},"countryiso3code":"KOR","date":"1993","value":null,"unit":"","obs_status":"","decimal":0},{"indicator":{"id":"IS.RRS.TOTL.KM","value":"Rail lines (total route-km)"},"country":{"id":"KR","value":"Korea, Rep."},"countryiso3code":"KOR","date":"1992","value":null,"unit":"","obs_status":"","decimal":0},{"indicator":{"id":"IS.RRS.TOTL.KM","value":"Rail lines (total route-km)"},"country":{"id":"KR","value":"Korea, Rep."},"countryiso3code":"KOR","date":"1991","value":null,"unit":"","obs_status":"","decimal":0},{"indicator":{"id":"IS.RRS.TOTL.KM","value":"Rail lines (total route-km)"},"country":{"id":"KR","value":"Korea, Rep."},"countryiso3code":"KOR","date":"1990","value":null,"unit":"","obs_status":"","decimal":0},{"indicator":{"id":"IS.RRS.TOTL.KM","value":"Rail lines (total route-km)"},"country":{"id":"KR","value":"Korea, Rep."},"countryiso3code":"KOR","date":"1989","value":null,"unit":"","obs_status":"","decimal":0},{"indicator":{"id":"IS.RRS.TOTL.KM","value":"Rail lines (total route-km)"},"country":{"id":"KR","value":"Korea, Rep."},"countryiso3code":"KOR","date":"1988","value":null,"unit":"","obs_status":"","decimal":0},{"indicator":{"id":"IS.RRS.TOTL.KM","value":"Rail lines (total route-km)"},"country":{"id":"KR","value":"Korea, Rep."},"countryiso3code":"KOR","date":"1987","value":null,"unit":"","obs_status":"","decimal":0},{"indicator":{"id":"IS.RRS.TOTL.KM","value":"Rail lines (total route-km)"},"country":{"id":"KR","value":"Korea, Rep."},"countryiso3code":"KOR","date":"1986","value":null,"unit":"","obs_status":"","decimal":0},{"indicator":{"id":"IS.RRS.TOTL.KM","value":"Rail lines (total route-km)"},"country":{"id":"KR","value":"Korea, Rep."},"countryiso3code":"KOR","date":"1985","value":null,"unit":"","obs_status":"","decimal":0},{"indicator":{"id":"IS.RRS.TOTL.KM","value":"Rail lines (total route-km)"},"country":{"id":"KR","value":"Korea, Rep."},"countryiso3code":"KOR","date":"1984","value":null,"unit":"","obs_status":"","decimal":0},{"indicator":{"id":"IS.RRS.TOTL.KM","value":"Rail lines (total route-km)"},"country":{"id":"KR","value":"Korea, Rep."},"countryiso3code":"KOR","date":"1983","value":null,"unit":"","obs_status":"","decimal":0},{"indicator":{"id":"IS.RRS.TOTL.KM","value":"Rail lines (total route-km)"},"country":{"id":"KR","value":"Korea, Rep."},"countryiso3code":"KOR","date":"1982","value":null,"unit":"","obs_status":"","decimal":0},{"indicator":{"id":"IS.RRS.TOTL.KM","value":"Rail lines (total route-km)"},"country":{"id":"KR","value":"Korea, Rep."},"countryiso3code":"KOR","date":"1981","value":null,"unit":"","obs_status":"","decimal":0},{"indicator":{"id":"IS.RRS.TOTL.KM","value":"Rail lines (total route-km)"},"country":{"id":"KR","value":"Korea, Rep."},"countryiso3code":"KOR","date":"1980","value":null,"unit":"","obs_status":"","decimal":0},{"indicator":{"id":"IS.RRS.TOTL.KM","value":"Rail lines (total route-km)"},"country":{"id":"KR","value":"Korea, Rep."},"countryiso3code":"KOR","date":"1979","value":null,"unit":"","obs_status":"","decimal":0},{"indicator":{"id":"IS.RRS.TOTL.KM","value":"Rail lines (total route-km)"},"country":{"id":"KR","value":"Korea, Rep."},"countryiso3code":"KOR","date":"1978","value":null,"unit":"","obs_status":"","decimal":0},{"indicator":{"id":"IS.RRS.TOTL.KM","value":"Rail lines (total route-km)"},"country":{"id":"KR","value":"Korea, Rep."},"countryiso3code":"KOR","date":"1977","value":null,"unit":"","obs_status":"","decimal":0},{"indicator":{"id":"IS.RRS.TOTL.KM","value":"Rail lines (total route-km)"},"country":{"id":"KR","value":"Korea, Rep."},"countryiso3code":"KOR","date":"1976","value":null,"unit":"","obs_status":"","decimal":0},{"indicator":{"id":"IS.RRS.TOTL.KM","value":"Rail lines (total route-km)"},"country":{"id":"KR","value":"Korea, Rep."},"countryiso3code":"KOR","date":"1975","value":null,"unit":"","obs_status":"","decimal":0},{"indicator":{"id":"IS.RRS.TOTL.KM","value":"Rail lines (total route-km)"},"country":{"id":"KR","value":"Korea, Rep."},"countryiso3code":"KOR","date":"1974","value":null,"unit":"","obs_status":"","decimal":0}]]