[{"page":1,"pages":2,"per_page":50,"total":64,"sourceid":"2","lastupdated":"2024-05-30"},[{"indicator":{"id":"SL.UEM.TOTL.ZS","value":"Unemployment, total (% of total labor force) (modeled ILO estimate)"},"country":{"id":"KR","value":"Korea, Rep."},"countryiso3code":"KOR","date":"2023","value":2.661,"unit":"","obs_status":"","decimal":1},{"indicator":{"id":"SL.UEM.TOTL.ZS","value":"Unemployment, total (% of total labor force) (modeled ILO estimate)"},"country":{"id":"KR","value":"Korea, Rep."},"countryiso3code":"KOR","date":"2022","value":2.86,"unit":"","obs_status":"","decimal":1},{"indicator":{"id":"SL.UEM.TOTL.ZS","value":"Unemployment, total (% of total labor force) (modeled ILO estimate)"},"country":{"id":"KR","value":"Korea, Rep."},"countryiso3code":"KOR","date":"2021","value":3.64,"unit":"","obs_status":"","decimal":1},{"indicator":{"id":"SL.UEM.TOTL.ZS","value":"Unemployment, total (% of total labor force) (modeled ILO estimate)"},"country":{"id":"KR","value":"Korea, Rep."},"countryiso3code":"KOR","date":"2020","value":3.93,"unit":"","obs_status":"","decimal":1},{"indicator":{"id":"SL.UEM.TOTL.ZS","value":"Unemployment, total (% of total labor force) (modeled ILO estimate)"},"country":{"id":"KR","value":"Korea, Rep."},"countryiso3code":"KOR","date":"2019","value":3.75,"unit":"","obs_status":"","decimal":1},{"indicator":{"id":"SL.UEM.TOTL.ZS","value":"Unemployment, total (% of total labor force) (modeled ILO estimate)"},"country":{"id":"KR","value":"Korea, Rep."},"countryiso3code":"KOR","date":"2018","value":3.82,"unit":"","obs_status":"","decimal":1},{"indicator":{"id":"SL.UEM.TOTL.ZS","value":"Unemployment, total (% of total labor force) (modeled ILO estimate)"},"country":{"id":"KR","value":"Korea, Rep."},"countryiso3code":"KOR","date":"2017","value":3.65,"unit":"","obs_status":"","decimal":1},{"indicator":{"id":"SL.UEM.TOTL.ZS","value":"Unemployment, total (% of total labor force) (modeled ILO estimate)"},"country":{"id":"KR","value":"Korea, Rep."},"countryiso3code":"KOR","date":"2016","value":3.65,"unit":"","obs_status":"","decimal":1},{"indicator":{"id":"SL.UEM.TOTL.ZS","value":"Unemployment, total (% of total labor force) (modeled ILO estimate)"},"country":{"id":"KR","value":"Korea, Rep."},"countryiso3code":"KOR","date":"2015","value":3.55,"unit":"","obs_status":"","decimal":1},{"indicator":{"id":"SL.UEM.TOTL.ZS","value":"Unemployment, total (% of total labor force) (modeled ILO estimate)"},"country":{"id":"KR","value":"Korea, Rep."},"countryiso3code":"KOR","date":"2014","value":3.08,"unit":"","obs_status":"","decimal":1},{"indicator":{"id":"SL.UEM.TOTL.ZS","value":"Unemployment, total (% of total labor force) (modeled ILO estimate)"},"country":{"id":"KR","value":"Korea, Rep."},"countryiso3code":"KOR","date":"2013","value":2.75,"unit":"","obs_status":"","decimal":1},{"indicator":{"id":"SL.UEM.TOTL.ZS","value":"Unemployment, total (% of total labor force) (modeled ILO estimate)"},"country":{"id":"KR","value":"Korea, Rep."},"countryiso3code":"KOR","date":"2012","value":2.81,"unit":"","obs_status":"","decimal":1},{"indicator":{"id":"SL.UEM.TOTL.ZS","value":"Unemployment, total (% of total labor force) (modeled ILO estimate)"},"country":{"id":"KR","value":"Korea, Rep."},"countryiso3code":"KOR","date":"2011","value":2.99,"unit":"","obs_status":"","decimal":1},{"indicator":{"id":"SL.UEM.TOTL.ZS","value":"Unemployment, total (% of total labor force) (modeled ILO estimate)"},"country":{"id":"KR","value":"Korea, Rep."},"countryiso3code":"KOR","date":"2010","value":3.32,"unit":"","obs_status":"","decimal":1},{"indicator":{"id":"SL.UEM.TOTL.ZS","value":"Unemployment, total (% of total labor force) (modeled ILO estimate)"},"country":{"id":"KR","value":"Korea, Rep."},"countryiso3code":"KOR","date":"2009","value":3.36,"unit":"","obs_status":"","decimal":1},{"indicator":{"id":"SL.UEM.TOTL.ZS","value":"Unemployment, total (% of total labor force) (modeled ILO estimate)"},"country":{"id":"KR","value":"Korea, Rep."},"countryiso3code":"KOR","date":"2008","value":2.96,"unit":"","obs_status":"","decimal":1},{"indicator":{"id":"SL.UEM.TOTL.ZS","value":"Unemployment, total (% of total labor force) (modeled ILO estimate)"},"country":{"id":"KR","value":"Korea, Rep."},"countryiso3code":"KOR","date":"2007","value":3.01,"unit":"","obs_status":"","decimal":1},{"indicator":{"id":"SL.UEM.TOTL.ZS","value":"Unemployment, total (% of total labor force) (modeled ILO estimate)"},"country":{"id":"KR","value":"Korea, Rep."},"countryiso3code":"KOR","date":"2006","value":3.25,"unit":"","obs_status":"","decimal":1},{"indicator":{"id":"SL.UEM.TOTL.ZS","value":"Unemployment, total (% of total labor force) (modeled ILO estimate)"},"country":{"id":"KR","value":"Korea, Rep."},"countryiso3code":"KOR","date":"2005","value":3.48,"unit":"","obs_status":"","decimal":1},{"indicator":{"id":"SL.UEM.TOTL.ZS","value":"Unemployment, total (% of total labor force) (modeled ILO estimate)"},"country":{"id":"KR","value":"Korea, Rep."},"countryiso3code":"KOR","date":"2004","value":3.42,"unit":"","obs_status":"","decimal":1},{"indicator":{"id":"SL.UEM.TOTL.ZS","value":"Unemployment, total (% of total labor force) (modeled ILO estimate)"},"country":{"id":"KR","value":"Korea, Rep."},"countryiso3code":"KOR","date":"2003","value":3.35,"unit":"","obs_status":"","decimal":1},{"indicator":{"id":"SL.UEM.TOTL.ZS","value":"Unemployment, total (% of total labor force) (modeled ILO estimate)"},"country":{"id":"KR","value":"Korea, Rep."},"countryiso3code":"KOR","date":"2002","value":3.05,"unit":"","obs_status":"","decimal":1},{"indicator":{"id":"SL.UEM.TOTL.ZS","value":"Unemployment, total (% of total labor force) (modeled ILO estimate)"},"country":{"id":"KR","value":"Korea, Rep."},"countryiso3code":"KOR","date":"2001","value":3.7,"unit":"","obs_status":"","decimal":1},{"indicator":{"id":"SL.UEM.TOTL.ZS","value":"Unemployment, total (% of total labor force) (modeled ILO estimate)"},"country":{"id":"KR","value":"Korea, Rep."},"countryiso3code":"KOR","date":"2000","value":4.06,"unit":"","obs_status":"","decimal":1},{"indicator":{"id":"SL.UEM.TOTL.ZS","value":"Unemployment, total (% of total labor force) (modeled ILO estimate)"},"country":{"id":"KR","value":"Korea, Rep."},"countryiso3code":"KOR","date":"1999","value":6.34,"unit":"","obs_status":"","decimal":1},{"indicator":{"id":"SL.UEM.TOTL.ZS","value":"Unemployment, total (% of total labor force) (modeled ILO estimate)"},"country":{"id":"KR","value":"Korea, Rep."},"countryiso3code":"KOR","date":"1998","value":6.96,"unit":"","obs_status":"","decimal":1},{"indicator":{"id":"SL.UEM.TOTL.ZS","value":"Unemployment, total (% of total labor force) (modeled ILO estimate)"},"country":{"id":"KR","value":"Korea, Rep."},"countryiso3code":"KOR","date":"1997","value":2.61,"unit":"","obs_status":"","decimal":1},{"indicator":{"id":"SL.UEM.TOTL.ZS","value":"Unemployment, total (% of total labor force) (modeled ILO estimate)"},"country":{"id":"KR","value":"Korea, Rep."},"countryiso3code":"KOR","date":"1996","value":2.05,"unit":"","obs_status":"","decimal":1},{"indicator":{"id":"SL.UEM.TOTL.ZS","value":"Unemployment, total (% of total labor force) (modeled ILO estimate)"},"country":{"id":"KR","value":"Korea, Rep."},"countryiso3code":"KOR","date":"1995","value":2.06,"unit":"","obs_status":"","decimal":1},{"indicator":{"id":"SL.UEM.TOTL.ZS","value":"Unemployment, total (% of total labor force) (modeled ILO estimate)"},"country":{"id":"KR","value":"Korea, Rep."},"countryiso3code":"KOR","date":"1994","value":2.48,"unit":"","obs_status":"","decimal":1},{"indicator":{"id":"SL.UEM.TOTL.ZS","value":"Unemployment, total (% of total labor force) (modeled ILO estimate)"},"country":{"id":"KR","value":"Korea, Rep."},"countryiso3code":"KOR","date":"1993","value":2.88,"unit":"","obs_status":"","decimal":1},{"indicator":{"id":"SL.UEM.TOTL.ZS","value":"Unemployment, total (% of total labor force) (modeled ILO estimate)"},"country":{"id":"KR","value":"Korea, Rep."},"countryiso3code":"KOR","date":"1992","value":2.51,"unit":"","obs_status":"","decimal":1},{"indicator":{"id":"SL.UEM.TOTL.ZS","value":"Unemployment, total (% of total labor force) (modeled ILO estimate)"},"country":{"id":"KR","value":"Korea, Rep."},"countryiso3code":"KOR","date":"1991","value":2.41,"unit":"","obs_status":"","decimal":1},{"indicator":{"id":"SL.UEM.TOTL.ZS","value":"Unemployment, total (% of total labor force) (modeled ILO estimate)"},"country":{"id":"KR","value":"Korea, Rep."},"countryiso3code":"KOR","date":"1990","value":null,"unit":"","obs_status":"","decimal":1},{"indicator":{"id":"SL.UEM.TOTL.ZS","value":"Unemployment, total (% of total labor force) (modeled ILO estimate)"},"country":{"id":"KR","value":"Korea, Rep."},"countryiso3code":"KOR","date":"1989","value":null,"unit":"","obs_status":"","decimal":1},{"indicator":{"id":"SL.UEM.TOTL.ZS","value":"Unemployment, total (% of total labor force) (modeled ILO estimate)"},"country":{"id":"KR","value":"Korea, Rep."},"countryiso3code":"KOR","date":"1988","value":null,"unit":"","obs_status":"","decimal":1},{"indicator":{"id":"SL.UEM.TOTL.ZS","value":"Unemployment, total (% of total labor force) (modeled ILO estimate)"},"country":{"id":"KR","value":"Korea, Rep."},"countryiso3code":"KOR","date":"1987","value":null,"unit":"","obs_status":"","decimal":1},{"indicator":{"id":"SL.UEM.TOTL.ZS","value":"Unemployment, total (% of total labor force) (modeled ILO estimate)"},"country":{"id":"KR","value":"Korea, Rep."},"countryiso3code":"KOR","date":"1986","value":null,"unit":"","obs_status":"","decimal":1},{"indicator":{"id":"SL.UEM.TOTL.ZS","value":"Unemployment, total (% of total labor force) (modeled ILO estimate)"},"country":{"id":"KR","value":"Korea, Rep."},"countryiso3code":"KOR","date":"1985","value":null,"unit":"","obs_status":"","decimal":1},{"indicator":{"id":"SL.UEM.TOTL.ZS","value":"Unemployment, total (% of total labor force) (modeled ILO estimate)"},"country":{"id":"KR","value":"Korea, Rep."},"countryiso3code":"KOR","date":"1984","value":null,"unit":"","obs_status":"","decimal":1},{"indicator":{"id":"SL.UEM.TOTL.ZS","value":"Unemployment, total (% of total labor force) (modeled ILO estimate)"},"country":{"id":"KR","value":"Korea, Rep."},"countryiso3code":"KOR","date":"1983","value":null,"unit":"","obs_status":"","decimal":1},{"indicator":{"id":"SL.UEM.TOTL.ZS","value":"Unemployment, total (% of total labor force) (modeled ILO estimate)"},"country":{"id":"KR","value":"Korea, Rep."},"countryiso3code":"KOR","date":"1982","value":null,"unit":"","obs_status":"","decimal":1},{"indicator":{"id":"SL.UEM.TOTL.ZS","value":"Unemployment, total (% of total labor force) (modeled ILO estimate)"},"country":{"id":"KR","value":"Korea, Rep."},"countryiso3code":"KOR","date":"1981","value":null,"unit":"","obs_status":"","decimal":1},{"indicator":{"id":"SL.UEM.TOTL.ZS","value":"Unemployment, total (% of total labor force) (modeled ILO estimate)"},"country":{"id":"KR","value":"Korea, Rep."},"countryiso3code":"KOR","date":"1980","value":null,"unit":"","obs_status":"","decimal":1},{"indicator":{"id":"SL.UEM.TOTL.ZS","value":"Unemployment, total (% of total labor force) (modeled ILO estimate)"},"country":{"id":"KR","value":"Korea, Rep."},"countryiso3code":"KOR","date":"1979","value":null,"unit":"","obs_status":"","decimal":1},{"indicator":{"id":"SL.UEM.TOTL.ZS","value":"Unemployment, total (% of total labor force) (modeled ILO estimate)"},"country":{"id":"KR","value":"Korea, Rep."},"countryiso3code":"KOR","date":"1978","value":null,"unit":"","obs_status":"","decimal":1},{"indicator":{"id":"SL.UEM.TOTL.ZS","value":"Unemployment, total (% of total labor force) (modeled ILO estimate)"},"country":{"id":"KR","value":"Korea, Rep."},"countryiso3code":"KOR","date":"1977","value":null,"unit":"","obs_status":"","decimal":1},{"indicator":{"id":"SL.UEM.TOTL.ZS","value":"Unemployment, total (% of total labor force) (modeled ILO estimate)"},"country":{"id":"KR","value":"Korea, Rep."},"countryiso3code":"KOR","date":"1976","value":null,"unit":"","obs_status":"","decimal":1},{"indicator":{"id":"SL.UEM.TOTL.ZS","value":"Unemployment, total (% of total labor force) (modeled ILO estimate)"},"country":{"id":"KR","value":"Korea, Rep."},"countryiso3code":"KOR","date":"1975","value":null,"unit":"","obs_status":"","decimal":1},{"indicator":{"id":"SL.UEM.TOTL.ZS","value":"Unemployment, total (% of total labor force) (modeled ILO estimate)"},"country":{"id":"KR","value":"Korea, Rep."},"countryiso3code":"KOR","date":"1974","value":null,"unit":"","obs_status":"","decimal":1}]]