[{"page":1,"pages":2,"per_page":50,"total":64,"sourceid":"2","lastupdated":"2024-05-30"},[{"indicator":{"id":"IS.AIR.PSGR","value":"Air transport, passengers carried"},"country":{"id":"US","value":"United States"},"countryiso3code":"USA","date":"2023","value":null,"unit":"","obs_status":"","decimal":0},{"indicator":{"id":"IS.AIR.PSGR","value":"Air transport, passengers carried"},"country":{"id":"US","value":"United States"},"countryiso3code":"USA","date":"2022","value":null,"unit":"","obs_status":"","decimal":0},{"indicator":{"id":"IS.AIR.PSGR","value":"Air transport, passengers carried"},"country":{"id":"US","value":"United States"},"countryiso3code":"USA","date":"2021","value":666153000,"unit":"","obs_status":"","decimal":0},{"indicator":{"id":"IS.AIR.PSGR","value":"Air transport, passengers carried"},"country":{"id":"US","value":"United States"},"countryiso3code":"USA","date":"2020","value":369501000,"unit":"","obs_status":"","decimal":0},{"indicator":{"id":"IS.AIR.PSGR","value":"Air transport, passengers carried"},"country":{"id":"US","value":"United States"},"countryiso3code":"USA","date":"2019","value":926737000,"unit":"","obs_status":"","decimal":0},{"indicator":{"id":"IS.AIR.PSGR","value":"Air transport, passengers carried"},"country":{"id":"US","value":"United States"},"countryiso3code":"USA","date":"2018","value":889024000,"unit":"","obs_status":"","decimal":0},{"indicator":{"id":"IS.AIR.PSGR","value":"Air transport, passengers carried"},"country":{"id":"US","value":"United States"},"countryiso3code":"USA","date":"2017","value":849403000,"unit":"","obs_status":"","decimal":0},{"indicator":{"id":"IS.AIR.PSGR","value":"Air transport, passengers carried"},"country":{"id":"US","value":"United States"},"countryiso3code":"USA","date":"2016","value":824039000,"unit":"","obs_status":"","decimal":0},{"indicator":{"id":"IS.AIR.PSGR","value":"Air transport, passengers carried"},"country":{"id":"US","value":"United States"},"countryiso3code":"USA","date":"2015","value":798222000,"unit":"","obs_status":"","decimal":0},{"indicator":{"id":"IS.AIR.PSGR","value":"Air transport, passengers carried"},"country":{"id":"US","value":"United States"},"countryiso3code":"USA","date":"2014","value":762710000,"unit":"","obs_status":"","decimal":0},{"indicator":{"id":"IS.AIR.PSGR","value":"Air transport, passengers carried"},"country":{"id":"US","value":"United States"},"countryiso3code":"USA","date":"2013","value":743171000,"unit":"","obs_status":"","decimal":0},{"indicator":{"id":"IS.AIR.PSGR","value":"Air transport, passengers carried"},"country":{"id":"US","value":"United States"},"countryiso3code":"USA","date":"2012","value":736699000,"unit":"","obs_status":"","decimal":0},{"indicator":{"id":"IS.AIR.PSGR","value":"Air transport, passengers carried"},"country":{"id":"US","value":"United States"},"countryiso3code":"USA","date":"2011","value":730796000,"unit":"","obs_status":"","decimal":0},{"indicator":{"id":"IS.AIR.PSGR","value":"Air transport, passengers carried"},"country":{"id":"US","value":"United States"},"countryiso3code":"USA","date":"2010","value":720497000,"unit":"","obs_status":"","decimal":0},{"indicator":{"id":"IS.AIR.PSGR","value":"Air transport, passengers carried"},"country":{"id":"US","value":"United States"},"countryiso3code":"USA","date":"2009","value":679423408,"unit":"","obs_status":"","decimal":0},{"indicator":{"id":"IS.AIR.PSGR","value":"Air transport, passengers carried"},"country":{"id":"US","value":"United States"},"countryiso3code":"USA","date":"2008","value":701779551,"unit":"","obs_status":"","decimal":0},{"indicator":{"id":"IS.AIR.PSGR","value":"Air transport, passengers carried"},"country":{"id":"US","value":"United States"},"countryiso3code":"USA","date":"2007","value":744302310,"unit":"","obs_status":"","decimal":0},{"indicator":{"id":"IS.AIR.PSGR","value":"Air transport, passengers carried"},"country":{"id":"US","value":"United States"},"countryiso3code":"USA","date":"2006","value":725530965,"unit":"","obs_status":"","decimal":0},{"indicator":{"id":"IS.AIR.PSGR","value":"Air transport, passengers carried"},"country":{"id":"US","value":"United States"},"countryiso3code":"USA","date":"2005","value":720547738,"unit":"","obs_status":"","decimal":0},{"indicator":{"id":"IS.AIR.PSGR","value":"Air transport, passengers carried"},"country":{"id":"US","value":"United States"},"countryiso3code":"USA","date":"2004","value":678110608,"unit":"","obs_status":"","decimal":0},{"indicator":{"id":"IS.AIR.PSGR","value":"Air transport, passengers carried"},"country":{"id":"US","value":"United States"},"countryiso3code":"USA","date":"2003","value":588997110,"unit":"","obs_status":"","decimal":0},{"indicator":{"id":"IS.AIR.PSGR","value":"Air transport, passengers carried"},"country":{"id":"US","value":"United States"},"countryiso3code":"USA","date":"2002","value":598410415,"unit":"","obs_status":"","decimal":0},{"indicator":{"id":"IS.AIR.PSGR","value":"Air transport, passengers carried"},"country":{"id":"US","value":"United States"},"countryiso3code":"USA","date":"2001","value":622187846,"unit":"","obs_status":"","decimal":0},{"indicator":{"id":"IS.AIR.PSGR","value":"Air transport, passengers carried"},"country":{"id":"US","value":"United States"},"countryiso3code":"USA","date":"2000","value":665327414,"unit":"","obs_status":"","decimal":0},{"indicator":{"id":"IS.AIR.PSGR","value":"Air transport, passengers carried"},"country":{"id":"US","value":"United States"},"countryiso3code":"USA","date":"1999","value":634364608,"unit":"","obs_status":"","decimal":0},{"indicator":{"id":"IS.AIR.PSGR","value":"Air transport, passengers carried"},"country":{"id":"US","value":"United States"},"countryiso3code":"USA","date":"1998","value":588170880,"unit":"","obs_status":"","decimal":0},{"indicator":{"id":"IS.AIR.PSGR","value":"Air transport, passengers carried"},"country":{"id":"US","value":"United States"},"countryiso3code":"USA","date":"1997","value":590571392,"unit":"","obs_status":"","decimal":0},{"indicator":{"id":"IS.AIR.PSGR","value":"Air transport, passengers carried"},"country":{"id":"US","value":"United States"},"countryiso3code":"USA","date":"1996","value":571072000,"unit":"","obs_status":"","decimal":0},{"indicator":{"id":"IS.AIR.PSGR","value":"Air transport, passengers carried"},"country":{"id":"US","value":"United States"},"countryiso3code":"USA","date":"1995","value":533512096,"unit":"","obs_status":"","decimal":0},{"indicator":{"id":"IS.AIR.PSGR","value":"Air transport, passengers carried"},"country":{"id":"US","value":"United States"},"countryiso3code":"USA","date":"1994","value":514924000,"unit":"","obs_status":"","decimal":0},{"indicator":{"id":"IS.AIR.PSGR","value":"Air transport, passengers carried"},"country":{"id":"US","value":"United States"},"countryiso3code":"USA","date":"1993","value":469926112,"unit":"","obs_status":"","decimal":0},{"indicator":{"id":"IS.AIR.PSGR","value":"Air transport, passengers carried"},"country":{"id":"US","value":"United States"},"countryiso3code":"USA","date":"1992","value":466964992,"unit":"","obs_status":"","decimal":0},{"indicator":{"id":"IS.AIR.PSGR","value":"Air transport, passengers carried"},"country":{"id":"US","value":"United States"},"countryiso3code":"USA","date":"1991","value":452015904,"unit":"","obs_status":"","decimal":0},{"indicator":{"id":"IS.AIR.PSGR","value":"Air transport, passengers carried"},"country":{"id":"US","value":"United States"},"countryiso3code":"USA","date":"1990","value":464574016,"unit":"","obs_status":"","decimal":0},{"indicator":{"id":"IS.AIR.PSGR","value":"Air transport, passengers carried"},"country":{"id":"US","value":"United States"},"countryiso3code":"USA","date":"1989","value":453161504,"unit":"","obs_status":"","decimal":0},{"indicator":{"id":"IS.AIR.PSGR","value":"Air transport, passengers carried"},"country":{"id":"US","value":"United States"},"countryiso3code":"USA","date":"1988","value":454202912,"unit":"","obs_status":"","decimal":0},{"indicator":{"id":"IS.AIR.PSGR","value":"Air transport, passengers carried"},"country":{"id":"US","value":"United States"},"countryiso3code":"USA","date":"1987","value":441832704,"unit":"","obs_status":"","decimal":0},{"indicator":{"id":"IS.AIR.PSGR","value":"Air transport, passengers carried"},"country":{"id":"US","value":"United States"},"countryiso3code":"USA","date":"1986","value":414554496,"unit":"","obs_status":"","decimal":0},{"indicator":{"id":"IS.AIR.PSGR","value":"Air transport, passengers carried"},"country":{"id":"US","value":"United States"},"countryiso3code":"USA","date":"1985","value":372059104,"unit":"","obs_status":"","decimal":0},{"indicator":{"id":"IS.AIR.PSGR","value":"Air transport, passengers carried"},"country":{"id":"US","value":"United States"},"countryiso3code":"USA","date":"1984","value":340191488,"unit":"","obs_status":"","decimal":0},{"indicator":{"id":"IS.AIR.PSGR","value":"Air transport, passengers carried"},"country":{"id":"US","value":"United States"},"countryiso3code":"USA","date":"1983","value":315600096,"unit":"","obs_status":"","decimal":0},{"indicator":{"id":"IS.AIR.PSGR","value":"Air transport, passengers carried"},"country":{"id":"US","value":"United States"},"countryiso3code":"USA","date":"1982","value":290992608,"unit":"","obs_status":"","decimal":0},{"indicator":{"id":"IS.AIR.PSGR","value":"Air transport, passengers carried"},"country":{"id":"US","value":"United States"},"countryiso3code":"USA","date":"1981","value":281086400,"unit":"","obs_status":"","decimal":0},{"indicator":{"id":"IS.AIR.PSGR","value":"Air transport, passengers carried"},"country":{"id":"US","value":"United States"},"countryiso3code":"USA","date":"1980","value":295329088,"unit":"","obs_status":"","decimal":0},{"indicator":{"id":"IS.AIR.PSGR","value":"Air transport, passengers carried"},"country":{"id":"US","value":"United States"},"countryiso3code":"USA","date":"1979","value":313624000,"unit":"","obs_status":"","decimal":0},{"indicator":{"id":"IS.AIR.PSGR","value":"Air transport, passengers carried"},"country":{"id":"US","value":"United States"},"countryiso3code":"USA","date":"1978","value":273025504,"unit":"","obs_status":"","decimal":0},{"indicator":{"id":"IS.AIR.PSGR","value":"Air transport, passengers carried"},"country":{"id":"US","value":"United States"},"countryiso3code":"USA","date":"1977","value":240144992,"unit":"","obs_status":"","decimal":0},{"indicator":{"id":"IS.AIR.PSGR","value":"Air transport, passengers carried"},"country":{"id":"US","value":"United States"},"countryiso3code":"USA","date":"1976","value":223017296,"unit":"","obs_status":"","decimal":0},{"indicator":{"id":"IS.AIR.PSGR","value":"Air transport, passengers carried"},"country":{"id":"US","value":"United States"},"countryiso3code":"USA","date":"1975","value":204900400,"unit":"","obs_status":"","decimal":0},{"indicator":{"id":"IS.AIR.PSGR","value":"Air transport, passengers carried"},"country":{"id":"US","value":"United States"},"countryiso3code":"USA","date":"1974","value":207612400,"unit":"","obs_status":"","decimal":0}]]