[{"page":1,"pages":2,"per_page":50,"total":64,"sourceid":"2","lastupdated":"2024-05-30"},[{"indicator":{"id":"SI.POV.GINI","value":"Gini index"},"country":{"id":"US","value":"United States"},"countryiso3code":"USA","date":"2023","value":null,"unit":"","obs_status":"","decimal":1},{"indicator":{"id":"SI.POV.GINI","value":"Gini index"},"country":{"id":"US","value":"United States"},"countryiso3code":"USA","date":"2022","value":null,"unit":"","obs_status":"","decimal":1},{"indicator":{"id":"SI.POV.GINI","value":"Gini index"},"country":{"id":"US","value":"United States"},"countryiso3code":"USA","date":"2021","value":39.8,"unit":"","obs_status":"","decimal":1},{"indicator":{"id":"SI.POV.GINI","value":"Gini index"},"country":{"id":"US","value":"United States"},"countryiso3code":"USA","date":"2020","value":39.7,"unit":"","obs_status":"","decimal":1},{"indicator":{"id":"SI.POV.GINI","value":"Gini index"},"country":{"id":"US","value":"United States"},"countryiso3code":"USA","date":"2019","value":41.5,"unit":"","obs_status":"","decimal":1},{"indicator":{"id":"SI.POV.GINI","value":"Gini index"},"country":{"id":"US","value":"United States"},"countryiso3code":"USA","date":"2018","value":41.4,"unit":"","obs_status":"","decimal":1},{"indicator":{"id":"SI.POV.GINI","value":"Gini index"},"country":{"id":"US","value":"United States"},"countryiso3code":"USA","date":"2017","value":41.2,"unit":"","obs_status":"","decimal":1},{"indicator":{"id":"SI.POV.GINI","value":"Gini index"},"country":{"id":"US","value":"United States"},"countryiso3code":"USA","date":"2016","value":41.1,"unit":"","obs_status":"","decimal":1},{"indicator":{"id":"SI.POV.GINI","value":"Gini index"},"country":{"id":"US","value":"United States"},"countryiso3code":"USA","date":"2015","value":41.2,"unit":"","obs_status":"","decimal":1},{"indicator":{"id":"SI.POV.GINI","value":"Gini index"},"country":{"id":"US","value":"United States"},"countryiso3code":"USA","date":"2014","value":41.5,"unit":"","obs_status":"","decimal":1},{"indicator":{"id":"SI.POV.GINI","value":"Gini index"},"country":{"id":"US","value":"United States"},"countryiso3code":"USA","date":"2013","value":40.7,"unit":"","obs_status":"","decimal":1},{"indicator":{"id":"SI.POV.GINI","value":"Gini index"},"country":{"id":"US","value":"United States"},"countryiso3code":"USA","date":"2012","value":40.9,"unit":"","obs_status":"","decimal":1},{"indicator":{"id":"SI.POV.GINI","value":"Gini index"},"country":{"id":"US","value":"United States"},"countryiso3code":"USA","date":"2011","value":40.9,"unit":"","obs_status":"","decimal":1},{"indicator":{"id":"SI.POV.GINI","value":"Gini index"},"country":{"id":"US","value":"United States"},"countryiso3code":"USA","date":"2010","value":40,"unit":"","obs_status":"","decimal":1},{"indicator":{"id":"SI.POV.GINI","value":"Gini index"},"country":{"id":"US","value":"United States"},"countryiso3code":"USA","date":"2009","value":40.6,"unit":"","obs_status":"","decimal":1},{"indicator":{"id":"SI.POV.GINI","value":"Gini index"},"country":{"id":"US","value":"United States"},"countryiso3code":"USA","date":"2008","value":40.8,"unit":"","obs_status":"","decimal":1},{"indicator":{"id":"SI.POV.GINI","value":"Gini index"},"country":{"id":"US","value":"United States"},"countryiso3code":"USA","date":"2007","value":40.8,"unit":"","obs_status":"","decimal":1},{"indicator":{"id":"SI.POV.GINI","value":"Gini index"},"country":{"id":"US","value":"United States"},"countryiso3code":"USA","date":"2006","value":41.4,"unit":"","obs_status":"","decimal":1},{"indicator":{"id":"SI.POV.GINI","value":"Gini index"},"country":{"id":"US","value":"United States"},"countryiso3code":"USA","date":"2005","value":41,"unit":"","obs_status":"","decimal":1},{"indicator":{"id":"SI.POV.GINI","value":"Gini index"},"country":{"id":"US","value":"United States"},"countryiso3code":"USA","date":"2004","value":40.3,"unit":"","obs_status":"","decimal":1},{"indicator":{"id":"SI.POV.GINI","value":"Gini index"},"country":{"id":"US","value":"United States"},"countryiso3code":"USA","date":"2003","value":40.8,"unit":"","obs_status":"","decimal":1},{"indicator":{"id":"SI.POV.GINI","value":"Gini index"},"country":{"id":"US","value":"United States"},"countryiso3code":"USA","date":"2002","value":40.4,"unit":"","obs_status":"","decimal":1},{"indicator":{"id":"SI.POV.GINI","value":"Gini index"},"country":{"id":"US","value":"United States"},"countryiso3code":"USA","date":"2001","value":40.6,"unit":"","obs_status":"","decimal":1},{"indicator":{"id":"SI.POV.GINI","value":"Gini index"},"country":{"id":"US","value":"United States"},"countryiso3code":"USA","date":"2000","value":40.1,"unit":"","obs_status":"","decimal":1},{"indicator":{"id":"SI.POV.GINI","value":"Gini index"},"country":{"id":"US","value":"United States"},"countryiso3code":"USA","date":"1999","value":40,"unit":"","obs_status":"","decimal":1},{"indicator":{"id":"SI.POV.GINI","value":"Gini index"},"country":{"id":"US","value":"United States"},"countryiso3code":"USA","date":"1998","value":40,"unit":"","obs_status":"","decimal":1},{"indicator":{"id":"SI.POV.GINI","value":"Gini index"},"country":{"id":"US","value":"United States"},"countryiso3code":"USA","date":"1997","value":40.5,"unit":"","obs_status":"","decimal":1},{"indicator":{"id":"SI.POV.GINI","value":"Gini index"},"country":{"id":"US","value":"United States"},"countryiso3code":"USA","date":"1996","value":40.3,"unit":"","obs_status":"","decimal":1},{"indicator":{"id":"SI.POV.GINI","value":"Gini index"},"country":{"id":"US","value":"United States"},"countryiso3code":"USA","date":"1995","value":39.9,"unit":"","obs_status":"","decimal":1},{"indicator":{"id":"SI.POV.GINI","value":"Gini index"},"country":{"id":"US","value":"United States"},"countryiso3code":"USA","date":"1994","value":40,"unit":"","obs_status":"","decimal":1},{"indicator":{"id":"SI.POV.GINI","value":"Gini index"},"country":{"id":"US","value":"United States"},"countryiso3code":"USA","date":"1993","value":40.4,"unit":"","obs_status":"","decimal":1},{"indicator":{"id":"SI.POV.GINI","value":"Gini index"},"country":{"id":"US","value":"United States"},"countryiso3code":"USA","date":"1992","value":38.4,"unit":"","obs_status":"","decimal":1},{"indicator":{"id":"SI.POV.GINI","value":"Gini index"},"country":{"id":"US","value":"United States"},"countryiso3code":"USA","date":"1991","value":38,"unit":"","obs_status":"","decimal":1},{"indicator":{"id":"SI.POV.GINI","value":"Gini index"},"country":{"id":"US","value":"United States"},"countryiso3code":"USA","date":"1990","value":38.3,"unit":"","obs_status":"","decimal":1},{"indicator":{"id":"SI.POV.GINI","value":"Gini index"},"country":{"id":"US","value":"United States"},"countryiso3code":"USA","date":"1989","value":38.2,"unit":"","obs_status":"","decimal":1},{"indicator":{"id":"SI.POV.GINI","value":"Gini index"},"country":{"id":"US","value":"United States"},"countryiso3code":"USA","date":"1988","value":37.7,"unit":"","obs_status":"","decimal":1},{"indicator":{"id":"SI.POV.GINI","value":"Gini index"},"country":{"id":"US","value":"United States"},"countryiso3code":"USA","date":"1987","value":37.2,"unit":"","obs_status":"","decimal":1},{"indicator":{"id":"SI.POV.GINI","value":"Gini index"},"country":{"id":"US","value":"United States"},"countryiso3code":"USA","date":"1986","value":37.6,"unit":"","obs_status":"","decimal":1},{"indicator":{"id":"SI.POV.GINI","value":"Gini index"},"country":{"id":"US","value":"United States"},"countryiso3code":"USA","date":"1985","value":37.6,"unit":"","obs_status":"","decimal":1},{"indicator":{"id":"SI.POV.GINI","value":"Gini index"},"country":{"id":"US","value":"United States"},"countryiso3code":"USA","date":"1984","value":37.3,"unit":"","obs_status":"","decimal":1},{"indicator":{"id":"SI.POV.GINI","value":"Gini index"},"country":{"id":"US","value":"United States"},"countryiso3code":"USA","date":"1983","value":37.3,"unit":"","obs_status":"","decimal":1},{"indicator":{"id":"SI.POV.GINI","value":"Gini index"},"country":{"id":"US","value":"United States"},"countryiso3code":"USA","date":"1982","value":36.7,"unit":"","obs_status":"","decimal":1},{"indicator":{"id":"SI.POV.GINI","value":"Gini index"},"country":{"id":"US","value":"United States"},"countryiso3code":"USA","date":"1981","value":35.5,"unit":"","obs_status":"","decimal":1},{"indicator":{"id":"SI.POV.GINI","value":"Gini index"},"country":{"id":"US","value":"United States"},"countryiso3code":"USA","date":"1980","value":34.7,"unit":"","obs_status":"","decimal":1},{"indicator":{"id":"SI.POV.GINI","value":"Gini index"},"country":{"id":"US","value":"United States"},"countryiso3code":"USA","date":"1979","value":34.8,"unit":"","obs_status":"","decimal":1},{"indicator":{"id":"SI.POV.GINI","value":"Gini index"},"country":{"id":"US","value":"United States"},"countryiso3code":"USA","date":"1978","value":34.8,"unit":"","obs_status":"","decimal":1},{"indicator":{"id":"SI.POV.GINI","value":"Gini index"},"country":{"id":"US","value":"United States"},"countryiso3code":"USA","date":"1977","value":35.5,"unit":"","obs_status":"","decimal":1},{"indicator":{"id":"SI.POV.GINI","value":"Gini index"},"country":{"id":"US","value":"United States"},"countryiso3code":"USA","date":"1976","value":35.6,"unit":"","obs_status":"","decimal":1},{"indicator":{"id":"SI.POV.GINI","value":"Gini index"},"country":{"id":"US","value":"United States"},"countryiso3code":"USA","date":"1975","value":35.7,"unit":"","obs_status":"","decimal":1},{"indicator":{"id":"SI.POV.GINI","value":"Gini index"},"country":{"id":"US","value":"United States"},"countryiso3code":"USA","date":"1974","value":35.5,"unit":"","obs_status":"","decimal":1}]]