[{"page":1,"pages":2,"per_page":50,"total":64,"sourceid":"2","lastupdated":"2024-05-30"},[{"indicator":{"id":"SH.XPD.CHEX.GD.ZS","value":"Current health expenditure (% of GDP)"},"country":{"id":"US","value":"United States"},"countryiso3code":"USA","date":"2023","value":null,"unit":"","obs_status":"","decimal":2},{"indicator":{"id":"SH.XPD.CHEX.GD.ZS","value":"Current health expenditure (% of GDP)"},"country":{"id":"US","value":"United States"},"countryiso3code":"USA","date":"2022","value":16.57115173,"unit":"","obs_status":"","decimal":2},{"indicator":{"id":"SH.XPD.CHEX.GD.ZS","value":"Current health expenditure (% of GDP)"},"country":{"id":"US","value":"United States"},"countryiso3code":"USA","date":"2021","value":17.3625679,"unit":"","obs_status":"","decimal":2},{"indicator":{"id":"SH.XPD.CHEX.GD.ZS","value":"Current health expenditure (% of GDP)"},"country":{"id":"US","value":"United States"},"countryiso3code":"USA","date":"2020","value":18.75621986,"unit":"","obs_status":"","decimal":2},{"indicator":{"id":"SH.XPD.CHEX.GD.ZS","value":"Current health expenditure (% of GDP)"},"country":{"id":"US","value":"United States"},"countryiso3code":"USA","date":"2019","value":16.66580582,"unit":"","obs_status":"","decimal":2},{"indicator":{"id":"SH.XPD.CHEX.GD.ZS","value":"Current health expenditure (% of GDP)"},"country":{"id":"US","value":"United States"},"countryiso3code":"USA","date":"2018","value":16.62964439,"unit":"","obs_status":"","decimal":2},{"indicator":{"id":"SH.XPD.CHEX.GD.ZS","value":"Current health expenditure (% of GDP)"},"country":{"id":"US","value":"United States"},"countryiso3code":"USA","date":"2017","value":16.76750183,"unit":"","obs_status":"","decimal":2},{"indicator":{"id":"SH.XPD.CHEX.GD.ZS","value":"Current health expenditure (% of GDP)"},"country":{"id":"US","value":"United States"},"countryiso3code":"USA","date":"2016","value":16.80215836,"unit":"","obs_status":"","decimal":2},{"indicator":{"id":"SH.XPD.CHEX.GD.ZS","value":"Current health expenditure (% of GDP)"},"country":{"id":"US","value":"United States"},"countryiso3code":"USA","date":"2015","value":16.49056816,"unit":"","obs_status":"","decimal":2},{"indicator":{"id":"SH.XPD.CHEX.GD.ZS","value":"Current health expenditure (% of GDP)"},"country":{"id":"US","value":"United States"},"countryiso3code":"USA","date":"2014","value":16.19919777,"unit":"","obs_status":"","decimal":2},{"indicator":{"id":"SH.XPD.CHEX.GD.ZS","value":"Current health expenditure (% of GDP)"},"country":{"id":"US","value":"United States"},"countryiso3code":"USA","date":"2013","value":15.99170876,"unit":"","obs_status":"","decimal":2},{"indicator":{"id":"SH.XPD.CHEX.GD.ZS","value":"Current health expenditure (% of GDP)"},"country":{"id":"US","value":"United States"},"countryiso3code":"USA","date":"2012","value":16.11969566,"unit":"","obs_status":"","decimal":2},{"indicator":{"id":"SH.XPD.CHEX.GD.ZS","value":"Current health expenditure (% of GDP)"},"country":{"id":"US","value":"United States"},"countryiso3code":"USA","date":"2011","value":16.13996315,"unit":"","obs_status":"","decimal":2},{"indicator":{"id":"SH.XPD.CHEX.GD.ZS","value":"Current health expenditure (% of GDP)"},"country":{"id":"US","value":"United States"},"countryiso3code":"USA","date":"2010","value":16.19719124,"unit":"","obs_status":"","decimal":2},{"indicator":{"id":"SH.XPD.CHEX.GD.ZS","value":"Current health expenditure (% of GDP)"},"country":{"id":"US","value":"United States"},"countryiso3code":"USA","date":"2009","value":16.20063591,"unit":"","obs_status":"","decimal":2},{"indicator":{"id":"SH.XPD.CHEX.GD.ZS","value":"Current health expenditure (% of GDP)"},"country":{"id":"US","value":"United States"},"countryiso3code":"USA","date":"2008","value":15.20718479,"unit":"","obs_status":"","decimal":2},{"indicator":{"id":"SH.XPD.CHEX.GD.ZS","value":"Current health expenditure (% of GDP)"},"country":{"id":"US","value":"United States"},"countryiso3code":"USA","date":"2007","value":14.91824913,"unit":"","obs_status":"","decimal":2},{"indicator":{"id":"SH.XPD.CHEX.GD.ZS","value":"Current health expenditure (% of GDP)"},"country":{"id":"US","value":"United States"},"countryiso3code":"USA","date":"2006","value":14.70870876,"unit":"","obs_status":"","decimal":2},{"indicator":{"id":"SH.XPD.CHEX.GD.ZS","value":"Current health expenditure (% of GDP)"},"country":{"id":"US","value":"United States"},"countryiso3code":"USA","date":"2005","value":14.57938957,"unit":"","obs_status":"","decimal":2},{"indicator":{"id":"SH.XPD.CHEX.GD.ZS","value":"Current health expenditure (% of GDP)"},"country":{"id":"US","value":"United States"},"countryiso3code":"USA","date":"2004","value":14.55115986,"unit":"","obs_status":"","decimal":2},{"indicator":{"id":"SH.XPD.CHEX.GD.ZS","value":"Current health expenditure (% of GDP)"},"country":{"id":"US","value":"United States"},"countryiso3code":"USA","date":"2003","value":14.50551128,"unit":"","obs_status":"","decimal":2},{"indicator":{"id":"SH.XPD.CHEX.GD.ZS","value":"Current health expenditure (% of GDP)"},"country":{"id":"US","value":"United States"},"countryiso3code":"USA","date":"2002","value":13.9952774,"unit":"","obs_status":"","decimal":2},{"indicator":{"id":"SH.XPD.CHEX.GD.ZS","value":"Current health expenditure (% of GDP)"},"country":{"id":"US","value":"United States"},"countryiso3code":"USA","date":"2001","value":13.16811562,"unit":"","obs_status":"","decimal":2},{"indicator":{"id":"SH.XPD.CHEX.GD.ZS","value":"Current health expenditure (% of GDP)"},"country":{"id":"US","value":"United States"},"countryiso3code":"USA","date":"2000","value":12.49002552,"unit":"","obs_status":"","decimal":2},{"indicator":{"id":"SH.XPD.CHEX.GD.ZS","value":"Current health expenditure (% of GDP)"},"country":{"id":"US","value":"United States"},"countryiso3code":"USA","date":"1999","value":null,"unit":"","obs_status":"","decimal":2},{"indicator":{"id":"SH.XPD.CHEX.GD.ZS","value":"Current health expenditure (% of GDP)"},"country":{"id":"US","value":"United States"},"countryiso3code":"USA","date":"1998","value":null,"unit":"","obs_status":"","decimal":2},{"indicator":{"id":"SH.XPD.CHEX.GD.ZS","value":"Current health expenditure (% of GDP)"},"country":{"id":"US","value":"United States"},"countryiso3code":"USA","date":"1997","value":null,"unit":"","obs_status":"","decimal":2},{"indicator":{"id":"SH.XPD.CHEX.GD.ZS","value":"Current health expenditure (% of GDP)"},"country":{"id":"US","value":"United States"},"countryiso3code":"USA","date":"1996","value":null,"unit":"","obs_status":"","decimal":2},{"indicator":{"id":"SH.XPD.CHEX.GD.ZS","value":"Current health expenditure (% of GDP)"},"country":{"id":"US","value":"United States"},"countryiso3code":"USA","date":"1995","value":null,"unit":"","obs_status":"","decimal":2},{"indicator":{"id":"SH.XPD.CHEX.GD.ZS","value":"Current health expenditure (% of GDP)"},"country":{"id":"US","value":"United States"},"countryiso3code":"USA","date":"1994","value":null,"unit":"","obs_status":"","decimal":2},{"indicator":{"id":"SH.XPD.CHEX.GD.ZS","value":"Current health expenditure (% of GDP)"},"country":{"id":"US","value":"United States"},"countryiso3code":"USA","date":"1993","value":null,"unit":"","obs_status":"","decimal":2},{"indicator":{"id":"SH.XPD.CHEX.GD.ZS","value":"Current health expenditure (% of GDP)"},"country":{"id":"US","value":"United States"},"countryiso3code":"USA","date":"1992","value":null,"unit":"","obs_status":"","decimal":2},{"indicator":{"id":"SH.XPD.CHEX.GD.ZS","value":"Current health expenditure (% of GDP)"},"country":{"id":"US","value":"United States"},"countryiso3code":"USA","date":"1991","value":null,"unit":"","obs_status":"","decimal":2},{"indicator":{"id":"SH.XPD.CHEX.GD.ZS","value":"Current health expenditure (% of GDP)"},"country":{"id":"US","value":"United States"},"countryiso3code":"USA","date":"1990","value":null,"unit":"","obs_status":"","decimal":2},{"indicator":{"id":"SH.XPD.CHEX.GD.ZS","value":"Current health expenditure (% of GDP)"},"country":{"id":"US","value":"United States"},"countryiso3code":"USA","date":"1989","value":null,"unit":"","obs_status":"","decimal":2},{"indicator":{"id":"SH.XPD.CHEX.GD.ZS","value":"Current health expenditure (% of GDP)"},"country":{"id":"US","value":"United States"},"countryiso3code":"USA","date":"1988","value":null,"unit":"","obs_status":"","decimal":2},{"indicator":{"id":"SH.XPD.CHEX.GD.ZS","value":"Current health expenditure (% of GDP)"},"country":{"id":"US","value":"United States"},"countryiso3code":"USA","date":"1987","value":null,"unit":"","obs_status":"","decimal":2},{"indicator":{"id":"SH.XPD.CHEX.GD.ZS","value":"Current health expenditure (% of GDP)"},"country":{"id":"US","value":"United States"},"countryiso3code":"USA","date":"1986","value":null,"unit":"","obs_status":"","decimal":2},{"indicator":{"id":"SH.XPD.CHEX.GD.ZS","value":"Current health expenditure (% of GDP)"},"country":{"id":"US","value":"United States"},"countryiso3code":"USA","date":"1985","value":null,"unit":"","obs_status":"","decimal":2},{"indicator":{"id":"SH.XPD.CHEX.GD.ZS","value":"Current health expenditure (% of GDP)"},"country":{"id":"US","value":"United States"},"countryiso3code":"USA","date":"1984","value":null,"unit":"","obs_status":"","decimal":2},{"indicator":{"id":"SH.XPD.CHEX.GD.ZS","value":"Current health expenditure (% of GDP)"},"country":{"id":"US","value":"United States"},"countryiso3code":"USA","date":"1983","value":null,"unit":"","obs_status":"","decimal":2},{"indicator":{"id":"SH.XPD.CHEX.GD.ZS","value":"Current health expenditure (% of GDP)"},"country":{"id":"US","value":"United States"},"countryiso3code":"USA","date":"1982","value":null,"unit":"","obs_status":"","decimal":2},{"indicator":{"id":"SH.XPD.CHEX.GD.ZS","value":"Current health expenditure (% of GDP)"},"country":{"id":"US","value":"United States"},"countryiso3code":"USA","date":"1981","value":null,"unit":"","obs_status":"","decimal":2},{"indicator":{"id":"SH.XPD.CHEX.GD.ZS","value":"Current health expenditure (% of GDP)"},"country":{"id":"US","value":"United States"},"countryiso3code":"USA","date":"1980","value":null,"unit":"","obs_status":"","decimal":2},{"indicator":{"id":"SH.XPD.CHEX.GD.ZS","value":"Current health expenditure (% of GDP)"},"country":{"id":"US","value":"United States"},"countryiso3code":"USA","date":"1979","value":null,"unit":"","obs_status":"","decimal":2},{"indicator":{"id":"SH.XPD.CHEX.GD.ZS","value":"Current health expenditure (% of GDP)"},"country":{"id":"US","value":"United States"},"countryiso3code":"USA","date":"1978","value":null,"unit":"","obs_status":"","decimal":2},{"indicator":{"id":"SH.XPD.CHEX.GD.ZS","value":"Current health expenditure (% of GDP)"},"country":{"id":"US","value":"United States"},"countryiso3code":"USA","date":"1977","value":null,"unit":"","obs_status":"","decimal":2},{"indicator":{"id":"SH.XPD.CHEX.GD.ZS","value":"Current health expenditure (% of GDP)"},"country":{"id":"US","value":"United States"},"countryiso3code":"USA","date":"1976","value":null,"unit":"","obs_status":"","decimal":2},{"indicator":{"id":"SH.XPD.CHEX.GD.ZS","value":"Current health expenditure (% of GDP)"},"country":{"id":"US","value":"United States"},"countryiso3code":"USA","date":"1975","value":null,"unit":"","obs_status":"","decimal":2},{"indicator":{"id":"SH.XPD.CHEX.GD.ZS","value":"Current health expenditure (% of GDP)"},"country":{"id":"US","value":"United States"},"countryiso3code":"USA","date":"1974","value":null,"unit":"","obs_status":"","decimal":2}]]