[{"page":1,"pages":2,"per_page":50,"total":64,"sourceid":"2","lastupdated":"2024-05-30"},[{"indicator":{"id":"IT.NET.USER.ZS","value":"Individuals using the Internet (% of population)"},"country":{"id":"US","value":"United States"},"countryiso3code":"USA","date":"2023","value":null,"unit":"","obs_status":"","decimal":0},{"indicator":{"id":"IT.NET.USER.ZS","value":"Individuals using the Internet (% of population)"},"country":{"id":"US","value":"United States"},"countryiso3code":"USA","date":"2022","value":null,"unit":"","obs_status":"","decimal":0},{"indicator":{"id":"IT.NET.USER.ZS","value":"Individuals using the Internet (% of population)"},"country":{"id":"US","value":"United States"},"countryiso3code":"USA","date":"2021","value":91.75320833,"unit":"","obs_status":"","decimal":0},{"indicator":{"id":"IT.NET.USER.ZS","value":"Individuals using the Internet (% of population)"},"country":{"id":"US","value":"United States"},"countryiso3code":"USA","date":"2020","value":90.62047017,"unit":"","obs_status":"","decimal":0},{"indicator":{"id":"IT.NET.USER.ZS","value":"Individuals using the Internet (% of population)"},"country":{"id":"US","value":"United States"},"countryiso3code":"USA","date":"2019","value":89.43028486,"unit":"","obs_status":"","decimal":0},{"indicator":{"id":"IT.NET.USER.ZS","value":"Individuals using the Internet (% of population)"},"country":{"id":"US","value":"United States"},"countryiso3code":"USA","date":"2018","value":88.49890317,"unit":"","obs_status":"","decimal":0},{"indicator":{"id":"IT.NET.USER.ZS","value":"Individuals using the Internet (% of population)"},"country":{"id":"US","value":"United States"},"countryiso3code":"USA","date":"2017","value":87.27488917,"unit":"","obs_status":"","decimal":0},{"indicator":{"id":"IT.NET.USER.ZS","value":"Individuals using the Internet (% of population)"},"country":{"id":"US","value":"United States"},"countryiso3code":"USA","date":"2016","value":85.54442129,"unit":"","obs_status":"","decimal":0},{"indicator":{"id":"IT.NET.USER.ZS","value":"Individuals using the Internet (% of population)"},"country":{"id":"US","value":"United States"},"countryiso3code":"USA","date":"2015","value":74.55420245,"unit":"","obs_status":"","decimal":0},{"indicator":{"id":"IT.NET.USER.ZS","value":"Individuals using the Internet (% of population)"},"country":{"id":"US","value":"United States"},"countryiso3code":"USA","date":"2014","value":73,"unit":"","obs_status":"","decimal":0},{"indicator":{"id":"IT.NET.USER.ZS","value":"Individuals using the Internet (% of population)"},"country":{"id":"US","value":"United States"},"countryiso3code":"USA","date":"2013","value":71.4,"unit":"","obs_status":"","decimal":0},{"indicator":{"id":"IT.NET.USER.ZS","value":"Individuals using the Internet (% of population)"},"country":{"id":"US","value":"United States"},"countryiso3code":"USA","date":"2012","value":74.7,"unit":"","obs_status":"","decimal":0},{"indicator":{"id":"IT.NET.USER.ZS","value":"Individuals using the Internet (% of population)"},"country":{"id":"US","value":"United States"},"countryiso3code":"USA","date":"2011","value":69.72946076,"unit":"","obs_status":"","decimal":0},{"indicator":{"id":"IT.NET.USER.ZS","value":"Individuals using the Internet (% of population)"},"country":{"id":"US","value":"United States"},"countryiso3code":"USA","date":"2010","value":71.69,"unit":"","obs_status":"","decimal":0},{"indicator":{"id":"IT.NET.USER.ZS","value":"Individuals using the Internet (% of population)"},"country":{"id":"US","value":"United States"},"countryiso3code":"USA","date":"2009","value":71,"unit":"","obs_status":"","decimal":0},{"indicator":{"id":"IT.NET.USER.ZS","value":"Individuals using the Internet (% of population)"},"country":{"id":"US","value":"United States"},"countryiso3code":"USA","date":"2008","value":74,"unit":"","obs_status":"","decimal":0},{"indicator":{"id":"IT.NET.USER.ZS","value":"Individuals using the Internet (% of population)"},"country":{"id":"US","value":"United States"},"countryiso3code":"USA","date":"2007","value":75,"unit":"","obs_status":"","decimal":0},{"indicator":{"id":"IT.NET.USER.ZS","value":"Individuals using the Internet (% of population)"},"country":{"id":"US","value":"United States"},"countryiso3code":"USA","date":"2006","value":68.93119327,"unit":"","obs_status":"","decimal":0},{"indicator":{"id":"IT.NET.USER.ZS","value":"Individuals using the Internet (% of population)"},"country":{"id":"US","value":"United States"},"countryiso3code":"USA","date":"2005","value":67.96805292,"unit":"","obs_status":"","decimal":0},{"indicator":{"id":"IT.NET.USER.ZS","value":"Individuals using the Internet (% of population)"},"country":{"id":"US","value":"United States"},"countryiso3code":"USA","date":"2004","value":64.75825648,"unit":"","obs_status":"","decimal":0},{"indicator":{"id":"IT.NET.USER.ZS","value":"Individuals using the Internet (% of population)"},"country":{"id":"US","value":"United States"},"countryiso3code":"USA","date":"2003","value":61.69711712,"unit":"","obs_status":"","decimal":0},{"indicator":{"id":"IT.NET.USER.ZS","value":"Individuals using the Internet (% of population)"},"country":{"id":"US","value":"United States"},"countryiso3code":"USA","date":"2002","value":58.78540388,"unit":"","obs_status":"","decimal":0},{"indicator":{"id":"IT.NET.USER.ZS","value":"Individuals using the Internet (% of population)"},"country":{"id":"US","value":"United States"},"countryiso3code":"USA","date":"2001","value":49.08083159,"unit":"","obs_status":"","decimal":0},{"indicator":{"id":"IT.NET.USER.ZS","value":"Individuals using the Internet (% of population)"},"country":{"id":"US","value":"United States"},"countryiso3code":"USA","date":"2000","value":43.07916264,"unit":"","obs_status":"","decimal":0},{"indicator":{"id":"IT.NET.USER.ZS","value":"Individuals using the Internet (% of population)"},"country":{"id":"US","value":"United States"},"countryiso3code":"USA","date":"1999","value":35.84872446,"unit":"","obs_status":"","decimal":0},{"indicator":{"id":"IT.NET.USER.ZS","value":"Individuals using the Internet (% of population)"},"country":{"id":"US","value":"United States"},"countryiso3code":"USA","date":"1998","value":30.09319659,"unit":"","obs_status":"","decimal":0},{"indicator":{"id":"IT.NET.USER.ZS","value":"Individuals using the Internet (% of population)"},"country":{"id":"US","value":"United States"},"countryiso3code":"USA","date":"1997","value":21.61640097,"unit":"","obs_status":"","decimal":0},{"indicator":{"id":"IT.NET.USER.ZS","value":"Individuals using the Internet (% of population)"},"country":{"id":"US","value":"United States"},"countryiso3code":"USA","date":"1996","value":16.41935296,"unit":"","obs_status":"","decimal":0},{"indicator":{"id":"IT.NET.USER.ZS","value":"Individuals using the Internet (% of population)"},"country":{"id":"US","value":"United States"},"countryiso3code":"USA","date":"1995","value":9.237088297,"unit":"","obs_status":"","decimal":0},{"indicator":{"id":"IT.NET.USER.ZS","value":"Individuals using the Internet (% of population)"},"country":{"id":"US","value":"United States"},"countryiso3code":"USA","date":"1994","value":4.862780635,"unit":"","obs_status":"","decimal":0},{"indicator":{"id":"IT.NET.USER.ZS","value":"Individuals using the Internet (% of population)"},"country":{"id":"US","value":"United States"},"countryiso3code":"USA","date":"1993","value":2.271673294,"unit":"","obs_status":"","decimal":0},{"indicator":{"id":"IT.NET.USER.ZS","value":"Individuals using the Internet (% of population)"},"country":{"id":"US","value":"United States"},"countryiso3code":"USA","date":"1992","value":1.724202539,"unit":"","obs_status":"","decimal":0},{"indicator":{"id":"IT.NET.USER.ZS","value":"Individuals using the Internet (% of population)"},"country":{"id":"US","value":"United States"},"countryiso3code":"USA","date":"1991","value":1.163193726,"unit":"","obs_status":"","decimal":0},{"indicator":{"id":"IT.NET.USER.ZS","value":"Individuals using the Internet (% of population)"},"country":{"id":"US","value":"United States"},"countryiso3code":"USA","date":"1990","value":0.784728502,"unit":"","obs_status":"","decimal":0},{"indicator":{"id":"IT.NET.USER.ZS","value":"Individuals using the Internet (% of population)"},"country":{"id":"US","value":"United States"},"countryiso3code":"USA","date":"1989","value":null,"unit":"","obs_status":"","decimal":0},{"indicator":{"id":"IT.NET.USER.ZS","value":"Individuals using the Internet (% of population)"},"country":{"id":"US","value":"United States"},"countryiso3code":"USA","date":"1988","value":null,"unit":"","obs_status":"","decimal":0},{"indicator":{"id":"IT.NET.USER.ZS","value":"Individuals using the Internet (% of population)"},"country":{"id":"US","value":"United States"},"countryiso3code":"USA","date":"1987","value":null,"unit":"","obs_status":"","decimal":0},{"indicator":{"id":"IT.NET.USER.ZS","value":"Individuals using the Internet (% of population)"},"country":{"id":"US","value":"United States"},"countryiso3code":"USA","date":"1986","value":null,"unit":"","obs_status":"","decimal":0},{"indicator":{"id":"IT.NET.USER.ZS","value":"Individuals using the Internet (% of population)"},"country":{"id":"US","value":"United States"},"countryiso3code":"USA","date":"1985","value":null,"unit":"","obs_status":"","decimal":0},{"indicator":{"id":"IT.NET.USER.ZS","value":"Individuals using the Internet (% of population)"},"country":{"id":"US","value":"United States"},"countryiso3code":"USA","date":"1984","value":null,"unit":"","obs_status":"","decimal":0},{"indicator":{"id":"IT.NET.USER.ZS","value":"Individuals using the Internet (% of population)"},"country":{"id":"US","value":"United States"},"countryiso3code":"USA","date":"1983","value":null,"unit":"","obs_status":"","decimal":0},{"indicator":{"id":"IT.NET.USER.ZS","value":"Individuals using the Internet (% of population)"},"country":{"id":"US","value":"United States"},"countryiso3code":"USA","date":"1982","value":null,"unit":"","obs_status":"","decimal":0},{"indicator":{"id":"IT.NET.USER.ZS","value":"Individuals using the Internet (% of population)"},"country":{"id":"US","value":"United States"},"countryiso3code":"USA","date":"1981","value":null,"unit":"","obs_status":"","decimal":0},{"indicator":{"id":"IT.NET.USER.ZS","value":"Individuals using the Internet (% of population)"},"country":{"id":"US","value":"United States"},"countryiso3code":"USA","date":"1980","value":null,"unit":"","obs_status":"","decimal":0},{"indicator":{"id":"IT.NET.USER.ZS","value":"Individuals using the Internet (% of population)"},"country":{"id":"US","value":"United States"},"countryiso3code":"USA","date":"1979","value":null,"unit":"","obs_status":"","decimal":0},{"indicator":{"id":"IT.NET.USER.ZS","value":"Individuals using the Internet (% of population)"},"country":{"id":"US","value":"United States"},"countryiso3code":"USA","date":"1978","value":null,"unit":"","obs_status":"","decimal":0},{"indicator":{"id":"IT.NET.USER.ZS","value":"Individuals using the Internet (% of population)"},"country":{"id":"US","value":"United States"},"countryiso3code":"USA","date":"1977","value":null,"unit":"","obs_status":"","decimal":0},{"indicator":{"id":"IT.NET.USER.ZS","value":"Individuals using the Internet (% of population)"},"country":{"id":"US","value":"United States"},"countryiso3code":"USA","date":"1976","value":null,"unit":"","obs_status":"","decimal":0},{"indicator":{"id":"IT.NET.USER.ZS","value":"Individuals using the Internet (% of population)"},"country":{"id":"US","value":"United States"},"countryiso3code":"USA","date":"1975","value":null,"unit":"","obs_status":"","decimal":0},{"indicator":{"id":"IT.NET.USER.ZS","value":"Individuals using the Internet (% of population)"},"country":{"id":"US","value":"United States"},"countryiso3code":"USA","date":"1974","value":null,"unit":"","obs_status":"","decimal":0}]]