[{"page":1,"pages":2,"per_page":50,"total":64,"sourceid":"2","lastupdated":"2024-05-30"},[{"indicator":{"id":"SL.TLF.CACT.ZS","value":"Labor force participation rate, total (% of total population ages 15+) (modeled ILO estimate)"},"country":{"id":"US","value":"United States"},"countryiso3code":"USA","date":"2023","value":61.856,"unit":"","obs_status":"","decimal":0},{"indicator":{"id":"SL.TLF.CACT.ZS","value":"Labor force participation rate, total (% of total population ages 15+) (modeled ILO estimate)"},"country":{"id":"US","value":"United States"},"countryiso3code":"USA","date":"2022","value":61.511,"unit":"","obs_status":"","decimal":0},{"indicator":{"id":"SL.TLF.CACT.ZS","value":"Labor force participation rate, total (% of total population ages 15+) (modeled ILO estimate)"},"country":{"id":"US","value":"United States"},"countryiso3code":"USA","date":"2021","value":61.221,"unit":"","obs_status":"","decimal":0},{"indicator":{"id":"SL.TLF.CACT.ZS","value":"Labor force participation rate, total (% of total population ages 15+) (modeled ILO estimate)"},"country":{"id":"US","value":"United States"},"countryiso3code":"USA","date":"2020","value":61.316,"unit":"","obs_status":"","decimal":0},{"indicator":{"id":"SL.TLF.CACT.ZS","value":"Labor force participation rate, total (% of total population ages 15+) (modeled ILO estimate)"},"country":{"id":"US","value":"United States"},"countryiso3code":"USA","date":"2019","value":62.628,"unit":"","obs_status":"","decimal":0},{"indicator":{"id":"SL.TLF.CACT.ZS","value":"Labor force participation rate, total (% of total population ages 15+) (modeled ILO estimate)"},"country":{"id":"US","value":"United States"},"countryiso3code":"USA","date":"2018","value":62.373,"unit":"","obs_status":"","decimal":0},{"indicator":{"id":"SL.TLF.CACT.ZS","value":"Labor force participation rate, total (% of total population ages 15+) (modeled ILO estimate)"},"country":{"id":"US","value":"United States"},"countryiso3code":"USA","date":"2017","value":62.307,"unit":"","obs_status":"","decimal":0},{"indicator":{"id":"SL.TLF.CACT.ZS","value":"Labor force participation rate, total (% of total population ages 15+) (modeled ILO estimate)"},"country":{"id":"US","value":"United States"},"countryiso3code":"USA","date":"2016","value":62.211,"unit":"","obs_status":"","decimal":0},{"indicator":{"id":"SL.TLF.CACT.ZS","value":"Labor force participation rate, total (% of total population ages 15+) (modeled ILO estimate)"},"country":{"id":"US","value":"United States"},"countryiso3code":"USA","date":"2015","value":62.062,"unit":"","obs_status":"","decimal":0},{"indicator":{"id":"SL.TLF.CACT.ZS","value":"Labor force participation rate, total (% of total population ages 15+) (modeled ILO estimate)"},"country":{"id":"US","value":"United States"},"countryiso3code":"USA","date":"2014","value":62.188,"unit":"","obs_status":"","decimal":0},{"indicator":{"id":"SL.TLF.CACT.ZS","value":"Labor force participation rate, total (% of total population ages 15+) (modeled ILO estimate)"},"country":{"id":"US","value":"United States"},"countryiso3code":"USA","date":"2013","value":62.447,"unit":"","obs_status":"","decimal":0},{"indicator":{"id":"SL.TLF.CACT.ZS","value":"Labor force participation rate, total (% of total population ages 15+) (modeled ILO estimate)"},"country":{"id":"US","value":"United States"},"countryiso3code":"USA","date":"2012","value":62.822,"unit":"","obs_status":"","decimal":0},{"indicator":{"id":"SL.TLF.CACT.ZS","value":"Labor force participation rate, total (% of total population ages 15+) (modeled ILO estimate)"},"country":{"id":"US","value":"United States"},"countryiso3code":"USA","date":"2011","value":62.961,"unit":"","obs_status":"","decimal":0},{"indicator":{"id":"SL.TLF.CACT.ZS","value":"Labor force participation rate, total (% of total population ages 15+) (modeled ILO estimate)"},"country":{"id":"US","value":"United States"},"countryiso3code":"USA","date":"2010","value":63.483,"unit":"","obs_status":"","decimal":0},{"indicator":{"id":"SL.TLF.CACT.ZS","value":"Labor force participation rate, total (% of total population ages 15+) (modeled ILO estimate)"},"country":{"id":"US","value":"United States"},"countryiso3code":"USA","date":"2009","value":64.132,"unit":"","obs_status":"","decimal":0},{"indicator":{"id":"SL.TLF.CACT.ZS","value":"Labor force participation rate, total (% of total population ages 15+) (modeled ILO estimate)"},"country":{"id":"US","value":"United States"},"countryiso3code":"USA","date":"2008","value":64.747,"unit":"","obs_status":"","decimal":0},{"indicator":{"id":"SL.TLF.CACT.ZS","value":"Labor force participation rate, total (% of total population ages 15+) (modeled ILO estimate)"},"country":{"id":"US","value":"United States"},"countryiso3code":"USA","date":"2007","value":64.743,"unit":"","obs_status":"","decimal":0},{"indicator":{"id":"SL.TLF.CACT.ZS","value":"Labor force participation rate, total (% of total population ages 15+) (modeled ILO estimate)"},"country":{"id":"US","value":"United States"},"countryiso3code":"USA","date":"2006","value":64.92,"unit":"","obs_status":"","decimal":0},{"indicator":{"id":"SL.TLF.CACT.ZS","value":"Labor force participation rate, total (% of total population ages 15+) (modeled ILO estimate)"},"country":{"id":"US","value":"United States"},"countryiso3code":"USA","date":"2005","value":64.808,"unit":"","obs_status":"","decimal":0},{"indicator":{"id":"SL.TLF.CACT.ZS","value":"Labor force participation rate, total (% of total population ages 15+) (modeled ILO estimate)"},"country":{"id":"US","value":"United States"},"countryiso3code":"USA","date":"2004","value":64.744,"unit":"","obs_status":"","decimal":0},{"indicator":{"id":"SL.TLF.CACT.ZS","value":"Labor force participation rate, total (% of total population ages 15+) (modeled ILO estimate)"},"country":{"id":"US","value":"United States"},"countryiso3code":"USA","date":"2003","value":64.957,"unit":"","obs_status":"","decimal":0},{"indicator":{"id":"SL.TLF.CACT.ZS","value":"Labor force participation rate, total (% of total population ages 15+) (modeled ILO estimate)"},"country":{"id":"US","value":"United States"},"countryiso3code":"USA","date":"2002","value":65.323,"unit":"","obs_status":"","decimal":0},{"indicator":{"id":"SL.TLF.CACT.ZS","value":"Labor force participation rate, total (% of total population ages 15+) (modeled ILO estimate)"},"country":{"id":"US","value":"United States"},"countryiso3code":"USA","date":"2001","value":65.623,"unit":"","obs_status":"","decimal":0},{"indicator":{"id":"SL.TLF.CACT.ZS","value":"Labor force participation rate, total (% of total population ages 15+) (modeled ILO estimate)"},"country":{"id":"US","value":"United States"},"countryiso3code":"USA","date":"2000","value":65.927,"unit":"","obs_status":"","decimal":0},{"indicator":{"id":"SL.TLF.CACT.ZS","value":"Labor force participation rate, total (% of total population ages 15+) (modeled ILO estimate)"},"country":{"id":"US","value":"United States"},"countryiso3code":"USA","date":"1999","value":65.809,"unit":"","obs_status":"","decimal":0},{"indicator":{"id":"SL.TLF.CACT.ZS","value":"Labor force participation rate, total (% of total population ages 15+) (modeled ILO estimate)"},"country":{"id":"US","value":"United States"},"countryiso3code":"USA","date":"1998","value":65.742,"unit":"","obs_status":"","decimal":0},{"indicator":{"id":"SL.TLF.CACT.ZS","value":"Labor force participation rate, total (% of total population ages 15+) (modeled ILO estimate)"},"country":{"id":"US","value":"United States"},"countryiso3code":"USA","date":"1997","value":65.804,"unit":"","obs_status":"","decimal":0},{"indicator":{"id":"SL.TLF.CACT.ZS","value":"Labor force participation rate, total (% of total population ages 15+) (modeled ILO estimate)"},"country":{"id":"US","value":"United States"},"countryiso3code":"USA","date":"1996","value":65.466,"unit":"","obs_status":"","decimal":0},{"indicator":{"id":"SL.TLF.CACT.ZS","value":"Labor force participation rate, total (% of total population ages 15+) (modeled ILO estimate)"},"country":{"id":"US","value":"United States"},"countryiso3code":"USA","date":"1995","value":65.303,"unit":"","obs_status":"","decimal":0},{"indicator":{"id":"SL.TLF.CACT.ZS","value":"Labor force participation rate, total (% of total population ages 15+) (modeled ILO estimate)"},"country":{"id":"US","value":"United States"},"countryiso3code":"USA","date":"1994","value":65.211,"unit":"","obs_status":"","decimal":0},{"indicator":{"id":"SL.TLF.CACT.ZS","value":"Labor force participation rate, total (% of total population ages 15+) (modeled ILO estimate)"},"country":{"id":"US","value":"United States"},"countryiso3code":"USA","date":"1993","value":64.889,"unit":"","obs_status":"","decimal":0},{"indicator":{"id":"SL.TLF.CACT.ZS","value":"Labor force participation rate, total (% of total population ages 15+) (modeled ILO estimate)"},"country":{"id":"US","value":"United States"},"countryiso3code":"USA","date":"1992","value":64.994,"unit":"","obs_status":"","decimal":0},{"indicator":{"id":"SL.TLF.CACT.ZS","value":"Labor force participation rate, total (% of total population ages 15+) (modeled ILO estimate)"},"country":{"id":"US","value":"United States"},"countryiso3code":"USA","date":"1991","value":64.746,"unit":"","obs_status":"","decimal":0},{"indicator":{"id":"SL.TLF.CACT.ZS","value":"Labor force participation rate, total (% of total population ages 15+) (modeled ILO estimate)"},"country":{"id":"US","value":"United States"},"countryiso3code":"USA","date":"1990","value":null,"unit":"","obs_status":"","decimal":0},{"indicator":{"id":"SL.TLF.CACT.ZS","value":"Labor force participation rate, total (% of total population ages 15+) (modeled ILO estimate)"},"country":{"id":"US","value":"United States"},"countryiso3code":"USA","date":"1989","value":null,"unit":"","obs_status":"","decimal":0},{"indicator":{"id":"SL.TLF.CACT.ZS","value":"Labor force participation rate, total (% of total population ages 15+) (modeled ILO estimate)"},"country":{"id":"US","value":"United States"},"countryiso3code":"USA","date":"1988","value":null,"unit":"","obs_status":"","decimal":0},{"indicator":{"id":"SL.TLF.CACT.ZS","value":"Labor force participation rate, total (% of total population ages 15+) (modeled ILO estimate)"},"country":{"id":"US","value":"United States"},"countryiso3code":"USA","date":"1987","value":null,"unit":"","obs_status":"","decimal":0},{"indicator":{"id":"SL.TLF.CACT.ZS","value":"Labor force participation rate, total (% of total population ages 15+) (modeled ILO estimate)"},"country":{"id":"US","value":"United States"},"countryiso3code":"USA","date":"1986","value":null,"unit":"","obs_status":"","decimal":0},{"indicator":{"id":"SL.TLF.CACT.ZS","value":"Labor force participation rate, total (% of total population ages 15+) (modeled ILO estimate)"},"country":{"id":"US","value":"United States"},"countryiso3code":"USA","date":"1985","value":null,"unit":"","obs_status":"","decimal":0},{"indicator":{"id":"SL.TLF.CACT.ZS","value":"Labor force participation rate, total (% of total population ages 15+) (modeled ILO estimate)"},"country":{"id":"US","value":"United States"},"countryiso3code":"USA","date":"1984","value":null,"unit":"","obs_status":"","decimal":0},{"indicator":{"id":"SL.TLF.CACT.ZS","value":"Labor force participation rate, total (% of total population ages 15+) (modeled ILO estimate)"},"country":{"id":"US","value":"United States"},"countryiso3code":"USA","date":"1983","value":null,"unit":"","obs_status":"","decimal":0},{"indicator":{"id":"SL.TLF.CACT.ZS","value":"Labor force participation rate, total (% of total population ages 15+) (modeled ILO estimate)"},"country":{"id":"US","value":"United States"},"countryiso3code":"USA","date":"1982","value":null,"unit":"","obs_status":"","decimal":0},{"indicator":{"id":"SL.TLF.CACT.ZS","value":"Labor force participation rate, total (% of total population ages 15+) (modeled ILO estimate)"},"country":{"id":"US","value":"United States"},"countryiso3code":"USA","date":"1981","value":null,"unit":"","obs_status":"","decimal":0},{"indicator":{"id":"SL.TLF.CACT.ZS","value":"Labor force participation rate, total (% of total population ages 15+) (modeled ILO estimate)"},"country":{"id":"US","value":"United States"},"countryiso3code":"USA","date":"1980","value":null,"unit":"","obs_status":"","decimal":0},{"indicator":{"id":"SL.TLF.CACT.ZS","value":"Labor force participation rate, total (% of total population ages 15+) (modeled ILO estimate)"},"country":{"id":"US","value":"United States"},"countryiso3code":"USA","date":"1979","value":null,"unit":"","obs_status":"","decimal":0},{"indicator":{"id":"SL.TLF.CACT.ZS","value":"Labor force participation rate, total (% of total population ages 15+) (modeled ILO estimate)"},"country":{"id":"US","value":"United States"},"countryiso3code":"USA","date":"1978","value":null,"unit":"","obs_status":"","decimal":0},{"indicator":{"id":"SL.TLF.CACT.ZS","value":"Labor force participation rate, total (% of total population ages 15+) (modeled ILO estimate)"},"country":{"id":"US","value":"United States"},"countryiso3code":"USA","date":"1977","value":null,"unit":"","obs_status":"","decimal":0},{"indicator":{"id":"SL.TLF.CACT.ZS","value":"Labor force participation rate, total (% of total population ages 15+) (modeled ILO estimate)"},"country":{"id":"US","value":"United States"},"countryiso3code":"USA","date":"1976","value":null,"unit":"","obs_status":"","decimal":0},{"indicator":{"id":"SL.TLF.CACT.ZS","value":"Labor force participation rate, total (% of total population ages 15+) (modeled ILO estimate)"},"country":{"id":"US","value":"United States"},"countryiso3code":"USA","date":"1975","value":null,"unit":"","obs_status":"","decimal":0},{"indicator":{"id":"SL.TLF.CACT.ZS","value":"Labor force participation rate, total (% of total population ages 15+) (modeled ILO estimate)"},"country":{"id":"US","value":"United States"},"countryiso3code":"USA","date":"1974","value":null,"unit":"","obs_status":"","decimal":0}]]