[{"page":1,"pages":2,"per_page":50,"total":64,"sourceid":"2","lastupdated":"2024-05-30"},[{"indicator":{"id":"IS.RRS.TOTL.KM","value":"Rail lines (total route-km)"},"country":{"id":"US","value":"United States"},"countryiso3code":"USA","date":"2023","value":null,"unit":"","obs_status":"","decimal":0},{"indicator":{"id":"IS.RRS.TOTL.KM","value":"Rail lines (total route-km)"},"country":{"id":"US","value":"United States"},"countryiso3code":"USA","date":"2022","value":null,"unit":"","obs_status":"","decimal":0},{"indicator":{"id":"IS.RRS.TOTL.KM","value":"Rail lines (total route-km)"},"country":{"id":"US","value":"United States"},"countryiso3code":"USA","date":"2021","value":148553.34734,"unit":"","obs_status":"","decimal":0},{"indicator":{"id":"IS.RRS.TOTL.KM","value":"Rail lines (total route-km)"},"country":{"id":"US","value":"United States"},"countryiso3code":"USA","date":"2020","value":148749.68684,"unit":"","obs_status":"","decimal":0},{"indicator":{"id":"IS.RRS.TOTL.KM","value":"Rail lines (total route-km)"},"country":{"id":"US","value":"United States"},"countryiso3code":"USA","date":"2019","value":149488.6469,"unit":"","obs_status":"","decimal":0},{"indicator":{"id":"IS.RRS.TOTL.KM","value":"Rail lines (total route-km)"},"country":{"id":"US","value":"United States"},"countryiso3code":"USA","date":"2018","value":150462.2976,"unit":"","obs_status":"","decimal":0},{"indicator":{"id":"IS.RRS.TOTL.KM","value":"Rail lines (total route-km)"},"country":{"id":"US","value":"United States"},"countryiso3code":"USA","date":"2017","value":150966,"unit":"","obs_status":"","decimal":0},{"indicator":{"id":"IS.RRS.TOTL.KM","value":"Rail lines (total route-km)"},"country":{"id":"US","value":"United States"},"countryiso3code":"USA","date":"2016","value":151270,"unit":"","obs_status":"","decimal":0},{"indicator":{"id":"IS.RRS.TOTL.KM","value":"Rail lines (total route-km)"},"country":{"id":"US","value":"United States"},"countryiso3code":"USA","date":"2015","value":151735,"unit":"","obs_status":"","decimal":0},{"indicator":{"id":"IS.RRS.TOTL.KM","value":"Rail lines (total route-km)"},"country":{"id":"US","value":"United States"},"countryiso3code":"USA","date":"2014","value":152932.6,"unit":"","obs_status":"","decimal":0},{"indicator":{"id":"IS.RRS.TOTL.KM","value":"Rail lines (total route-km)"},"country":{"id":"US","value":"United States"},"countryiso3code":"USA","date":"2013","value":154321.5,"unit":"","obs_status":"","decimal":0},{"indicator":{"id":"IS.RRS.TOTL.KM","value":"Rail lines (total route-km)"},"country":{"id":"US","value":"United States"},"countryiso3code":"USA","date":"2012","value":153516.6,"unit":"","obs_status":"","decimal":0},{"indicator":{"id":"IS.RRS.TOTL.KM","value":"Rail lines (total route-km)"},"country":{"id":"US","value":"United States"},"countryiso3code":"USA","date":"2011","value":194136,"unit":"","obs_status":"","decimal":0},{"indicator":{"id":"IS.RRS.TOTL.KM","value":"Rail lines (total route-km)"},"country":{"id":"US","value":"United States"},"countryiso3code":"USA","date":"2010","value":194431,"unit":"","obs_status":"","decimal":0},{"indicator":{"id":"IS.RRS.TOTL.KM","value":"Rail lines (total route-km)"},"country":{"id":"US","value":"United States"},"countryiso3code":"USA","date":"2009","value":191785,"unit":"","obs_status":"","decimal":0},{"indicator":{"id":"IS.RRS.TOTL.KM","value":"Rail lines (total route-km)"},"country":{"id":"US","value":"United States"},"countryiso3code":"USA","date":"2008","value":192123,"unit":"","obs_status":"","decimal":0},{"indicator":{"id":"IS.RRS.TOTL.KM","value":"Rail lines (total route-km)"},"country":{"id":"US","value":"United States"},"countryiso3code":"USA","date":"2007","value":192508,"unit":"","obs_status":"","decimal":0},{"indicator":{"id":"IS.RRS.TOTL.KM","value":"Rail lines (total route-km)"},"country":{"id":"US","value":"United States"},"countryiso3code":"USA","date":"2006","value":191771,"unit":"","obs_status":"","decimal":0},{"indicator":{"id":"IS.RRS.TOTL.KM","value":"Rail lines (total route-km)"},"country":{"id":"US","value":"United States"},"countryiso3code":"USA","date":"2005","value":194025,"unit":"","obs_status":"","decimal":0},{"indicator":{"id":"IS.RRS.TOTL.KM","value":"Rail lines (total route-km)"},"country":{"id":"US","value":"United States"},"countryiso3code":"USA","date":"2004","value":195369,"unit":"","obs_status":"","decimal":0},{"indicator":{"id":"IS.RRS.TOTL.KM","value":"Rail lines (total route-km)"},"country":{"id":"US","value":"United States"},"countryiso3code":"USA","date":"2003","value":196806,"unit":"","obs_status":"","decimal":0},{"indicator":{"id":"IS.RRS.TOTL.KM","value":"Rail lines (total route-km)"},"country":{"id":"US","value":"United States"},"countryiso3code":"USA","date":"2002","value":198057,"unit":"","obs_status":"","decimal":0},{"indicator":{"id":"IS.RRS.TOTL.KM","value":"Rail lines (total route-km)"},"country":{"id":"US","value":"United States"},"countryiso3code":"USA","date":"2001","value":194746,"unit":"","obs_status":"","decimal":0},{"indicator":{"id":"IS.RRS.TOTL.KM","value":"Rail lines (total route-km)"},"country":{"id":"US","value":"United States"},"countryiso3code":"USA","date":"2000","value":194077,"unit":"","obs_status":"","decimal":0},{"indicator":{"id":"IS.RRS.TOTL.KM","value":"Rail lines (total route-km)"},"country":{"id":"US","value":"United States"},"countryiso3code":"USA","date":"1999","value":194708,"unit":"","obs_status":"","decimal":0},{"indicator":{"id":"IS.RRS.TOTL.KM","value":"Rail lines (total route-km)"},"country":{"id":"US","value":"United States"},"countryiso3code":"USA","date":"1998","value":192815,"unit":"","obs_status":"","decimal":0},{"indicator":{"id":"IS.RRS.TOTL.KM","value":"Rail lines (total route-km)"},"country":{"id":"US","value":"United States"},"countryiso3code":"USA","date":"1997","value":195804,"unit":"","obs_status":"","decimal":0},{"indicator":{"id":"IS.RRS.TOTL.KM","value":"Rail lines (total route-km)"},"country":{"id":"US","value":"United States"},"countryiso3code":"USA","date":"1996","value":203875,"unit":"","obs_status":"","decimal":0},{"indicator":{"id":"IS.RRS.TOTL.KM","value":"Rail lines (total route-km)"},"country":{"id":"US","value":"United States"},"countryiso3code":"USA","date":"1995","value":201284,"unit":"","obs_status":"","decimal":0},{"indicator":{"id":"IS.RRS.TOTL.KM","value":"Rail lines (total route-km)"},"country":{"id":"US","value":"United States"},"countryiso3code":"USA","date":"1994","value":null,"unit":"","obs_status":"","decimal":0},{"indicator":{"id":"IS.RRS.TOTL.KM","value":"Rail lines (total route-km)"},"country":{"id":"US","value":"United States"},"countryiso3code":"USA","date":"1993","value":null,"unit":"","obs_status":"","decimal":0},{"indicator":{"id":"IS.RRS.TOTL.KM","value":"Rail lines (total route-km)"},"country":{"id":"US","value":"United States"},"countryiso3code":"USA","date":"1992","value":null,"unit":"","obs_status":"","decimal":0},{"indicator":{"id":"IS.RRS.TOTL.KM","value":"Rail lines (total route-km)"},"country":{"id":"US","value":"United States"},"countryiso3code":"USA","date":"1991","value":null,"unit":"","obs_status":"","decimal":0},{"indicator":{"id":"IS.RRS.TOTL.KM","value":"Rail lines (total route-km)"},"country":{"id":"US","value":"United States"},"countryiso3code":"USA","date":"1990","value":null,"unit":"","obs_status":"","decimal":0},{"indicator":{"id":"IS.RRS.TOTL.KM","value":"Rail lines (total route-km)"},"country":{"id":"US","value":"United States"},"countryiso3code":"USA","date":"1989","value":null,"unit":"","obs_status":"","decimal":0},{"indicator":{"id":"IS.RRS.TOTL.KM","value":"Rail lines (total route-km)"},"country":{"id":"US","value":"United States"},"countryiso3code":"USA","date":"1988","value":null,"unit":"","obs_status":"","decimal":0},{"indicator":{"id":"IS.RRS.TOTL.KM","value":"Rail lines (total route-km)"},"country":{"id":"US","value":"United States"},"countryiso3code":"USA","date":"1987","value":null,"unit":"","obs_status":"","decimal":0},{"indicator":{"id":"IS.RRS.TOTL.KM","value":"Rail lines (total route-km)"},"country":{"id":"US","value":"United States"},"countryiso3code":"USA","date":"1986","value":null,"unit":"","obs_status":"","decimal":0},{"indicator":{"id":"IS.RRS.TOTL.KM","value":"Rail lines (total route-km)"},"country":{"id":"US","value":"United States"},"countryiso3code":"USA","date":"1985","value":null,"unit":"","obs_status":"","decimal":0},{"indicator":{"id":"IS.RRS.TOTL.KM","value":"Rail lines (total route-km)"},"country":{"id":"US","value":"United States"},"countryiso3code":"USA","date":"1984","value":null,"unit":"","obs_status":"","decimal":0},{"indicator":{"id":"IS.RRS.TOTL.KM","value":"Rail lines (total route-km)"},"country":{"id":"US","value":"United States"},"countryiso3code":"USA","date":"1983","value":null,"unit":"","obs_status":"","decimal":0},{"indicator":{"id":"IS.RRS.TOTL.KM","value":"Rail lines (total route-km)"},"country":{"id":"US","value":"United States"},"countryiso3code":"USA","date":"1982","value":null,"unit":"","obs_status":"","decimal":0},{"indicator":{"id":"IS.RRS.TOTL.KM","value":"Rail lines (total route-km)"},"country":{"id":"US","value":"United States"},"countryiso3code":"USA","date":"1981","value":null,"unit":"","obs_status":"","decimal":0},{"indicator":{"id":"IS.RRS.TOTL.KM","value":"Rail lines (total route-km)"},"country":{"id":"US","value":"United States"},"countryiso3code":"USA","date":"1980","value":null,"unit":"","obs_status":"","decimal":0},{"indicator":{"id":"IS.RRS.TOTL.KM","value":"Rail lines (total route-km)"},"country":{"id":"US","value":"United States"},"countryiso3code":"USA","date":"1979","value":null,"unit":"","obs_status":"","decimal":0},{"indicator":{"id":"IS.RRS.TOTL.KM","value":"Rail lines (total route-km)"},"country":{"id":"US","value":"United States"},"countryiso3code":"USA","date":"1978","value":null,"unit":"","obs_status":"","decimal":0},{"indicator":{"id":"IS.RRS.TOTL.KM","value":"Rail lines (total route-km)"},"country":{"id":"US","value":"United States"},"countryiso3code":"USA","date":"1977","value":null,"unit":"","obs_status":"","decimal":0},{"indicator":{"id":"IS.RRS.TOTL.KM","value":"Rail lines (total route-km)"},"country":{"id":"US","value":"United States"},"countryiso3code":"USA","date":"1976","value":null,"unit":"","obs_status":"","decimal":0},{"indicator":{"id":"IS.RRS.TOTL.KM","value":"Rail lines (total route-km)"},"country":{"id":"US","value":"United States"},"countryiso3code":"USA","date":"1975","value":null,"unit":"","obs_status":"","decimal":0},{"indicator":{"id":"IS.RRS.TOTL.KM","value":"Rail lines (total route-km)"},"country":{"id":"US","value":"United States"},"countryiso3code":"USA","date":"1974","value":null,"unit":"","obs_status":"","decimal":0}]]