[{"page":1,"pages":2,"per_page":50,"total":64,"sourceid":"2","lastupdated":"2024-05-30"},[{"indicator":{"id":"SL.UEM.TOTL.ZS","value":"Unemployment, total (% of total labor force) (modeled ILO estimate)"},"country":{"id":"US","value":"United States"},"countryiso3code":"USA","date":"2023","value":3.648,"unit":"","obs_status":"","decimal":1},{"indicator":{"id":"SL.UEM.TOTL.ZS","value":"Unemployment, total (% of total labor force) (modeled ILO estimate)"},"country":{"id":"US","value":"United States"},"countryiso3code":"USA","date":"2022","value":3.65,"unit":"","obs_status":"","decimal":1},{"indicator":{"id":"SL.UEM.TOTL.ZS","value":"Unemployment, total (% of total labor force) (modeled ILO estimate)"},"country":{"id":"US","value":"United States"},"countryiso3code":"USA","date":"2021","value":5.35,"unit":"","obs_status":"","decimal":1},{"indicator":{"id":"SL.UEM.TOTL.ZS","value":"Unemployment, total (% of total labor force) (modeled ILO estimate)"},"country":{"id":"US","value":"United States"},"countryiso3code":"USA","date":"2020","value":8.05,"unit":"","obs_status":"","decimal":1},{"indicator":{"id":"SL.UEM.TOTL.ZS","value":"Unemployment, total (% of total labor force) (modeled ILO estimate)"},"country":{"id":"US","value":"United States"},"countryiso3code":"USA","date":"2019","value":3.67,"unit":"","obs_status":"","decimal":1},{"indicator":{"id":"SL.UEM.TOTL.ZS","value":"Unemployment, total (% of total labor force) (modeled ILO estimate)"},"country":{"id":"US","value":"United States"},"countryiso3code":"USA","date":"2018","value":3.9,"unit":"","obs_status":"","decimal":1},{"indicator":{"id":"SL.UEM.TOTL.ZS","value":"Unemployment, total (% of total labor force) (modeled ILO estimate)"},"country":{"id":"US","value":"United States"},"countryiso3code":"USA","date":"2017","value":4.36,"unit":"","obs_status":"","decimal":1},{"indicator":{"id":"SL.UEM.TOTL.ZS","value":"Unemployment, total (% of total labor force) (modeled ILO estimate)"},"country":{"id":"US","value":"United States"},"countryiso3code":"USA","date":"2016","value":4.87,"unit":"","obs_status":"","decimal":1},{"indicator":{"id":"SL.UEM.TOTL.ZS","value":"Unemployment, total (% of total labor force) (modeled ILO estimate)"},"country":{"id":"US","value":"United States"},"countryiso3code":"USA","date":"2015","value":5.28,"unit":"","obs_status":"","decimal":1},{"indicator":{"id":"SL.UEM.TOTL.ZS","value":"Unemployment, total (% of total labor force) (modeled ILO estimate)"},"country":{"id":"US","value":"United States"},"countryiso3code":"USA","date":"2014","value":6.17,"unit":"","obs_status":"","decimal":1},{"indicator":{"id":"SL.UEM.TOTL.ZS","value":"Unemployment, total (% of total labor force) (modeled ILO estimate)"},"country":{"id":"US","value":"United States"},"countryiso3code":"USA","date":"2013","value":7.37,"unit":"","obs_status":"","decimal":1},{"indicator":{"id":"SL.UEM.TOTL.ZS","value":"Unemployment, total (% of total labor force) (modeled ILO estimate)"},"country":{"id":"US","value":"United States"},"countryiso3code":"USA","date":"2012","value":8.07,"unit":"","obs_status":"","decimal":1},{"indicator":{"id":"SL.UEM.TOTL.ZS","value":"Unemployment, total (% of total labor force) (modeled ILO estimate)"},"country":{"id":"US","value":"United States"},"countryiso3code":"USA","date":"2011","value":8.95,"unit":"","obs_status":"","decimal":1},{"indicator":{"id":"SL.UEM.TOTL.ZS","value":"Unemployment, total (% of total labor force) (modeled ILO estimate)"},"country":{"id":"US","value":"United States"},"countryiso3code":"USA","date":"2010","value":9.63,"unit":"","obs_status":"","decimal":1},{"indicator":{"id":"SL.UEM.TOTL.ZS","value":"Unemployment, total (% of total labor force) (modeled ILO estimate)"},"country":{"id":"US","value":"United States"},"countryiso3code":"USA","date":"2009","value":9.25,"unit":"","obs_status":"","decimal":1},{"indicator":{"id":"SL.UEM.TOTL.ZS","value":"Unemployment, total (% of total labor force) (modeled ILO estimate)"},"country":{"id":"US","value":"United States"},"countryiso3code":"USA","date":"2008","value":5.78,"unit":"","obs_status":"","decimal":1},{"indicator":{"id":"SL.UEM.TOTL.ZS","value":"Unemployment, total (% of total labor force) (modeled ILO estimate)"},"country":{"id":"US","value":"United States"},"countryiso3code":"USA","date":"2007","value":4.62,"unit":"","obs_status":"","decimal":1},{"indicator":{"id":"SL.UEM.TOTL.ZS","value":"Unemployment, total (% of total labor force) (modeled ILO estimate)"},"country":{"id":"US","value":"United States"},"countryiso3code":"USA","date":"2006","value":4.62,"unit":"","obs_status":"","decimal":1},{"indicator":{"id":"SL.UEM.TOTL.ZS","value":"Unemployment, total (% of total labor force) (modeled ILO estimate)"},"country":{"id":"US","value":"United States"},"countryiso3code":"USA","date":"2005","value":5.08,"unit":"","obs_status":"","decimal":1},{"indicator":{"id":"SL.UEM.TOTL.ZS","value":"Unemployment, total (% of total labor force) (modeled ILO estimate)"},"country":{"id":"US","value":"United States"},"countryiso3code":"USA","date":"2004","value":5.53,"unit":"","obs_status":"","decimal":1},{"indicator":{"id":"SL.UEM.TOTL.ZS","value":"Unemployment, total (% of total labor force) (modeled ILO estimate)"},"country":{"id":"US","value":"United States"},"countryiso3code":"USA","date":"2003","value":5.99,"unit":"","obs_status":"","decimal":1},{"indicator":{"id":"SL.UEM.TOTL.ZS","value":"Unemployment, total (% of total labor force) (modeled ILO estimate)"},"country":{"id":"US","value":"United States"},"countryiso3code":"USA","date":"2002","value":5.78,"unit":"","obs_status":"","decimal":1},{"indicator":{"id":"SL.UEM.TOTL.ZS","value":"Unemployment, total (% of total labor force) (modeled ILO estimate)"},"country":{"id":"US","value":"United States"},"countryiso3code":"USA","date":"2001","value":4.73,"unit":"","obs_status":"","decimal":1},{"indicator":{"id":"SL.UEM.TOTL.ZS","value":"Unemployment, total (% of total labor force) (modeled ILO estimate)"},"country":{"id":"US","value":"United States"},"countryiso3code":"USA","date":"2000","value":3.99,"unit":"","obs_status":"","decimal":1},{"indicator":{"id":"SL.UEM.TOTL.ZS","value":"Unemployment, total (% of total labor force) (modeled ILO estimate)"},"country":{"id":"US","value":"United States"},"countryiso3code":"USA","date":"1999","value":4.22,"unit":"","obs_status":"","decimal":1},{"indicator":{"id":"SL.UEM.TOTL.ZS","value":"Unemployment, total (% of total labor force) (modeled ILO estimate)"},"country":{"id":"US","value":"United States"},"countryiso3code":"USA","date":"1998","value":4.51,"unit":"","obs_status":"","decimal":1},{"indicator":{"id":"SL.UEM.TOTL.ZS","value":"Unemployment, total (% of total labor force) (modeled ILO estimate)"},"country":{"id":"US","value":"United States"},"countryiso3code":"USA","date":"1997","value":5,"unit":"","obs_status":"","decimal":1},{"indicator":{"id":"SL.UEM.TOTL.ZS","value":"Unemployment, total (% of total labor force) (modeled ILO estimate)"},"country":{"id":"US","value":"United States"},"countryiso3code":"USA","date":"1996","value":5.45,"unit":"","obs_status":"","decimal":1},{"indicator":{"id":"SL.UEM.TOTL.ZS","value":"Unemployment, total (% of total labor force) (modeled ILO estimate)"},"country":{"id":"US","value":"United States"},"countryiso3code":"USA","date":"1995","value":5.65,"unit":"","obs_status":"","decimal":1},{"indicator":{"id":"SL.UEM.TOTL.ZS","value":"Unemployment, total (% of total labor force) (modeled ILO estimate)"},"country":{"id":"US","value":"United States"},"countryiso3code":"USA","date":"1994","value":6.12,"unit":"","obs_status":"","decimal":1},{"indicator":{"id":"SL.UEM.TOTL.ZS","value":"Unemployment, total (% of total labor force) (modeled ILO estimate)"},"country":{"id":"US","value":"United States"},"countryiso3code":"USA","date":"1993","value":6.9,"unit":"","obs_status":"","decimal":1},{"indicator":{"id":"SL.UEM.TOTL.ZS","value":"Unemployment, total (% of total labor force) (modeled ILO estimate)"},"country":{"id":"US","value":"United States"},"countryiso3code":"USA","date":"1992","value":7.5,"unit":"","obs_status":"","decimal":1},{"indicator":{"id":"SL.UEM.TOTL.ZS","value":"Unemployment, total (% of total labor force) (modeled ILO estimate)"},"country":{"id":"US","value":"United States"},"countryiso3code":"USA","date":"1991","value":6.8,"unit":"","obs_status":"","decimal":1},{"indicator":{"id":"SL.UEM.TOTL.ZS","value":"Unemployment, total (% of total labor force) (modeled ILO estimate)"},"country":{"id":"US","value":"United States"},"countryiso3code":"USA","date":"1990","value":null,"unit":"","obs_status":"","decimal":1},{"indicator":{"id":"SL.UEM.TOTL.ZS","value":"Unemployment, total (% of total labor force) (modeled ILO estimate)"},"country":{"id":"US","value":"United States"},"countryiso3code":"USA","date":"1989","value":null,"unit":"","obs_status":"","decimal":1},{"indicator":{"id":"SL.UEM.TOTL.ZS","value":"Unemployment, total (% of total labor force) (modeled ILO estimate)"},"country":{"id":"US","value":"United States"},"countryiso3code":"USA","date":"1988","value":null,"unit":"","obs_status":"","decimal":1},{"indicator":{"id":"SL.UEM.TOTL.ZS","value":"Unemployment, total (% of total labor force) (modeled ILO estimate)"},"country":{"id":"US","value":"United States"},"countryiso3code":"USA","date":"1987","value":null,"unit":"","obs_status":"","decimal":1},{"indicator":{"id":"SL.UEM.TOTL.ZS","value":"Unemployment, total (% of total labor force) (modeled ILO estimate)"},"country":{"id":"US","value":"United States"},"countryiso3code":"USA","date":"1986","value":null,"unit":"","obs_status":"","decimal":1},{"indicator":{"id":"SL.UEM.TOTL.ZS","value":"Unemployment, total (% of total labor force) (modeled ILO estimate)"},"country":{"id":"US","value":"United States"},"countryiso3code":"USA","date":"1985","value":null,"unit":"","obs_status":"","decimal":1},{"indicator":{"id":"SL.UEM.TOTL.ZS","value":"Unemployment, total (% of total labor force) (modeled ILO estimate)"},"country":{"id":"US","value":"United States"},"countryiso3code":"USA","date":"1984","value":null,"unit":"","obs_status":"","decimal":1},{"indicator":{"id":"SL.UEM.TOTL.ZS","value":"Unemployment, total (% of total labor force) (modeled ILO estimate)"},"country":{"id":"US","value":"United States"},"countryiso3code":"USA","date":"1983","value":null,"unit":"","obs_status":"","decimal":1},{"indicator":{"id":"SL.UEM.TOTL.ZS","value":"Unemployment, total (% of total labor force) (modeled ILO estimate)"},"country":{"id":"US","value":"United States"},"countryiso3code":"USA","date":"1982","value":null,"unit":"","obs_status":"","decimal":1},{"indicator":{"id":"SL.UEM.TOTL.ZS","value":"Unemployment, total (% of total labor force) (modeled ILO estimate)"},"country":{"id":"US","value":"United States"},"countryiso3code":"USA","date":"1981","value":null,"unit":"","obs_status":"","decimal":1},{"indicator":{"id":"SL.UEM.TOTL.ZS","value":"Unemployment, total (% of total labor force) (modeled ILO estimate)"},"country":{"id":"US","value":"United States"},"countryiso3code":"USA","date":"1980","value":null,"unit":"","obs_status":"","decimal":1},{"indicator":{"id":"SL.UEM.TOTL.ZS","value":"Unemployment, total (% of total labor force) (modeled ILO estimate)"},"country":{"id":"US","value":"United States"},"countryiso3code":"USA","date":"1979","value":null,"unit":"","obs_status":"","decimal":1},{"indicator":{"id":"SL.UEM.TOTL.ZS","value":"Unemployment, total (% of total labor force) (modeled ILO estimate)"},"country":{"id":"US","value":"United States"},"countryiso3code":"USA","date":"1978","value":null,"unit":"","obs_status":"","decimal":1},{"indicator":{"id":"SL.UEM.TOTL.ZS","value":"Unemployment, total (% of total labor force) (modeled ILO estimate)"},"country":{"id":"US","value":"United States"},"countryiso3code":"USA","date":"1977","value":null,"unit":"","obs_status":"","decimal":1},{"indicator":{"id":"SL.UEM.TOTL.ZS","value":"Unemployment, total (% of total labor force) (modeled ILO estimate)"},"country":{"id":"US","value":"United States"},"countryiso3code":"USA","date":"1976","value":null,"unit":"","obs_status":"","decimal":1},{"indicator":{"id":"SL.UEM.TOTL.ZS","value":"Unemployment, total (% of total labor force) (modeled ILO estimate)"},"country":{"id":"US","value":"United States"},"countryiso3code":"USA","date":"1975","value":null,"unit":"","obs_status":"","decimal":1},{"indicator":{"id":"SL.UEM.TOTL.ZS","value":"Unemployment, total (% of total labor force) (modeled ILO estimate)"},"country":{"id":"US","value":"United States"},"countryiso3code":"USA","date":"1974","value":null,"unit":"","obs_status":"","decimal":1}]]